crates/rhdl-fpga/vcd/chain_func/auto_counter.vcd
$timescale 1 ps $end
$scope module top $end
$scope module count $end
$scope module dff $end
$var wire 4 # input $end
$var wire 4 $ output $end
$upscope $end
$upscope $end
$var wire 1 ! clock $end
$var wire 1 ) input $end
$var wire 4 % outputs $end
$var wire 1 " reset $end
$upscope $end
$enddefinitions $end
#0
b0 !
b1 "
b0001 #
b0000 $
b0000 %
#50
b1 !
#51
b0 "
#100
b0 !
#150
b1 !
b0001 $
b0010 #
b0001 %
#151
#200
b0 !
#250
b1 !
b0010 $
b0011 #
b0010 %
#251
#300
b0 !
#350
b1 !
b0011 $
b0100 #
b0011 %
#351
#400
b0 !
#450
b1 !
b0100 $
b0101 #
b0100 %
#451
#500
b0 !
#550
b1 !
b0101 $
b0110 #
b0101 %
#551
#600
b0 !
#650
b1 !
b0110 $
b0111 #
b0110 %
#651
#700
b0 !
#750
b1 !
b0111 $
b1000 #
b0111 %
#751
#800
b0 !
#850
b1 !
b1000 $
b1001 #
b1000 %
#851
#900
b0 !
#950
b1 !
b1001 $
b1010 #
b1001 %
#951
#1000
b0 !
#1050
b1 !
b1010 $
b1011 #
b1010 %
#1051
#1100
b0 !
#1150
b1 !
b1011 $
b1100 #
b1011 %
#1151
#1200
b0 !
#1250
b1 !
b1100 $
b1101 #
b1100 %
#1251
#1300
b0 !
#1350
b1 !
b1101 $
b1110 #
b1101 %
#1351
#1400
b0 !
#1450
b1 !
b1110 $
b1111 #
b1110 %
#1451
#1500
b0 !
#1550
b1 !
b1111 $
b0000 #
b1111 %
#1551
#1600
b0 !
#1650
b1 !
b0000 $
b0001 #
b0000 %
#1651
#1700
b0 !
#1750
b1 !
b0001 $
b0010 #
b0001 %
#1751
#1800
b0 !
#1850
b1 !
b0010 $
b0011 #
b0010 %
#1851
#1900
b0 !
#1950
b1 !
b0011 $
b0100 #
b0011 %
#1951
#2000
b0 !
#2050
b1 !
b0100 $
b0101 #
b0100 %
#2051
#2100
b0 !
#2150
b1 !
b0101 $
b0110 #
b0101 %
#2151
#2200
b0 !
#2250
b1 !
b0110 $
b0111 #
b0110 %
#2251
#2300
b0 !
#2350
b1 !
b0111 $
b1000 #
b0111 %
#2351
#2400
b0 !
#2450
b1 !
b1000 $
b1001 #
b1000 %
#2451
#2500
b0 !
#2550
b1 !
b1001 $
b1010 #
b1001 %
#2551
#2600
b0 !
#2650
b1 !
b1010 $
b1011 #
b1010 %
#2651
#2700
b0 !
#2750
b1 !
b1011 $
b1100 #
b1011 %
#2751
#2800
b0 !
#2850
b1 !
b1100 $
b1101 #
b1100 %
#2851
#2900
b0 !
#2950
b1 !
b1101 $
b1110 #
b1101 %
#2951
#3000
b0 !
#3050
b1 !
b1110 $
b1111 #
b1110 %
#3051
#3100
b0 !
#3150
b1 !
b1111 $
b0000 #
b1111 %
#3151
#3200
b0 !
#3250
b1 !
b0000 $
b0001 #
b0000 %
#3251
#3300
b0 !
#3350
b1 !
b0001 $
b0010 #
b0001 %
#3351
#3400
b0 !
#3450
b1 !
b0010 $
b0011 #
b0010 %
#3451
#3500
b0 !
#3550
b1 !
b0011 $
b0100 #
b0011 %
#3551
#3600
b0 !
#3650
b1 !
b0100 $
b0101 #
b0100 %
#3651
#3700
b0 !
#3750
b1 !
b0101 $
b0110 #
b0101 %
#3751
#3800
b0 !
#3850
b1 !
b0110 $
b0111 #
b0110 %
#3851
#3900
b0 !
#3950
b1 !
b0111 $
b1000 #
b0111 %
#3951
#4000
b0 !
#4050
b1 !
b1000 $
b1001 #
b1000 %
#4051
#4100
b0 !
#4150
b1 !
b1001 $
b1010 #
b1001 %
#4151
#4200
b0 !
#4250
b1 !
b1010 $
b1011 #
b1010 %
#4251
#4300
b0 !
#4350
b1 !
b1011 $
b1100 #
b1011 %
#4351
#4400
b0 !
#4450
b1 !
b1100 $
b1101 #
b1100 %
#4451
#4500
b0 !
#4550
b1 !
b1101 $
b1110 #
b1101 %
#4551
#4600
b0 !
#4650
b1 !
b1110 $
b1111 #
b1110 %
#4651
#4700
b0 !
#4750
b1 !
b1111 $
b0000 #
b1111 %
#4751
#4800
b0 !
#4850
b1 !
b0000 $
b0001 #
b0000 %
#4851
#4900
b0 !
#4950
b1 !
b0001 $
b0010 #
b0001 %
#4951
#5000
b0 !
#5050
b1 !
b0010 $
b0011 #
b0010 %
#5051
#5100
b0 !
#5150
b1 !
b0011 $
b0100 #
b0011 %
#5151
#5200
b0 !
#5250
b1 !
b0100 $
b0101 #
b0100 %
#5251
#5300
b0 !
#5350
b1 !
b0101 $
b0110 #
b0101 %
#5351
#5400
b0 !
#5450
b1 !
b0110 $
b0111 #
b0110 %
#5451
#5500
b0 !
#5550
b1 !
b0111 $
b1000 #
b0111 %
#5551
#5600
b0 !
#5650
b1 !
b1000 $
b1001 #
b1000 %
#5651
#5700
b0 !
#5750
b1 !
b1001 $
b1010 #
b1001 %
#5751
#5800
b0 !
#5850
b1 !
b1010 $
b1011 #
b1010 %
#5851
#5900
b0 !
#5950
b1 !
b1011 $
b1100 #
b1011 %
#5951
#6000
b0 !
#6050
b1 !
b1100 $
b1101 #
b1100 %
#6051
#6100
b0 !
#6150
b1 !
b1101 $
b1110 #
b1101 %
#6151
#6200
b0 !
#6250
b1 !
b1110 $
b1111 #
b1110 %
#6251
#6300
b0 !
#6350
b1 !
b1111 $
b0000 #
b1111 %
#6351
#6400
b0 !
#6450
b1 !
b0000 $
b0001 #
b0000 %
#6451
#6500
b0 !
#6550
b1 !
b0001 $
b0010 #
b0001 %
#6551
#6600
b0 !
#6650
b1 !
b0010 $
b0011 #
b0010 %
#6651
#6700
b0 !
#6750
b1 !
b0011 $
b0100 #
b0011 %
#6751
#6800
b0 !
#6850
b1 !
b0100 $
b0101 #
b0100 %
#6851
#6900
b0 !
#6950
b1 !
b0101 $
b0110 #
b0101 %
#6951
#7000
b0 !
#7050
b1 !
b0110 $
b0111 #
b0110 %
#7051
#7100
b0 !
#7150
b1 !
b0111 $
b1000 #
b0111 %
#7151
#7200
b0 !
#7250
b1 !
b1000 $
b1001 #
b1000 %
#7251
#7300
b0 !
#7350
b1 !
b1001 $
b1010 #
b1001 %
#7351
#7400
b0 !
#7450
b1 !
b1010 $
b1011 #
b1010 %
#7451
#7500
b0 !
#7550
b1 !
b1011 $
b1100 #
b1011 %
#7551
#7600
b0 !
#7650
b1 !
b1100 $
b1101 #
b1100 %
#7651
#7700
b0 !
#7750
b1 !
b1101 $
b1110 #
b1101 %
#7751
#7800
b0 !
#7850
b1 !
b1110 $
b1111 #
b1110 %
#7851
#7900
b0 !
#7950
b1 !
b1111 $
b0000 #
b1111 %
#7951
#8000
b0 !
#8050
b1 !
b0000 $
b0001 #
b0000 %
#8051
#8100
b0 !
#8150
b1 !
b0001 $
b0010 #
b0001 %
#8151
#8200
b0 !
#8250
b1 !
b0010 $
b0011 #
b0010 %
#8251
#8300
b0 !
#8350
b1 !
b0011 $
b0100 #
b0011 %
#8351
#8400
b0 !
#8450
b1 !
b0100 $
b0101 #
b0100 %
#8451
#8500
b0 !
#8550
b1 !
b0101 $
b0110 #
b0101 %
#8551
#8600
b0 !
#8650
b1 !
b0110 $
b0111 #
b0110 %
#8651
#8700
b0 !
#8750
b1 !
b0111 $
b1000 #
b0111 %
#8751
#8800
b0 !
#8850
b1 !
b1000 $
b1001 #
b1000 %
#8851
#8900
b0 !
#8950
b1 !
b1001 $
b1010 #
b1001 %
#8951
#9000
b0 !
#9050
b1 !
b1010 $
b1011 #
b1010 %
#9051
#9100
b0 !
#9150
b1 !
b1011 $
b1100 #
b1011 %
#9151
#9200
b0 !
#9250
b1 !
b1100 $
b1101 #
b1100 %
#9251
#9300
b0 !
#9350
b1 !
b1101 $
b1110 #
b1101 %
#9351
#9400
b0 !
#9450
b1 !
b1110 $
b1111 #
b1110 %
#9451
#9500
b0 !
#9550
b1 !
b1111 $
b0000 #
b1111 %
#9551
#9600
b0 !
#9650
b1 !
b0000 $
b0001 #
b0000 %
#9651
#9700
b0 !
#9750
b1 !
b0001 $
b0010 #
b0001 %
#9751
#9800
b0 !
#9850
b1 !
b0010 $
b0011 #
b0010 %
#9851
#9900
b0 !
#9950
b1 !
b0011 $
b0100 #
b0011 %
#9951
#10000
b0 !
#10050
b1 !
b0100 $
b0101 #
b0100 %
#10051
#10100
b0 !
