crates/rhdl-fpga/axi_read.vcd
$timescale 1 ps $end
$scope module top $end
$scope module controller $end
$scope module inbuf $end
$scope module outbuf $end
$scope module aux_ff $end
$scope module dff $end
$var wire 32 * input $end
$var wire 32 + output $end
$upscope $end
$upscope $end
$scope module main_ff $end
$scope module dff $end
$var wire 32 ( input $end
$var wire 32 ) output $end
$upscope $end
$upscope $end
$scope module state_ff $end
$scope module dff $end
$var wire 1 . input $end
$var wire 1 / output $end
$upscope $end
$upscope $end
$scope module void_ff $end
$scope module dff $end
$var wire 1 , input $end
$var wire 1 - output $end
$upscope $end
$upscope $end
$var wire 34 ' input $end
$var wire 34 0 outputs $end
$upscope $end
$var wire 34 & input $end
$var wire 34 1 outputs $end
$upscope $end
$scope module map $end
$scope module func $end
$scope module func $end
$var wire 34 ? input $end
$var wire 33 @ output $end
$upscope $end
$upscope $end
$scope module input_buffer $end
$scope module inner $end
$scope module aux_ff $end
$scope module dff $end
$var wire 34 7 input $end
$var wire 34 8 output $end
$upscope $end
$upscope $end
$scope module main_ff $end
$scope module dff $end
$var wire 34 5 input $end
$var wire 34 6 output $end
$upscope $end
$upscope $end
$scope module state_ff $end
$scope module dff $end
$var wire 1 ; input $end
$var wire 1 < output $end
$upscope $end
$upscope $end
$scope module void_ff $end
$scope module dff $end
$var wire 1 9 input $end
$var wire 1 : output $end
$upscope $end
$upscope $end
$var wire 36 4 input $end
$var wire 36 = outputs $end
$upscope $end
$var wire 36 3 input $end
$var wire 36 > outputs $end
$upscope $end
$var wire 36 2 input $end
$var wire 35 A outputs $end
$upscope $end
$scope module outbuf $end
$scope module inbuf $end
$scope module aux_ff $end
$scope module dff $end
$var wire 34 F input $end
$var wire 34 G output $end
$upscope $end
$upscope $end
$scope module main_ff $end
$scope module dff $end
$var wire 34 D input $end
$var wire 34 E output $end
$upscope $end
$upscope $end
$scope module state_ff $end
$scope module dff $end
$var wire 1 J input $end
$var wire 1 K output $end
$upscope $end
$upscope $end
$scope module void_ff $end
$scope module dff $end
$var wire 1 H input $end
$var wire 1 I output $end
$upscope $end
$upscope $end
$var wire 36 C input $end
$var wire 36 L outputs $end
$upscope $end
$var wire 36 B input $end
$var wire 36 M outputs $end
$upscope $end
$var wire 70 % input $end
$var wire 69 N outputs $end
$upscope $end
$scope module endpoint $end
$scope module inbuf $end
$scope module inbuf $end
$scope module aux_ff $end
$scope module dff $end
$var wire 32 T input $end
$var wire 32 U output $end
$upscope $end
$upscope $end
$scope module main_ff $end
$scope module dff $end
$var wire 32 R input $end
$var wire 32 S output $end
$upscope $end
$upscope $end
$scope module state_ff $end
$scope module dff $end
$var wire 1 X input $end
$var wire 1 Y output $end
$upscope $end
$upscope $end
$scope module void_ff $end
$scope module dff $end
$var wire 1 V input $end
$var wire 1 W output $end
$upscope $end
$upscope $end
$var wire 34 Q input $end
$var wire 34 Z outputs $end
$upscope $end
$var wire 34 P input $end
$var wire 34 [ outputs $end
$upscope $end
$scope module map $end
$scope module func $end
$scope module func $end
$var wire 33 i input $end
$var wire 34 j output $end
$upscope $end
$upscope $end
$scope module input_buffer $end
$scope module inner $end
$scope module aux_ff $end
$scope module dff $end
$var wire 33 a input $end
$var wire 33 b output $end
$upscope $end
$upscope $end
$scope module main_ff $end
$scope module dff $end
$var wire 33 _ input $end
$var wire 33 ` output $end
$upscope $end
$upscope $end
$scope module state_ff $end
$scope module dff $end
$var wire 1 e input $end
$var wire 1 f output $end
$upscope $end
$upscope $end
$scope module void_ff $end
$scope module dff $end
$var wire 1 c input $end
$var wire 1 d output $end
$upscope $end
$upscope $end
$var wire 35 ^ input $end
$var wire 35 g outputs $end
$upscope $end
$var wire 35 ] input $end
$var wire 35 h outputs $end
$upscope $end
$var wire 35 \ input $end
$var wire 36 k outputs $end
$upscope $end
$scope module outbuf $end
$scope module outbuf $end
$scope module aux_ff $end
$scope module dff $end
$var wire 34 p input $end
$var wire 34 q output $end
$upscope $end
$upscope $end
$scope module main_ff $end
$scope module dff $end
$var wire 34 n input $end
$var wire 34 o output $end
$upscope $end
$upscope $end
$scope module state_ff $end
$scope module dff $end
$var wire 1 t input $end
$var wire 1 u output $end
$upscope $end
$upscope $end
$scope module void_ff $end
$scope module dff $end
$var wire 1 r input $end
$var wire 1 s output $end
$upscope $end
$upscope $end
$var wire 36 m input $end
$var wire 36 v outputs $end
$upscope $end
$var wire 36 l input $end
$var wire 36 w outputs $end
$upscope $end
$var wire 69 O input $end
$var wire 70 x outputs $end
$upscope $end
$scope module reply_sink $end
$scope module sink_from_fn $end
$var wire 34 } input $end
$var wire 1 ~ output $end
$upscope $end
$upscope $end
$scope module reply_source $end
$scope module from_fn_stream $end
$var wire 1 { input $end
$var wire 34 | output $end
$upscope $end
$upscope $end
$scope module req_sink $end
$scope module sink_from_fn $end
$var wire 33 y input $end
$var wire 1 z output $end
$upscope $end
$upscope $end
$scope module req_source $end
$scope module from_fn_stream $end
$var wire 1 # input $end
$var wire 33 $ output $end
$upscope $end
$upscope $end
$var wire 1 ! clock $end
$var wire 1 ~! input $end
$var wire 1 "" outputs $end
$var wire 1 " reset $end
$upscope $end
$enddefinitions $end
#0
b0 !
b1 "
b0 #
b000000000000000000000000000000000 $
b0000000000000000000000000000000000000000000000000000000000000000000000 %
b0000000000000000000000000000000000 &
b1100000000000000000000000000000000 '
b00000000000000000000000000000000 (
b00000000000000000000000000000000 )
b00000000000000000000000000000000 *
b00000000000000000000000000000000 +
b0 ,
b0 -
b0 .
b0 /
b1100000000000000000000000000000000 0
b0000000000000000000000000000000000 1
b000000000000000000000000000000000000 2
b000000000000000000000000000000000000 3
b110000000000000000000000000000000000 4
b0000000000000000000000000000000000 5
b0000000000000000000000000000000000 6
b0000000000000000000000000000000000 7
b0000000000000000000000000000000000 8
b0 9
b0 :
b0 ;
b0 <
b110000000000000000000000000000000000 =
b000000000000000000000000000000000000 >
b0000000000000000000000000000000000 ?
b100000000000000000000000000000000 @
b00000000000000000000000000000000000 A
b000000000000000000000000000000000000 B
b110000000000000000000000000000000000 C
b0000000000000000000000000000000000 D
b0000000000000000000000000000000000 E
b0000000000000000000000000000000000 F
b0000000000000000000000000000000000 G
b0 H
b0 I
b0 J
b0 K
b110000000000000000000000000000000000 L
b000000000000000000000000000000000000 M
b000000000000000000000000000000000000000000000000000000000000000000000 N
b000000000000000000000000000000000000000000000000000000000000000000000 O
b0000000000000000000000000000000000 P
b1100000000000000000000000000000000 Q
b00000000000000000000000000000000 R
b00000000000000000000000000000000 S
b00000000000000000000000000000000 T
b00000000000000000000000000000000 U
b0 V
b0 W
b0 X
b0 Y
b1100000000000000000000000000000000 Z
b0000000000000000000000000000000000 [
b00000000000000000000000000000000000 \
b00000000000000000000000000000000000 ]
b11000000000000000000000000000000000 ^
b000000000000000000000000000000000 _
b000000000000000000000000000000000 `
b000000000000000000000000000000000 a
b000000000000000000000000000000000 b
b0 c
b0 d
b0 e
b0 f
b11000000000000000000000000000000000 g
b00000000000000000000000000000000000 h
b000000000000000000000000000000000 i
b0000000000000000000000000000000010 j
b000000000000000000000000000000000000 k
b000000000000000000000000000000000000 l
b110000000000000000000000000000000000 m
b0000000000000000000000000000000000 n
b0000000000000000000000000000000000 o
b0000000000000000000000000000000000 p
b0000000000000000000000000000000000 q
b0 r
b0 s
b0 t
b0 u
b110000000000000000000000000000000000 v
b000000000000000000000000000000000000 w
b0000000000000000000000000000000000000000000000000000000000000000000000 x
b000000000000000000000000000000000 y
b0 z
b0 {
b0000000000000000000000000000000000 |
b0000000000000000000000000000000000 }
b0 ~
#50
b1 !
b1 -
b1 ,
b1 :
b1 9
b1 I
b1 H
b1 W
b1 V
b1 d
b1 c
b1 s
b1 r
#51
b0 "
b110101011001110100011110001100010 $
b0100000000000000000000000000000000 0
b1000000000000000000000000000000000 1
b010000000000000000000000000000000000 =
b100000000000000000000000000000000000 >
b10000000000000000000000000000000000 A
b010000000000000000000000000000000000 L
b100000000000000000000000000000000000 M
b100000000000000000000000000000000000 B
b010000000000000000000000000000000000 C
b000000000000000000000000000000000011000000000000000000000000000000000 N
b0100000000000000000000000000000000 Z
b1000000000000000000000000000000000 [
b01000000000000000000000000000000000 g
b10000000000000000000000000000000000 h
b100000000000000000000000000000000000 k
b010000000000000000000000000000000000 v
b100000000000000000000000000000000000 w
b10000000000000000000000000000000000 \
b10000000000000000000000000000000000 ]
b01000000000000000000000000000000000 ^
b1000000000000000000000000000000000000000000000000000000000000000000001 x
b1 z
b1 ~
b1 #
b1110101011001110100011110001100010000000000000000000000000000000000001 %
b1110101011001110100011110001100010 &
b0010101011001110100011110001100010 '
b10101011001110100011110001100010 (
b0 ,
b100000000000000000000000000000000000 2
b100000000000000000000000000000000000 3
b010000000000000000000000000000000000 4
b000000000000000000000000000000000011000000000000000000000000000000000 O
b1000000000000000000000000000000000 P
b0100000000000000000000000000000000 Q
b100000000000000000000000000000000000 l
b010000000000000000000000000000000000 m
b1 {
#100
b0 !
#150
b1 !
b110011001001010100100101000100101 $
b10101011001110100011110001100010 )
b0 -
b0010101011001110100011110001100010 0
b1110101011001110100011110001100010 1
b000000000000000000000000000000000011110101011001110100011110001100010 N
b1110101011001110100011110001100010 |
b1110011001001010100100101000100101000000000000000000000000000000000001 %
b1110011001001010100100101000100101 &
b0010011001001010100100101000100101 '
b10011001001010100100101000100101 (
b111010101100111010001111000110001011110101011001110100011110001100010 O
b1110101011001110100011110001100010 P
b0010101011001110100011110001100010 Q
b10101011001110100011110001100010 R
b0 V
b11110101011001110100011110001100010 \
b11110101011001110100011110001100010 ]
b00110101011001110100011110001100010 ^
b110101011001110100011110001100010 _
b0 c
#151
#200
b0 !
#250
b1 !
b100110011101010100000100101100110 $
b10011001001010100100101000100101 )
b0010011001001010100100101000100101 0
b1110011001001010100100101000100101 1
b000000000000000000000000000000000011110011001001010100100101000100101 N
b10101011001110100011110001100010 S
b0 W
b0010101011001110100011110001100010 Z
b1110101011001110100011110001100010 [
b110101011001110100011110001100010 `
b0 d
b00110101011001110100011110001100010 g
b11110101011001110100011110001100010 h
b110101011001110100011110001100010 i
b1010101100111010001111000110001000 j
b111010101100111010001111000110001000 k
b111010101100111010001111000110001000 l
b001010101100111010001111000110001000 m
b1010101100111010001111000110001000 n
b0 r
b1110101011001110100011110001100010000000000000000000000000000000000001 x
b1110011001001010100100101000100101 |
b1100110011101010100000100101100110000000000000000000000000000000000001 %
b1100110011101010100000100101100110 &
b0000110011101010100000100101100110 '
b00110011101010100000100101100110 (
b111001100100101010010010100010010111110011001001010100100101000100101 O
b1110011001001010100100101000100101 P
b0010011001001010100100101000100101 Q
b10011001001010100100101000100101 R
b11110011001001010100100101000100101 \
b11110011001001010100100101000100101 ]
b00110011001001010100100101000100101 ^
b110011001001010100100101000100101 _
b110101011001110100011110001100010 y
#251
#300
b0 !
#350
b1 !
b100010101101010001010001101010010 $
b00110011101010100000100101100110 )
b0000110011101010100000100101100110 0
b1100110011101010100000100101100110 1
b000000000000000000000000000000000011100110011101010100000100101100110 N
b10011001001010100100101000100101 S
b0010011001001010100100101000100101 Z
b1110011001001010100100101000100101 [
b110011001001010100100101000100101 `
b00110011001001010100100101000100101 g
b11110011001001010100100101000100101 h
b110011001001010100100101000100101 i
b1001100100101010010010100010010100 j
b111001100100101010010010100010010100 k
b1010101100111010001111000110001000 o
b0 s
b001010101100111010001111000110001000 v
b111010101100111010001111000110001000 w
b111001100100101010010010100010010100 l
b001001100100101010010010100010010100 m
b1001100100101010010010100010010100 n
b1110011001001010100100101000100101100101010110011101000111100011000101 x
b1100110011101010100000100101100110 |
b1100010101101010001010001101010010100101010110011101000111100011000101 %
b1100010101101010001010001101010010 &
b0000010101101010001010001101010010 '
b00010101101010001010001101010010 (
b111010101100111010001111000110001000 B
b001010101100111010001111000110001000 C
b1010101100111010001111000110001000 D
b0 H
b110011001110101010000010010110011011100110011101010100000100101100110 O
b1100110011101010100000100101100110 P
b0000110011101010100000100101100110 Q
b00110011101010100000100101100110 R
b11100110011101010100000100101100110 \
b11100110011101010100000100101100110 ]
b00100110011101010100000100101100110 ^
b100110011101010100000100101100110 _
b110011001001010100100101000100101 y
#351
#400
b0 !
#450
b1 !
b100110110100011110111010110001010 $
b00010101101010001010001101010010 )
b0000010101101010001010001101010010 0
b1100010101101010001010001101010010 1
b1010101100111010001111000110001000 E
b0 I
b001010101100111010001111000110001000 L
b111010101100111010001111000110001000 M
b111010101100111010001111000110001000 2
b111010101100111010001111000110001000 3
b001010101100111010001111000110001000 4
b1010101100111010001111000110001000 5
b0 9
b000000000000000000000000000000000011100010101101010001010001101010010 N
b00110011101010100000100101100110 S
b0000110011101010100000100101100110 Z
b1100110011101010100000100101100110 [
b100110011101010100000100101100110 `
b00100110011101010100000100101100110 g
b11100110011101010100000100101100110 h
b100110011101010100000100101100110 i
b0011001110101010000010010110011000 j
b110011001110101010000010010110011000 k
b1001100100101010010010100010010100 o
b001001100100101010010010100010010100 v
b111001100100101010010010100010010100 w
b110011001110101010000010010110011000 l
b000011001110101010000010010110011000 m
b0011001110101010000010010110011000 n
b1100110011101010100000100101100110100100110010010101001001010001001011 x
b0 z
b1100010101101010001010001101010010 |
b0 ~
b0100110110100011110111010110001010100100110010010101001001010001001011 %
b1100110110100011110111010110001010 &
b0000110110100011110111010110001010 '
b00110110100011110111010110001010 (
b011010101100111010001111000110001000 2
b011010101100111010001111000110001000 3
b101010101100111010001111000110001000 4
b111001100100101010010010100010010100 B
b001001100100101010010010100010010100 C
b1001100100101010010010100010010100 D
b110001010110101000101000110101001001100010101101010001010001101010010 O
b0100010101101010001010001101010010 P
b1000010101101010001010001101010010 Q
b00010101101010001010001101010010 T
b1 X
b11100010101101010001010001101010010 \
b11100010101101010001010001101010010 ]
b00100010101101010001010001101010010 ^
b100010101101010001010001101010010 _
b100110011101010100000100101100110 y
#451
#500
b0 !
#550
b1 !
b100110100000100001100100000010001 $
b00110110100011110111010110001010 )
b0000110110100011110111010110001010 0
b1100110110100011110111010110001010 1
b1010101100111010001111000110001000 6
b0 :
b1010101100111010001111000110001000 7
b1 ;
b001010101100111010001111000110001000 =
b111010101100111010001111000110001000 >
b1010101100111010001111000110001000 ?
b110101011001110100011110001100010 @
b11110101011001110100011110001100010 A
b1001100100101010010010100010010100 E
b001001100100101010010010100010010100 L
b111001100100101010010010100010010100 M
b011001100100101010010010100010010100 2
b011001100100101010010010100010010100 3
b101001100100101010010010100010010100 4
b1001100100101010010010100010010100 7
b111010101100111010001111000110001011100110110100011110111010110001010 N
b00010101101010001010001101010010 U
b1 Y
b1000110011101010100000100101100110 Z
b0100110011101010100000100101100110 [
b100010101101010001010001101010010 `
b00100010101101010001010001101010010 g
b11100010101101010001010001101010010 h
b100010101101010001010001101010010 i
b0001010110101000101000110101001000 j
b110001010110101000101000110101001000 k
b0011001110101010000010010110011000 o
b000011001110101010000010010110011000 v
b110011001110101010000010010110011000 w
b110001010110101000101000110101001000 l
b000001010110101000101000110101001000 m
b0001010110101000101000110101001000 n
b1100110011101010100000100101100110100001100111010101000001001011001100 x
b1 z
b1100110110100011110111010110001010 |
b1 ~
b1100110100000100001100100000010001100001100111010101000001001011001100 %
b0100110100000100001100100000010001 &
b1000110100000100001100100000010001 '
b00110100000100001100100000010001 *
b1 .
b111001100100101010010010100010010100 2
b111001100100101010010010100010010100 3
b001001100100101010010010100010010100 4
b1001100100101010010010100010010100 5
b0000000000000000000000000000000000 7
b0 ;
b110011001110101010000010010110011000 B
b000011001110101010000010010110011000 C
b0011001110101010000010010110011000 D
b110011011010001111011101011000101011100110110100011110111010110001010 O
b1100110110100011110111010110001010 P
b0000110110100011110111010110001010 Q
b00010101101010001010001101010010 R
b0 X
b11100110110100011110111010110001010 \
b11100110110100011110111010110001010 ]
b00100110110100011110111010110001010 ^
b100110110100011110111010110001010 _
b1110101011001110100011110001100010 }
#551
#600
b0 !
#650
b1 !
b000000000000000000000000000000000 $
b00110100000100001100100000010001 +
b1 /
b1000110110100011110111010110001010 0
b0100110110100011110111010110001010 1
b1001100100101010010010100010010100 6
b001001100100101010010010100010010100 =
b111001100100101010010010100010010100 >
b1001100100101010010010100010010100 ?
b110011001001010100100101000100101 @
b11110011001001010100100101000100101 A
b0011001110101010000010010110011000 E
b000011001110101010000010010110011000 L
b110011001110101010000010010110011000 M
b110011001110101010000010010110011000 2
b110011001110101010000010010110011000 3
b000011001110101010000010010110011000 4
b0011001110101010000010010110011000 5
b111001100100101010010010100010010101100110110100011110111010110001010 N
b00010101101010001010001101010010 S
b0 Y
b00110110100011110111010110001010 R
b0000010101101010001010001101010010 Z
b1100010101101010001010001101010010 [
b100110110100011110111010110001010 `
b00100110110100011110111010110001010 g
b11100110110100011110111010110001010 h
b100110110100011110111010110001010 i
b0011011010001111011101011000101000 j
b110011011010001111011101011000101000 k
b0001010110101000101000110101001000 o
b000001010110101000101000110101001000 v
b110001010110101000101000110101001000 w
b110011011010001111011101011000101000 l
b000011011010001111011101011000101000 m
b0011011010001111011101011000101000 n
b1100010101101010001010001101010010100000101011010100010100011010100101 x
b1100110100000100001100100000010001 |
b0 #
b1000000000000000000000000000000000100000101011010100010100011010100101 %
b1000000000000000000000000000000000 &
b0100000000000000000000000000000000 '
b00110100000100001100100000010001 (
b0 .
b110001010110101000101000110101001000 B
b000001010110101000101000110101001000 C
b0001010110101000101000110101001000 D
b110011010000010000110010000001000111100110110100011110111010110001010 O
b11100110100000100001100100000010001 \
b11100110100000100001100100000010001 ]
b00100110100000100001100100000010001 ^
b100110100000100001100100000010001 _
b100010101101010001010001101010010 y
b1110011001001010100100101000100101 }
#651
#700
b0 !
#750
b1 !
b111001010001001000001010110111100 $
b00110100000100001100100000010001 )
b0 /
b00000000000000000000000000000000 (
b1 ,
b0000110100000100001100100000010001 0
b1100110100000100001100100000010001 1
b0011001110101010000010010110011000 6
b000011001110101010000010010110011000 =
b110011001110101010000010010110011000 >
b0011001110101010000010010110011000 ?
b100110011101010100000100101100110 @
b11100110011101010100000100101100110 A
b0001010110101000101000110101001000 E
b000001010110101000101000110101001000 L
b110001010110101000101000110101001000 M
b110001010110101000101000110101001000 2
b110001010110101000101000110101001000 3
b000001010110101000101000110101001000 4
b0001010110101000101000110101001000 5
b110011001110101010000010010110011011100110100000100001100100000010001 N
b00110110100011110111010110001010 S
b0000110110100011110111010110001010 Z
b1100110110100011110111010110001010 [
b100110100000100001100100000010001 `
b00100110100000100001100100000010001 g
b11100110100000100001100100000010001 h
b100110100000100001100100000010001 i
b0011010000010000110010000001000100 j
b110011010000010000110010000001000100 k
b0011011010001111011101011000101000 o
b000011011010001111011101011000101000 v
b110011011010001111011101011000101000 w
b110011010000010000110010000001000100 l
b000011010000010000110010000001000100 m
b0011010000010000110010000001000100 n
b1100110110100011110111010110001010100001101101000111101110101100010101 x
b1111001010001001000001010110111100 |
b1 #
b1111001010001001000001010110111100100001101101000111101110101100010101 %
b1111001010001001000001010110111100 &
b0011001010001001000001010110111100 '
b11001010001001000001010110111100 (
b0 ,
b110011011010001111011101011000101000 B
b000011011010001111011101011000101000 C
b0011011010001111011101011000101000 D
b111100101000100100000101011011110011100110100000100001100100000010001 O
b1100110100000100001100100000010001 P
b0000110100000100001100100000010001 Q
b00110100000100001100100000010001 R
b11111001010001001000001010110111100 \
b11111001010001001000001010110111100 ]
b00111001010001001000001010110111100 ^
b111001010001001000001010110111100 _
b100110110100011110111010110001010 y
b1100110011101010100000100101100110 }
#751
#800
b0 !
#850
b1 !
b100110111010000110000111011111100 $
b11001010001001000001010110111100 )
b0011001010001001000001010110111100 0
b1111001010001001000001010110111100 1
b0001010110101000101000110101001000 6
b000001010110101000101000110101001000 =
b110001010110101000101000110101001000 >
b0001010110101000101000110101001000 ?
b100010101101010001010001101010010 @
b11100010101101010001010001101010010 A
b0011011010001111011101011000101000 E
b000011011010001111011101011000101000 L
b110011011010001111011101011000101000 M
b110011011010001111011101011000101000 2
b110011011010001111011101011000101000 3
b000011011010001111011101011000101000 4
b0011011010001111011101011000101000 5
b110001010110101000101000110101001011111001010001001000001010110111100 N
b00110100000100001100100000010001 S
b0000110100000100001100100000010001 Z
b1100110100000100001100100000010001 [
b111001010001001000001010110111100 `
b00111001010001001000001010110111100 g
b11111001010001001000001010110111100 h
b111001010001001000001010110111100 i
b1100101000100100000101011011110000 j
b111100101000100100000101011011110000 k
b0011010000010000110010000001000100 o
b000011010000010000110010000001000100 v
b110011010000010000110010000001000100 w
b111100101000100100000101011011110000 l
b001100101000100100000101011011110000 m
b1100101000100100000101011011110000 n
b1100110100000100001100100000010001100001101000001000011001000000100011 x
b0 z
b1100110111010000110000111011111100 |
b1100110111010000110000111011111100100001101000001000011001000000100011 %
b1100110111010000110000111011111100 &
b0000110111010000110000111011111100 '
b00110111010000110000111011111100 (
b110011010000010000110010000001000100 B
b000011010000010000110010000001000100 C
b0011010000010000110010000001000100 D
b110011011101000011000011101111110001111001010001001000001010110111100 O
b0111001010001001000001010110111100 P
b1011001010001001000001010110111100 Q
b11001010001001000001010110111100 T
b1 X
b11100110111010000110000111011111100 \
b11100110111010000110000111011111100 ]
b00100110111010000110000111011111100 ^
b100110111010000110000111011111100 _
b100110100000100001100100000010001 y
b1100010101101010001010001101010010 }
#851
#900
b0 !
#950
b1 !
b111001110101111010010111000000101 $
b00110111010000110000111011111100 )
b0000110111010000110000111011111100 0
b1100110111010000110000111011111100 1
b0011011010001111011101011000101000 6
b000011011010001111011101011000101000 =
b110011011010001111011101011000101000 >
b0011011010001111011101011000101000 ?
b100110110100011110111010110001010 @
b11100110110100011110111010110001010 A
b0011010000010000110010000001000100 E
b000011010000010000110010000001000100 L
b110011010000010000110010000001000100 M
b110011010000010000110010000001000100 2
b110011010000010000110010000001000100 3
b000011010000010000110010000001000100 4
b0011010000010000110010000001000100 5
b110011011010001111011101011000101011100110111010000110000111011111100 N
b11001010001001000001010110111100 U
b1 Y
b1000110100000100001100100000010001 Z
b0100110100000100001100100000010001 [
b100110111010000110000111011111100 `
b00100110111010000110000111011111100 g
b11100110111010000110000111011111100 h
b100110111010000110000111011111100 i
b0011011101000011000011101111110000 j
b110011011101000011000011101111110000 k
b1100101000100100000101011011110000 o
b001100101000100100000101011011110000 v
b111100101000100100000101011011110000 w
b110011011101000011000011101111110000 l
b000011011101000011000011101111110000 m
b0011011101000011000011101111110000 n
b1100110100000100001100100000010001100110010100010010000010101101111000 x
b1 z
b1111001110101111010010111000000101 |
b1111001110101111010010111000000101100110010100010010000010101101111000 %
b0111001110101111010010111000000101 &
b1011001110101111010010111000000101 '
b11001110101111010010111000000101 *
b1 .
b111100101000100100000101011011110000 B
b001100101000100100000101011011110000 C
b1100101000100100000101011011110000 D
b111100111010111101001011100000010111100110111010000110000111011111100 O
b1100110111010000110000111011111100 P
b0000110111010000110000111011111100 Q
b11001010001001000001010110111100 R
b0 X
b11111001110101111010010111000000101 \
b11111001110101111010010111000000101 ]
b00111001110101111010010111000000101 ^
b111001110101111010010111000000101 _
b1100110110100011110111010110001010 }
#951
#1000
b0 !
#1050
b1 !
b111011100111110011010001000001101 $
b11001110101111010010111000000101 +
b1 /
b1000110111010000110000111011111100 0
b0100110111010000110000111011111100 1
b0011010000010000110010000001000100 6
b000011010000010000110010000001000100 =
b110011010000010000110010000001000100 >
b0011010000010000110010000001000100 ?
b100110100000100001100100000010001 @
b11100110100000100001100100000010001 A
b1100101000100100000101011011110000 E
b001100101000100100000101011011110000 L
b111100101000100100000101011011110000 M
b111100101000100100000101011011110000 2
b111100101000100100000101011011110000 3
b001100101000100100000101011011110000 4
b1100101000100100000101011011110000 5
b110011010000010000110010000001000101100110111010000110000111011111100 N
b11001010001001000001010110111100 S
b0 Y
b00110111010000110000111011111100 R
b0011001010001001000001010110111100 Z
b1111001010001001000001010110111100 [
b111001110101111010010111000000101 `
b00111001110101111010010111000000101 g
b11111001110101111010010111000000101 h
b111001110101111010010111000000101 i
b1100111010111101001011100000010100 j
b111100111010111101001011100000010100 k
b0011011101000011000011101111110000 o
b000011011101000011000011101111110000 v
b110011011101000011000011101111110000 w
b111100111010111101001011100000010100 l
b001100111010111101001011100000010100 m
b1100111010111101001011100000010100 n
b1111001010001001000001010110111100100001101110100001100001110111111001 x
b0 z
b1111011100111110011010001000001101 |
b0 ~
b0 #
b0111011100111110011010001000001101100001101110100001100001110111111001 %
b1111011100111110011010001000001101 &
b0011011100111110011010001000001101 '
b11001110101111010010111000000101 (
b0 .
b011100101000100100000101011011110000 2
b011100101000100100000101011011110000 3
b101100101000100100000101011011110000 4
b0011010000010000110010000001000100 5
b1100101000100100000101011011110000 7
b1 ;
b110011011101000011000011101111110000 B
b000011011101000011000011101111110000 C
b0011011101000011000011101111110000 D
b111101110011111001101000100000110101100110111010000110000111011111100 O
b0100110111010000110000111011111100 P
b1000110111010000110000111011111100 Q
b11001010001001000001010110111100 R
b00110111010000110000111011111100 T
b1 X
b11111011100111110011010001000001101 \
b11111011100111110011010001000001101 ]
b00111011100111110011010001000001101 ^
b111011100111110011010001000001101 _
b111001010001001000001010110111100 y
b1100110100000100001100100000010001 }
#1051
#1100
b0 !
#1150
b1 !
b11001110101111010010111000000101 )
b0 /
b11011100111110011010001000001101 (
b0011001110101111010010111000000101 0
b1111001110101111010010111000000101 1
b1100101000100100000101011011110000 8
b1 <
b100011010000010000110010000001000100 =
b010011010000010000110010000001000100 >
b01100110100000100001100100000010001 A
b0011011101000011000011101111110000 E
b000011011101000011000011101111110000 L
b110011011101000011000011101111110000 M
b010011011101000011000011101111110000 2
b010011011101000011000011101111110000 3
b100011011101000011000011101111110000 4
b010011011101000011000011101111110000 B
b100011011101000011000011101111110000 C
b0011011101000011000011101111110000 F
b1 J
b110011010000010000110010000001000111111001110101111010010111000000101 N
b00110111010000110000111011111100 U
b1 Y
b1011001010001001000001010110111100 Z
b0111001010001001000001010110111100 [
b111011100111110011010001000001101 `
b00111011100111110011010001000001101 g
b11111011100111110011010001000001101 h
b111011100111110011010001000001101 i
b1101110011111001101000100000110100 j
b111101110011111001101000100000110100 k
b1100111010111101001011100000010100 o
b001100111010111101001011100000010100 v
b111100111010111101001011100000010100 w
b111101110011111001101000100000110100 l
b001101110011111001101000100000110100 m
b1101110011111001101000100000110100 n
b1111001010001001000001010110111100100110011101011110100101110000001010 x
b1 z
b1101100111000010000110000111110001 |
b1 ~
b1 #
b1111011100111110011010001000001101100110011101011110100101110000001010 %
b0111011100111110011010001000001101 &
b1011011100111110011010001000001101 '
b11001110101111010010111000000101 (
b11011100111110011010001000001101 *
b1 .
b110011011101000011000011101111110000 2
b110011011101000011000011101111110000 3
b000011011101000011000011101111110000 4
b1100101000100100000101011011110000 5
b0 ;
b011100111010111101001011100000010100 B
b101100111010111101001011100000010100 C
b1100111010111101001011100000010100 F
b110110011100001000011000011111000111111001110101111010010111000000101 O
b1111001110101111010010111000000101 P
b0011001110101111010010111000000101 Q
b00110111010000110000111011111100 R
b0 X
b11101100111000010000110000111110001 \
b11101100111000010000110000111110001 ]
b00101100111000010000110000111110001 ^
b101100111000010000110000111110001 _
#1151
#1200
b0 !
#1250
b1 !
b101100111000010000110000111110001 $
b11011100111110011010001000001101 +
b1 /
b1011001110101111010010111000000101 0
b0111001110101111010010111000000101 1
b1100101000100100000101011011110000 6
b0 <
b0011011101000011000011101111110000 5
b001100101000100100000101011011110000 =
b111100101000100100000101011011110000 >
b1100101000100100000101011011110000 ?
b111001010001001000001010110111100 @
b11111001010001001000001010110111100 A
b1100111010111101001011100000010100 G
b1 K
b100011011101000011000011101111110000 L
b010011011101000011000011101111110000 M
b111100111010111101001011100000010100 B
b001100111010111101001011100000010100 C
b1100111010111101001011100000010100 D
b0 J
b111100101000100100000101011011110000111001110101111010010111000000101 N
b00110111010000110000111011111100 S
b0 Y
b11001110101111010010111000000101 R
b0000110111010000110000111011111100 Z
b1100110111010000110000111011111100 [
b101100111000010000110000111110001 `
b00101100111000010000110000111110001 g
b11101100111000010000110000111110001 h
b101100111000010000110000111110001 i
b0110011100001000011000011111000100 j
b110110011100001000011000011111000100 k
b1101110011111001101000100000110100 o
b001101110011111001101000100000110100 v
b111101110011111001101000100000110100 w
b110110011100001000011000011111000100 l
b000110011100001000011000011111000100 m
b0110011100001000011000011111000100 n
b1100110111010000110000111011111100100110111001111100110100010000011011 x
b1111110010010010111111011100001011 |
b0 #
b1101100111000010000110000111110001100110111001111100110100010000011011 %
b1101100111000010000110000111110001 &
b0001100111000010000110000111110001 '
b11011100111110011010001000001101 (
b0 .
b111101110011111001101000100000110100 B
b001101110011111001101000100000110100 C
b111111001001001011111101110000101110111001110101111010010111000000101 O
b11111110010010010111111011100001011 \
b11111110010010010111111011100001011 ]
b00111110010010010111111011100001011 ^
b111110010010010111111011100001011 _
b010110011100001000011000011111000100 l
b100110011100001000011000011111000100 m
b1101110011111001101000100000110100 n
b0110011100001000011000011111000100 p
b1 t
b100110111010000110000111011111100 y
b1111001010001001000001010110111100 }
#1251
#1300
b0 !
