crates/rhdl-fpga/ram_async_write.vcd
$timescale 1 ps $end
$comment
    TraceInfo({"top.input":Struct((name:"rhdl_fpga::core::ram::asynchronous::In<rhdl_bits::bits_impl::Bits<8>rhdl_core::types::domain::Redrhdl_core::types::domain::Green>",fields:[(name:"write",ty:Signal(Struct((name:"rhdl_fpga::core::ram::asynchronous::WriteI<rhdl_bits::bits_impl::Bits<8>>",fields:[(name:"addr",ty:Bits(4)),(name:"data",ty:Bits(8)),(name:"enable",ty:Bits(1)),(name:"clock",ty:Bits(1))])),Red)),(name:"read",ty:Signal(Struct((name:"rhdl_fpga::core::ram::asynchronous::ReadI",fields:[(name:"addr",ty:Bits(4)),(name:"clock",ty:Bits(1))])),Green))])),"top.output":Bits(8)})
$end
$scope module top $end
$var wire 19 ! input $end
$var wire 8 " output $end
$upscope $end
$enddefinitions $end
#0
b0000001100011100000 !
b00000000 "
#35
b0000011100011100000 !
#36
b0000011010110010101 !
#50
b1000011010110010101 !
b10001110 "
#51
b1000111010110010101 !
#70
b1000101010110010101 !
#100
b0000101010110010101 !
#105
b0000111010110010101 !
#106
b0000111011001000010 !
#140
b0000101011001000010 !
#150
b1000101011001000010 !
b00000000 "
#151
b1001001011001000010 !
#175
b1001011011001000010 !
#176
b1001010000000000000 !
#200
b0001010000000000000 !
#210
b0001000000000000000 !
#245
b0001010000000000000 !
#246
b0001011000101111111 !
#250
b1001011000101111111 !
b01100100 "
#251
b1001111000101111111 !
#280
b1001101000101111111 !
#300
b0001101000101111111 !
#315
b0001111000101111111 !
#316
b0001110000000000000 !
#350
b1001100000000000000 !
b00000000 "
#351
b1010000000000000000 !
#385
b1010010000000000000 !
#386
#400
b0010010000000000000 !
#420
b0010000000000000000 !
#450
b1010000000000000000 !
#451
b1010100000000000000 !
#455
b1010110000000000000 !
#456
#490
b1010100000000000000 !
#500
b0010100000000000000 !
#525
b0010110000000000000 !
#526
#550
b1010110000000000000 !
b01011001 "
#551
b1011010000000000000 !
#560
b1011000000000000000 !
#595
b1011010000000000000 !
#596
#600
b0011010000000000000 !
#630
b0011000000000000000 !
#650
b1011000000000000000 !
b00000000 "
#651
b1011100000000000000 !
#665
b1011110000000000000 !
#666
#700
b0011100000000000000 !
#735
b0011110000000000000 !
#736
#750
b1011110000000000000 !
#751
b1100010000000000000 !
#770
b1100000000000000000 !
#800
b0100000000000000000 !
#805
b0100010000000000000 !
#806
#840
b0100000000000000000 !
#850
b1100000000000000000 !
#851
b1100100000000000000 !
#875
b1100110000000000000 !
#876
#900
b0100110000000000000 !
#910
b0100100000000000000 !
#945
b0100110000000000000 !
#946
#950
b1100110000000000000 !
#951
b1101010000000000000 !
#980
b1101000000000000000 !
#1000
b0101000000000000000 !
#1015
b0101010000000000000 !
#1016
#1050
b1101000000000000000 !
#1051
b1101100000000000000 !
#1085
b1101110000000000000 !
#1086
#1100
b0101110000000000000 !
#1120
b0101100000000000000 !
#1150
b1101100000000000000 !
#1151
b1110000000000000000 !
#1155
b1110010000000000000 !
#1156
#1190
b1110000000000000000 !
#1200
b0110000000000000000 !
#1225
b0110010000000000000 !
#1226
#1250
b1110010000000000000 !
#1251
b1110110000000000000 !
#1260
b1110100000000000000 !
#1295
b1110110000000000000 !
#1296
#1300
b0110110000000000000 !
#1330
b0110100000000000000 !
#1350
b1110100000000000000 !
#1351
b1111000000000000000 !
#1365
b1111010000000000000 !
#1366
#1400
b0111000000000000000 !
#1435
b0111010000000000000 !
#1436
#1450
b1111010000000000000 !
#1451
b1111110000000000000 !
#1470
b1111100000000000000 !
#1500
b0111100000000000000 !
#1505
b0111110000000000000 !
#1506
#1540
b0111100000000000000 !
#1550
b1111100000000000000 !
b00010111 "
#1551
b1000000000000000000 !
#1575
b1000010000000000000 !
#1576
#1600
b0000010000000000000 !
#1610
b0000000000000000000 !
#1645
b0000010000000000000 !
#1646
#1650
b1000010000000000000 !
b10001110 "
#1651
b1000110000000000000 !
#1680
b1000100000000000000 !
#1700
b0000100000000000000 !
#1715
b0000110000000000000 !
#1716
#1750
b1000100000000000000 !
b00000000 "
#1751
b1001000000000000000 !
#1785
b1001010000000000000 !
#1786
#1800
b0001010000000000000 !
#1820
b0001000000000000000 !
#1850
b1001000000000000000 !
b01100100 "
#1851
b1001100000000000000 !
#1855
b1001110000000000000 !
#1856
#1890
b1001100000000000000 !
#1900
b0001100000000000000 !
#1925
b0001110000000000000 !
#1926
#1950
b1001110000000000000 !
b00000000 "
#1951
b1010010000000000000 !
#1960
b1010000000000000000 !
#1995
b1010010000000000000 !
#1996
#2000
b0010010000000000000 !
#2030
b0010000000000000000 !
#2050
b1010000000000000000 !
#2051
b1010100000000000000 !
#2065
b1010110000000000000 !
#2066
#2100
b0010100000000000000 !
#2135
b0010110000000000000 !
#2136
#2150
b1010110000000000000 !
b01011001 "
#2151
b1011010000000000000 !
#2170
b1011000000000000000 !
#2200
b0011000000000000000 !
#2205
b0011010000000000000 !
#2206
#2240
b0011000000000000000 !
#2250
b1011000000000000000 !
b00000000 "
#2251
b1011100000000000000 !
#2275
b1011110000000000000 !
#2276
#2300
b0011110000000000000 !
#2310
b0011100000000000000 !
#2345
b0011110000000000000 !
#2346
#2350
b1011110000000000000 !
#2351
b1100010000000000000 !
#2380
b1100000000000000000 !
#2400
b0100000000000000000 !
#2415
b0100010000000000000 !
#2416
#2450
b1100000000000000000 !
#2451
b1100100000000000000 !
#2485
b1100110000000000000 !
#2486
#2500
b0100110000000000000 !
#2520
b0100100000000000000 !
#2550
b1100100000000000000 !
#2551
b1101000000000000000 !
#2555
b1101010000000000000 !
#2556
#2590
b1101000000000000000 !
#2600
b0101000000000000000 !
#2625
b0101010000000000000 !
#2626
#2650
b1101010000000000000 !
#2651
b1101110000000000000 !
#2660
b1101100000000000000 !
#2695
b1101110000000000000 !
#2696
#2700
b0101110000000000000 !
#2730
b0101100000000000000 !
#2750
b1101100000000000000 !
#2751
b1110000000000000000 !
#2765
b1110010000000000000 !
#2766
#2800
b0110000000000000000 !
#2835
b0110010000000000000 !
#2836
#2850
b1110010000000000000 !
#2851
b1110110000000000000 !
#2870
b1110100000000000000 !
#2900
b0110100000000000000 !
#2905
b0110110000000000000 !
#2906
#2940
b0110100000000000000 !
#2950
b1110100000000000000 !
#2951
b1111000000000000000 !
#2975
b1111010000000000000 !
#2976
#3000
b0111010000000000000 !
#3010
b0111000000000000000 !
#3045
b0111010000000000000 !
#3046
#3050
b1111010000000000000 !
#3051
b1111110000000000000 !
#3080
b1111100000000000000 !
#3100
b0111100000000000000 !
#3115
b0111110000000000000 !
#3116
#3150
b1111100000000000000 !
b00010111 "
#3151
#3185
b1111110000000000000 !
#3186
#3200
b0111110000000000000 !
#3220
b0111100000000000000 !
#3250
#3255
b0111110000000000000 !
