crates/rhdl-fpga/thing.vcd
$timescale 1 ps $end
$scope module top $end
$scope module prev_value $end
$scope module dff $end
$var wire 32 ^" input $end
$var wire 32 _" output $end
$upscope $end
$upscope $end
$scope module reg $end
$scope module address $end
$scope module constant $end
$var wire 32 P" value $end
$upscope $end
$upscope $end
$scope module data $end
$scope module dff $end
$var wire 32 N" input $end
$var wire 32 O" output $end
$upscope $end
$upscope $end
$scope module read $end
$scope module inbuf $end
$scope module inbuf $end
$scope module aux_ff $end
$scope module dff $end
$var wire 32 +! input $end
$var wire 32 ,! output $end
$upscope $end
$upscope $end
$scope module main_ff $end
$scope module dff $end
$var wire 32 )! input $end
$var wire 32 *! output $end
$upscope $end
$upscope $end
$scope module state_ff $end
$scope module dff $end
$var wire 1 /! input $end
$var wire 1 0! output $end
$upscope $end
$upscope $end
$scope module void_ff $end
$scope module dff $end
$var wire 1 -! input $end
$var wire 1 .! output $end
$upscope $end
$upscope $end
$var wire 34 (! input $end
$var wire 34 1! outputs $end
$upscope $end
$var wire 34 '! input $end
$var wire 34 2! outputs $end
$upscope $end
$scope module map $end
$scope module func $end
$scope module func $end
$var wire 33 @! input $end
$var wire 34 A! output $end
$upscope $end
$upscope $end
$scope module input_buffer $end
$scope module inner $end
$scope module aux_ff $end
$scope module dff $end
$var wire 33 8! input $end
$var wire 33 9! output $end
$upscope $end
$upscope $end
$scope module main_ff $end
$scope module dff $end
$var wire 33 6! input $end
$var wire 33 7! output $end
$upscope $end
$upscope $end
$scope module state_ff $end
$scope module dff $end
$var wire 1 <! input $end
$var wire 1 =! output $end
$upscope $end
$upscope $end
$scope module void_ff $end
$scope module dff $end
$var wire 1 :! input $end
$var wire 1 ;! output $end
$upscope $end
$upscope $end
$var wire 35 5! input $end
$var wire 35 >! outputs $end
$upscope $end
$var wire 35 4! input $end
$var wire 35 ?! outputs $end
$upscope $end
$var wire 35 3! input $end
$var wire 36 B! outputs $end
$upscope $end
$scope module outbuf $end
$scope module outbuf $end
$scope module aux_ff $end
$scope module dff $end
$var wire 34 G! input $end
$var wire 34 H! output $end
$upscope $end
$upscope $end
$scope module main_ff $end
$scope module dff $end
$var wire 34 E! input $end
$var wire 34 F! output $end
$upscope $end
$upscope $end
$scope module state_ff $end
$scope module dff $end
$var wire 1 K! input $end
$var wire 1 L! output $end
$upscope $end
$upscope $end
$scope module void_ff $end
$scope module dff $end
$var wire 1 I! input $end
$var wire 1 J! output $end
$upscope $end
$upscope $end
$var wire 36 D! input $end
$var wire 36 M! outputs $end
$upscope $end
$var wire 36 C! input $end
$var wire 36 N! outputs $end
$upscope $end
$var wire 69 &! input $end
$var wire 70 O! outputs $end
$upscope $end
$scope module write $end
$scope module addr_buf $end
$scope module inbuf $end
$scope module aux_ff $end
$scope module dff $end
$var wire 32 U! input $end
$var wire 32 V! output $end
$upscope $end
$upscope $end
$scope module main_ff $end
$scope module dff $end
$var wire 32 S! input $end
$var wire 32 T! output $end
$upscope $end
$upscope $end
$scope module state_ff $end
$scope module dff $end
$var wire 1 Y! input $end
$var wire 1 Z! output $end
$upscope $end
$upscope $end
$scope module void_ff $end
$scope module dff $end
$var wire 1 W! input $end
$var wire 1 X! output $end
$upscope $end
$upscope $end
$var wire 34 R! input $end
$var wire 34 [! outputs $end
$upscope $end
$var wire 34 Q! input $end
$var wire 34 \! outputs $end
$upscope $end
$scope module data_buf $end
$scope module inbuf $end
$scope module aux_ff $end
$scope module dff $end
$var wire 36 a! input $end
$var wire 36 b! output $end
$upscope $end
$upscope $end
$scope module main_ff $end
$scope module dff $end
$var wire 36 _! input $end
$var wire 36 `! output $end
$upscope $end
$upscope $end
$scope module state_ff $end
$scope module dff $end
$var wire 1 e! input $end
$var wire 1 f! output $end
$upscope $end
$upscope $end
$scope module void_ff $end
$scope module dff $end
$var wire 1 c! input $end
$var wire 1 d! output $end
$upscope $end
$upscope $end
$var wire 38 ^! input $end
$var wire 38 g! outputs $end
$upscope $end
$var wire 38 ]! input $end
$var wire 38 h! outputs $end
$upscope $end
$scope module map $end
$scope module func $end
$scope module func $end
$var wire 2 >" input $end
$var wire 2 ?" output $end
$upscope $end
$upscope $end
$scope module input_buffer $end
$scope module inner $end
$scope module aux_ff $end
$scope module dff $end
$var wire 2 6" input $end
$var wire 2 7" output $end
$upscope $end
$upscope $end
$scope module main_ff $end
$scope module dff $end
$var wire 2 4" input $end
$var wire 2 5" output $end
$upscope $end
$upscope $end
$scope module state_ff $end
$scope module dff $end
$var wire 1 :" input $end
$var wire 1 ;" output $end
$upscope $end
$upscope $end
$scope module void_ff $end
$scope module dff $end
$var wire 1 8" input $end
$var wire 1 9" output $end
$upscope $end
$upscope $end
$var wire 4 3" input $end
$var wire 4 <" outputs $end
$upscope $end
$var wire 4 2" input $end
$var wire 4 =" outputs $end
$upscope $end
$var wire 4 1" input $end
$var wire 4 @" outputs $end
$upscope $end
$scope module resp_buf $end
$scope module outbuf $end
$scope module aux_ff $end
$scope module dff $end
$var wire 2 E" input $end
$var wire 2 F" output $end
$upscope $end
$upscope $end
$scope module main_ff $end
$scope module dff $end
$var wire 2 C" input $end
$var wire 2 D" output $end
$upscope $end
$upscope $end
$scope module state_ff $end
$scope module dff $end
$var wire 1 I" input $end
$var wire 1 J" output $end
$upscope $end
$upscope $end
$scope module void_ff $end
$scope module dff $end
$var wire 1 G" input $end
$var wire 1 H" output $end
$upscope $end
$upscope $end
$var wire 4 B" input $end
$var wire 4 K" outputs $end
$upscope $end
$var wire 4 A" input $end
$var wire 4 L" outputs $end
$upscope $end
$scope module zip $end
$scope module a_buffer $end
$scope module one_slot $end
$scope module dff $end
$var wire 32 o! input $end
$var wire 32 p! output $end
$upscope $end
$upscope $end
$scope module read_slot $end
$scope module dff $end
$var wire 1 s! input $end
$var wire 1 t! output $end
$upscope $end
$upscope $end
$scope module state $end
$scope module dff $end
$var wire 2 k! input $end
$var wire 2 l! output $end
$upscope $end
$upscope $end
$scope module write_slot $end
$scope module dff $end
$var wire 1 q! input $end
$var wire 1 r! output $end
$upscope $end
$upscope $end
$scope module zero_slot $end
$scope module dff $end
$var wire 32 m! input $end
$var wire 32 n! output $end
$upscope $end
$upscope $end
$var wire 34 j! input $end
$var wire 35 u! outputs $end
$upscope $end
$scope module b_buffer $end
$scope module one_slot $end
$scope module dff $end
$var wire 36 {! input $end
$var wire 36 |! output $end
$upscope $end
$upscope $end
$scope module read_slot $end
$scope module dff $end
$var wire 1 !" input $end
$var wire 1 "" output $end
$upscope $end
$upscope $end
$scope module state $end
$scope module dff $end
$var wire 2 w! input $end
$var wire 2 x! output $end
$upscope $end
$upscope $end
$scope module write_slot $end
$scope module dff $end
$var wire 1 }! input $end
$var wire 1 ~! output $end
$upscope $end
$upscope $end
$scope module zero_slot $end
$scope module dff $end
$var wire 36 y! input $end
$var wire 36 z! output $end
$upscope $end
$upscope $end
$var wire 38 v! input $end
$var wire 39 #" outputs $end
$upscope $end
$scope module out_buffer $end
$scope module one_slot $end
$scope module dff $end
$var wire 68 )" input $end
$var wire 68 *" output $end
$upscope $end
$upscope $end
$scope module read_slot $end
$scope module dff $end
$var wire 1 -" input $end
$var wire 1 ." output $end
$upscope $end
$upscope $end
$scope module state $end
$scope module dff $end
$var wire 2 %" input $end
$var wire 2 &" output $end
$upscope $end
$upscope $end
$scope module write_slot $end
$scope module dff $end
$var wire 1 +" input $end
$var wire 1 ," output $end
$upscope $end
$upscope $end
$scope module zero_slot $end
$scope module dff $end
$var wire 68 '" input $end
$var wire 68 (" output $end
$upscope $end
$upscope $end
$var wire 70 $" input $end
$var wire 71 /" outputs $end
$upscope $end
$var wire 71 i! input $end
$var wire 71 0" outputs $end
$upscope $end
$var wire 75 P! input $end
$var wire 75 M" outputs $end
$upscope $end
$var wire 138 %! input $end
$var wire 73 Q" outputs $end
$upscope $end
$scope module valid $end
$scope module dff $end
$var wire 1 \" input $end
$var wire 1 ]" output $end
$upscope $end
$upscope $end
$scope module write $end
$scope module addr_buf $end
$scope module outbuf $end
$scope module aux_ff $end
$scope module dff $end
$var wire 32 P input $end
$var wire 32 Q output $end
$upscope $end
$upscope $end
$scope module main_ff $end
$scope module dff $end
$var wire 32 N input $end
$var wire 32 O output $end
$upscope $end
$upscope $end
$scope module state_ff $end
$scope module dff $end
$var wire 1 T input $end
$var wire 1 U output $end
$upscope $end
$upscope $end
$scope module void_ff $end
$scope module dff $end
$var wire 1 R input $end
$var wire 1 S output $end
$upscope $end
$upscope $end
$var wire 34 M input $end
$var wire 34 V outputs $end
$upscope $end
$var wire 34 L input $end
$var wire 34 W outputs $end
$upscope $end
$scope module data_buf $end
$scope module outbuf $end
$scope module aux_ff $end
$scope module dff $end
$var wire 36 \ input $end
$var wire 36 ] output $end
$upscope $end
$upscope $end
$scope module main_ff $end
$scope module dff $end
$var wire 36 Z input $end
$var wire 36 [ output $end
$upscope $end
$upscope $end
$scope module state_ff $end
$scope module dff $end
$var wire 1 ` input $end
$var wire 1 a output $end
$upscope $end
$upscope $end
$scope module void_ff $end
$scope module dff $end
$var wire 1 ^ input $end
$var wire 1 _ output $end
$upscope $end
$upscope $end
$var wire 38 Y input $end
$var wire 38 b outputs $end
$upscope $end
$var wire 38 X input $end
$var wire 38 c outputs $end
$upscope $end
$scope module map $end
$scope module func $end
$scope module func $end
$var wire 2 q input $end
$var wire 2 r output $end
$upscope $end
$upscope $end
$scope module input_buffer $end
$scope module inner $end
$scope module aux_ff $end
$scope module dff $end
$var wire 2 i input $end
$var wire 2 j output $end
$upscope $end
$upscope $end
$scope module main_ff $end
$scope module dff $end
$var wire 2 g input $end
$var wire 2 h output $end
$upscope $end
$upscope $end
$scope module state_ff $end
$scope module dff $end
$var wire 1 m input $end
$var wire 1 n output $end
$upscope $end
$upscope $end
$scope module void_ff $end
$scope module dff $end
$var wire 1 k input $end
$var wire 1 l output $end
$upscope $end
$upscope $end
$var wire 4 f input $end
$var wire 4 o outputs $end
$upscope $end
$var wire 4 e input $end
$var wire 4 p outputs $end
$upscope $end
$var wire 4 d input $end
$var wire 4 s outputs $end
$upscope $end
$scope module outbuf $end
$scope module inbuf $end
$scope module aux_ff $end
$scope module dff $end
$var wire 2 x input $end
$var wire 2 y output $end
$upscope $end
$upscope $end
$scope module main_ff $end
$scope module dff $end
$var wire 2 v input $end
$var wire 2 w output $end
$upscope $end
$upscope $end
$scope module state_ff $end
$scope module dff $end
$var wire 1 | input $end
$var wire 1 } output $end
$upscope $end
$upscope $end
$scope module void_ff $end
$scope module dff $end
$var wire 1 z input $end
$var wire 1 { output $end
$upscope $end
$upscope $end
$var wire 4 u input $end
$var wire 4 ~ outputs $end
$upscope $end
$var wire 4 t input $end
$var wire 4 !! outputs $end
$upscope $end
$scope module tee $end
$scope module in_buffer $end
$scope module one_slot $end
$scope module dff $end
$var wire 68 , input $end
$var wire 68 - output $end
$upscope $end
$upscope $end
$scope module read_slot $end
$scope module dff $end
$var wire 1 0 input $end
$var wire 1 1 output $end
$upscope $end
$upscope $end
$scope module state $end
$scope module dff $end
$var wire 2 ( input $end
$var wire 2 ) output $end
$upscope $end
$upscope $end
$scope module write_slot $end
$scope module dff $end
$var wire 1 . input $end
$var wire 1 / output $end
$upscope $end
$upscope $end
$scope module zero_slot $end
$scope module dff $end
$var wire 68 * input $end
$var wire 68 + output $end
$upscope $end
$upscope $end
$var wire 70 ' input $end
$var wire 71 2 outputs $end
$upscope $end
$scope module s_buffer $end
$scope module one_slot $end
$scope module dff $end
$var wire 32 8 input $end
$var wire 32 9 output $end
$upscope $end
$upscope $end
$scope module read_slot $end
$scope module dff $end
$var wire 1 < input $end
$var wire 1 = output $end
$upscope $end
$upscope $end
$scope module state $end
$scope module dff $end
$var wire 2 4 input $end
$var wire 2 5 output $end
$upscope $end
$upscope $end
$scope module write_slot $end
$scope module dff $end
$var wire 1 : input $end
$var wire 1 ; output $end
$upscope $end
$upscope $end
$scope module zero_slot $end
$scope module dff $end
$var wire 32 6 input $end
$var wire 32 7 output $end
$upscope $end
$upscope $end
$var wire 34 3 input $end
$var wire 35 > outputs $end
$upscope $end
$scope module t_buffer $end
$scope module one_slot $end
$scope module dff $end
$var wire 36 D input $end
$var wire 36 E output $end
$upscope $end
$upscope $end
$scope module read_slot $end
$scope module dff $end
$var wire 1 H input $end
$var wire 1 I output $end
$upscope $end
$upscope $end
$scope module state $end
$scope module dff $end
$var wire 2 @ input $end
$var wire 2 A output $end
$upscope $end
$upscope $end
$scope module write_slot $end
$scope module dff $end
$var wire 1 F input $end
$var wire 1 G output $end
$upscope $end
$upscope $end
$scope module zero_slot $end
$scope module dff $end
$var wire 36 B input $end
$var wire 36 C output $end
$upscope $end
$upscope $end
$var wire 38 ? input $end
$var wire 39 J outputs $end
$upscope $end
$var wire 71 & input $end
$var wire 71 K outputs $end
$upscope $end
$var wire 75 % input $end
$var wire 75 "! outputs $end
$upscope $end
$scope module write_sink $end
$scope module sink_from_fn $end
$var wire 3 #! input $end
$var wire 1 $! output $end
$upscope $end
$upscope $end
$scope module write_source $end
$scope module from_fn_stream $end
$var wire 1 # input $end
$var wire 69 $ output $end
$upscope $end
$upscope $end
$scope module xor $end
$scope module w $end
$scope module dff $end
$var wire 32 Y" input $end
$var wire 32 Z" output $end
$upscope $end
$upscope $end
$scope module x $end
$scope module dff $end
$var wire 32 S" input $end
$var wire 32 T" output $end
$upscope $end
$upscope $end
$scope module y $end
$scope module dff $end
$var wire 32 U" input $end
$var wire 32 V" output $end
$upscope $end
$upscope $end
$scope module z $end
$scope module dff $end
$var wire 32 W" input $end
$var wire 32 X" output $end
$upscope $end
$upscope $end
$var wire 1 R" input $end
$var wire 32 [" outputs $end
$upscope $end
$var wire 1 ! clock $end
$var wire 1 @% input $end
$var wire 1 B% outputs $end
$var wire 1 " reset $end
$upscope $end
$enddefinitions $end
#0
b0 !
b1 "
b0 #
b000000000000000000000000000000000000000000000000000000000000000000000 $
b000000000000000000000000000000000000000000000000000000000000000000000000000 %
b00000000000000000000000000000000000000000000000000000000000000000000000 &
b0000000000000000000000000000000000000000000000000000000000000000000000 '
b00 (
b00 )
b00000000000000000000000000000000000000000000000000000000000000000000 *
b00000000000000000000000000000000000000000000000000000000000000000000 +
b00000000000000000000000000000000000000000000000000000000000000000000 ,
b00000000000000000000000000000000000000000000000000000000000000000000 -
b0 .
b0 /
b0 0
b0 1
b01000000000000000000000000000000000000000000000000000000000000000000000 2
b0000000000000000000000000000000000 3
b00 4
b00 5
b00000000000000000000000000000000 6
b00000000000000000000000000000000 7
b00000000000000000000000000000000 8
b00000000000000000000000000000000 9
b0 :
b0 ;
b0 <
b0 =
b00000000000000000000000000000000000 >
b00000000000000000000000000000000000000 ?
b00 @
b00 A
b000000000000000000000000000000000000 B
b000000000000000000000000000000000000 C
b000000000000000000000000000000000000 D
b000000000000000000000000000000000000 E
b0 F
b0 G
b0 H
b0 I
b000000000000000000000000000000000000000 J
b10000000000000000000000000000000000000000000000000000000000000000000000 K
b0000000000000000000000000000000000 L
b1100000000000000000000000000000000 M
b00000000000000000000000000000000 N
b00000000000000000000000000000000 O
b00000000000000000000000000000000 P
b00000000000000000000000000000000 Q
b0 R
b0 S
b0 T
b0 U
b1100000000000000000000000000000000 V
b0000000000000000000000000000000000 W
b00000000000000000000000000000000000000 X
b11000000000000000000000000000000000000 Y
b000000000000000000000000000000000000 Z
b000000000000000000000000000000000000 [
b000000000000000000000000000000000000 \
b000000000000000000000000000000000000 ]
b0 ^
b0 _
b0 `
b0 a
b11000000000000000000000000000000000000 b
b00000000000000000000000000000000000000 c
b0000 d
b0000 e
b1100 f
b00 g
b00 h
b00 i
b00 j
b0 k
b0 l
b0 m
b0 n
b1100 o
b0000 p
b00 q
b10 r
b0000 s
b0000 t
b1100 u
b00 v
b00 w
b00 x
b00 y
b0 z
b0 {
b0 |
b0 }
b1100 ~
b0000 !!
b000100000000000000000000000000000000000000000000000000000000000000000000000 "!
b000 #!
b0 $!
b000000000000000000000000000000000000000000000000000000000000000000000000000000000000000000000000000000000000000000000000000000000000000000 %!
b000000000000000000000000000000000000000000000000000000000000000000000 &!
b0000000000000000000000000000000000 '!
b1100000000000000000000000000000000 (!
b00000000000000000000000000000000 )!
b00000000000000000000000000000000 *!
b00000000000000000000000000000000 +!
b00000000000000000000000000000000 ,!
b0 -!
b0 .!
b0 /!
b0 0!
b1100000000000000000000000000000000 1!
b0000000000000000000000000000000000 2!
b00000000000000000000000000000000000 3!
b00000000000000000000000000000000000 4!
b11000000000000000000000000000000000 5!
b000000000000000000000000000000000 6!
b000000000000000000000000000000000 7!
b000000000000000000000000000000000 8!
b000000000000000000000000000000000 9!
b0 :!
b0 ;!
b0 <!
b0 =!
b11000000000000000000000000000000000 >!
b00000000000000000000000000000000000 ?!
b000000000000000000000000000000000 @!
b0000000000000000000000000000000010 A!
b000000000000000000000000000000000000 B!
b000000000000000000000000000000000000 C!
b110000000000000000000000000000000000 D!
b0000000000000000000000000000000000 E!
b0000000000000000000000000000000000 F!
b0000000000000000000000000000000000 G!
b0000000000000000000000000000000000 H!
b0 I!
b0 J!
b0 K!
b0 L!
b110000000000000000000000000000000000 M!
b000000000000000000000000000000000000 N!
b0000000000000000000000000000000000000000000000000000000000000000000000 O!
b000000000000000000000000000000000000000000000000000000000000000000000000000 P!
b0000000000000000000000000000000000 Q!
b1100000000000000000000000000000000 R!
b00000000000000000000000000000000 S!
b00000000000000000000000000000000 T!
b00000000000000000000000000000000 U!
b00000000000000000000000000000000 V!
b0 W!
b0 X!
b0 Y!
b0 Z!
b1100000000000000000000000000000000 [!
b0000000000000000000000000000000000 \!
b00000000000000000000000000000000000000 ]!
b11000000000000000000000000000000000000 ^!
b000000000000000000000000000000000000 _!
b000000000000000000000000000000000000 `!
b000000000000000000000000000000000000 a!
b000000000000000000000000000000000000 b!
b0 c!
b0 d!
b0 e!
b0 f!
b11000000000000000000000000000000000000 g!
b00000000000000000000000000000000000000 h!
b00000000000000000000000000000000000000000000000000000000000000000000000 i!
b0000000000000000000000000000000000 j!
b00 k!
b00 l!
b00000000000000000000000000000000 m!
b00000000000000000000000000000000 n!
b00000000000000000000000000000000 o!
b00000000000000000000000000000000 p!
b0 q!
b0 r!
b0 s!
b0 t!
b01000000000000000000000000000000000 u!
b00000000000000000000000000000000000000 v!
b00 w!
b00 x!
b000000000000000000000000000000000000 y!
b000000000000000000000000000000000000 z!
b000000000000000000000000000000000000 {!
b000000000000000000000000000000000000 |!
b0 }!
b0 ~!
b0 !"
b0 ""
b010000000000000000000000000000000000000 #"
b0000000000000000000000000000000000000000000000000000000000000000000000 $"
b00 %"
b00 &"
b00000000000000000000000000000000000000000000000000000000000000000000 '"
b00000000000000000000000000000000000000000000000000000000000000000000 ("
b00000000000000000000000000000000000000000000000000000000000000000000 )"
b00000000000000000000000000000000000000000000000000000000000000000000 *"
b0 +"
b0 ,"
b0 -"
b0 ."
b00000000000000000000000000000000000000000000000000000000000000000000000 /"
b00000000000000000000000000000000000000000000000000000000000000000000011 0"
b0000 1"
b0000 2"
b1100 3"
b00 4"
b00 5"
b00 6"
b00 7"
b0 8"
b0 9"
b0 :"
b0 ;"
b1100 <"
b0000 ="
b00 >"
b10 ?"
b0000 @"
b0000 A"
b1100 B"
b00 C"
b00 D"
b00 E"
b00 F"
b0 G"
b0 H"
b0 I"
b0 J"
b1100 K"
b0000 L"
b1000000000000000000000000000000000 Q!
b0100000000000000000000000000000000 R!
b1 W!
b10000000000000000000000000000000000000 ]!
b01000000000000000000000000000000000000 ^!
b1 c!
b000000000000000000000000000000000000000000000000000000000000000000000000000 M"
b00000000000000000000000000000000 N"
b00000000000000000000000000000000 O"
b00000000000000000000000000000000 P"
b0000000000000000000000000000000000000000000000000000000000000000000000000 Q"
b0 R"
b00000000000000000000000000000000 S"
b00000000000000000000000000000000 T"
b00000000000000000000000000000000 U"
b00000000000000000000000000000000 V"
b00000000000000000000000000000000 W"
b00000000000000000000000000000000 X"
b00000000000000000000000000000000 Y"
b00000000000000000000000000000000 Z"
b00000000000000000000000000000000 ["
b0 \"
b0 ]"
b00000000000000000000000000000000 ^"
b00000000000000000000000000000000 _"
b1 #
#50
b1 !
b1 S
b1 R
b1 _
b1 ^
b1 l
b1 k
b1 {
b1 z
b1 .!
b1 -!
b1 ;!
b1 :!
b1 J!
b1 I!
b1 X!
b1 d!
b1 9"
b1 8"
b1 H"
b1 G"
b01100010010110010010110001100010 T"
b01000010001110110110001000100101 V"
b00111010011000010011100101100110 X"
b10000100001100100011001101010010 Z"
b01100010010110010010110001100010 S"
b01000010001110110110001000100101 U"
b00111010011000010011100101100110 W"
b10000100001100100011001101010010 Y"
b10101011001110100011110001100010 ["
b1 ]"
b1 \"
#51
b0 "
b111111010101100111010001111000110001000000000000000000000000000000000 $
b0100000000000000000000000000000000 V
b1000000000000000000000000000000000 W
b01000000000000000000000000000000000000 b
b10000000000000000000000000000000000000 c
b0100 o
b1000 p
b1000 s
b0100 ~
b1000 !!
b11000000000000000000000000000000000000000000000000000000000000000000000 &
b1000000000000000000000000000000000 3
b10000000000000000000000000000000000000 ?
b1000 t
b0100 u
b000110000000000000000000000000000000000000000000000000000000000000000000000 "!
b0100000000000000000000000000000000 1!
b1000000000000000000000000000000000 2!
b01000000000000000000000000000000000 >!
b10000000000000000000000000000000000 ?!
b100000000000000000000000000000000000 B!
b010000000000000000000000000000000000 M!
b100000000000000000000000000000000000 N!
b10000000000000000000000000000000000 3!
b10000000000000000000000000000000000 4!
b01000000000000000000000000000000000 5!
b1000000000000000000000000000000000000000000000000000000000000000000001 O!
b0100000000000000000000000000000000 [!
b1000000000000000000000000000000000 \!
b01000000000000000000000000000000000000 g!
b10000000000000000000000000000000000000 h!
b0100 <"
b1000 ="
b1000 @"
b0100 K"
b1000 L"
b1000 1"
b1000 2"
b0100 3"
b100000000000000000000000000000000000000000000000000000000000000000000000011 M"
b000000000000000000000000000000000010000000000000000000000000000000000 &!
b1000000000000000000000000000000000 '!
b0100000000000000000000000000000000 (!
b000100000000000000000000000000000000000000000000000000000000000000000000000 P!
b10000000000000000000000000000000000000000000000000000000000000000000000 i!
b1000000000000000000000000000000000000000000000000000000000000000000000 $"
b0000000000000000000000000000000000011000000000000000000000000000000000001 Q"
b011111101010110011101000111100011000100000000000000000000000000000000000011 %
b11111111010101100111010001111000110001000000000000000000000000000000000 &
b0111111010101100111010001111000110001000000000000000000000000000000000 '
b01 (
b11111010101100111010001111000110001000000000000000000000000000000000 *
b1 .
b1000000000000000000000000000000000 L
b0100000000000000000000000000000000 M
b10000000000000000000000000000000000000 X
b01000000000000000000000000000000000000 Y
b000000000000000000000000000000000100000000000000000000000000000000000000000000000000000000000000000000000000000000000000000000000000000000 %!
b000110000000000000000000000000000000000000000000000000000000000000000000000 P!
b1000 A"
b0100 B"
#100
b0 !
#150
b1 !
b000000000000000000000000000000000000000000000000000000000000000000000 $
b01 )
b11111010101100111010001111000110001000000000000000000000000000000000 +
b1 /
b10 (
b11111010101100111010001111000110001000000000000000000000000000000000 ,
b0 .
b01111111010101100111010001111000110001000000000000000000000000000000000 2
b1111111010101100111010001111000110001000000000000000000000000000000000 '
b01 (
b1 0
b1100000000000000000000000000000000 3
b01 4
b1 :
b11111110101011001110100011110001100010 ?
b01 @
b111110101011001110100011110001100010 B
b1 F
b1 $!
b100000000000000000000000000000000000000000000000000000000000000000000000011 %
b11000000000000000000000000000000000000000000000000000000000000000000000 &
b1000000000000000000000000000000000000000000000000000000000000000000000 '
b00 (
b00000000000000000000000000000000000000000000000000000000000000000000 ,
b1 .
b1000 d
b1000 e
b0100 f
#151
#200
b0 !
#250
b1 !
b111111001100100101010010010100010010100000000000000000000000000000000 $
b00 )
b1 1
b11 (
b0 0
b01000000000000000000000000000000000000000000000000000000000000000000000 2
b01 5
b1 ;
b0 :
b1 <
b00100000000000000000000000000000000 >
b01 A
b111110101011001110100011110001100010 C
b1 G
b111110101011001110100011110001100010 D
b0 F
b1 H
b001111110101011001110100011110001100010 J
b0000000000000000000000000000000000000000000000000000000000000000000000 '
b00 (
b1 0
b1000000000000000000000000000000000 3
b00 4
b1 :
b10000000000000000000000000000000000000 ?
b00 @
b000000000000000000000000000000000000 D
b1 F
b11111110101011001110100011110001100010100000000000000000000000000000000 K
b1100000000000000000000000000000000 L
b0000000000000000000000000000000000 M
b0 R
b11111110101011001110100011110001100010 X
b00111110101011001110100011110001100010 Y
b111110101011001110100011110001100010 Z
b0 ^
b0 $!
b011111100110010010101001001010001001010000000000000000000000000000000000011 %
b11111111001100100101010010010100010010100000000000000000000000000000000 &
b0111111001100100101010010010100010010100000000000000000000000000000000 '
b01 (
b11111001100100101010010010100010010100000000000000000000000000000000 ,
b0 .
b0000 d
b0000 e
b1100 f
#251
#300
b0 !
#350
b1 !
b111110011001110101010000010010110011000000000000000000000000000000000 $
b01 )
b11111001100100101010010010100010010100000000000000000000000000000000 -
b0 /
b10 (
b11111001100100101010010010100010010100000000000000000000000000000000 *
b1 .
b01111111001100100101010010010100010010100000000000000000000000000000000 2
b00 5
b1 =
b00000000000000000000000000000000000 >
b00 A
b1 I
b000000000000000000000000000000000000000 J
b1111111001100100101010010010100010010100000000000000000000000000000000 '
b01 (
b0 0
b1100000000000000000000000000000000 3
b01 4
b0 :
b11111110011001001010100100101000100101 ?
b01 @
b111110011001001010100100101000100101 D
b0 F
b10000000000000000000000000000000000000000000000000000000000000000000000 K
b0 S
b0000000000000000000000000000000000 V
b1100000000000000000000000000000000 W
b111110101011001110100011110001100010 [
b0 _
b00111110101011001110100011110001100010 b
b11111110101011001110100011110001100010 c
b1000000000000000000000000000000000 L
b0100000000000000000000000000000000 M
b1 R
b10000000000000000000000000000000000000 X
b01000000000000000000000000000000000000 Y
b000000000000000000000000000000000000 Z
b1 ^
b000111111110101011001110100011110001100010100000000000000000000000000000000 "!
b1 $!
b111111001100111010101000001001011001100000000000000000000000000000000000011 %
b11111110011001110101010000010010110011000000000000000000000000000000000 &
b1111110011001110101010000010010110011000000000000000000000000000000000 '
b11110011001110101010000010010110011000000000000000000000000000000000 *
b1000 d
b1000 e
b0100 f
b000000000000000000000000000000000111111101010110011101000111100011000101000000000000000000000000000000000000000000000000000000000000000000 %!
b000111111110101011001110100011110001100010100000000000000000000000000000000 P!
b1100000000000000000000000000000000 Q!
b0000000000000000000000000000000000 R!
b0 W!
b11111110101011001110100011110001100010 ]!
b00111110101011001110100011110001100010 ^!
b111110101011001110100011110001100010 _!
b0 c!
#351
#400
b0 !
#450
b1 !
b111110001010110101000101000110101001000000000000000000000000000000000 $
b11110011001110101010000010010110011000000000000000000000000000000000 +
b1 /
b0 1
b11110011001110101010000010010110011000000000000000000000000000000000 ,
b0 .
b1 0
b01111110011001110101010000010010110011000000000000000000000000000000000 2
b01 5
b0 ;
b1 :
b0 <
b00100000000000000000000000000000000 >
b01 A
b111110011001001010100100101000100101 E
b0 G
b111110011001001010100100101000100101 B
b1 F
b0 H
b001111110011001001010100100101000100101 J
b11111100110011101010100000100101100110 ?
b111100110011101010100000100101100110 B
b11111110011001001010100100101000100101100000000000000000000000000000000 K
b1 S
b0100000000000000000000000000000000 V
b1000000000000000000000000000000000 W
b000000000000000000000000000000000000 [
b1 _
b01000000000000000000000000000000000000 b
b10000000000000000000000000000000000000 c
b1100000000000000000000000000000000 L
b0000000000000000000000000000000000 M
b0 R
b11111110011001001010100100101000100101 X
b00111110011001001010100100101000100101 Y
b111110011001001010100100101000100101 Z
b0 ^
b000110000000000000000000000000000000000000000000000000000000000000000000000 "!
b0 X!
b0000000000000000000000000000000000 [!
b1100000000000000000000000000000000 \!
b111110101011001110100011110001100010 `!
b0 d!
b00111110101011001110100011110001100010 g!
b11111110101011001110100011110001100010 h!
b11111110101011001110100011110001100010100000000000000000000000000000000 i!
b0100000000000000000000000000000000 j!
b01 k!
b1 q!
b01111110101011001110100011110001100010 v!
b01 w!
b111110101011001110100011110001100010 y!
b1 }!
b111111000101011010100010100011010100100000000000000000000000000000000000011 %
b11111110001010110101000101000110101001000000000000000000000000000000000 &
b1111110001010110101000101000110101001000000000000000000000000000000000 '
b11110001010110101000101000110101001000000000000000000000000000000000 ,
b000000000000000000000000000000000100000000000000000000000000000000000000000000000000000000000000000000000000000000000000000000000000000000 %!
b000110000000000000000000000000000000000000000000000000000000000000000000000 P!
b1000000000000000000000000000000000 Q!
b0100000000000000000000000000000000 R!
b1 W!
b10000000000000000000000000000000000000 ]!
b01000000000000000000000000000000000000 ^!
b000000000000000000000000000000000000 _!
b1 c!
#451
#500
b0 !
