crates/rhdl-fpga/vcd/reset/conditioner/reset_conditioner.vcd
$timescale 1 ps $end
$scope module top $end
$var wire 1 ! clock $end
$var wire 1 # output $end
$var wire 1 " reset $end
$upscope $end
$enddefinitions $end
#0
b0 !
b0 "
b0 #
#39
b1 !
#40
#50
#51
#78
b0 !
#100
#117
b1 !
#118
#150
#151
#156
b0 !
#195
b1 !
#196
#200
#234
b0 !
#250
#251
#273
b1 !
#274
#300
#312
b0 !
#350
#351
b1 !
b1 "
b1 #
#352
#390
b0 !
#400
#429
b1 !
#430
#450
#451
b0 "
#468
b0 !
#500
#507
b1 !
#508
#546
b0 !
#550
#551
#585
b1 !
b0 #
#586
#600
#624
b0 !
#650
#651
#663
b1 !
#664
#700
#702
b0 !
#741
b1 !
#742
#750
#751
#780
b0 !
#800
#819
b1 !
#820
#850
#851
#858
b0 !
#897
b1 !
#898
#900
#936
b0 !
#950
#951
#975
b1 !
#976
#1000
#1014
b0 !
#1050
#1051
#1053
b1 !
#1054
#1092
b0 !
#1100
#1131
b1 !
#1132
#1150
#1151
#1170
b0 !
#1200
#1209
b1 !
#1210
#1248
b0 !
#1250
#1251
#1287
b1 !
#1288
#1300
#1326
b0 !
#1350
#1351
#1365
b1 !
#1366
#1400
#1404
b0 !
#1443
b1 !
#1444
#1450
#1451
#1482
b0 !
#1500
#1521
b1 !
#1522
#1550
#1551
#1560
b0 !
#1599
b1 !
#1600
#1638
b0 !
#1650
#1651
#1677
b1 !
#1678
#1700
#1716
b0 !
#1750
#1751
#1755
b1 !
#1756
#1794
b0 !
#1800
#1833
b1 !
#1834
#1850
#1851
b1 "
b1 #
#1872
b0 !
#1900
#1911
b1 !
#1912
#1950
b0 !
#1951
b0 "
#1989
b1 !
#1990
#2000
#2028
b0 !
#2050
#2051
#2067
b1 !
b0 #
#2068
#2100
#2106
b0 !
#2145
b1 !
#2146
#2150
#2151
#2184
b0 !
#2200
#2223
b1 !
#2224
#2250
#2251
#2262
b0 !
#2300
#2301
b1 !
#2302
#2340
b0 !
#2350
#2351
#2379
b1 !
#2380
#2400
#2418
b0 !
#2450
#2451
b1 "
b1 #
#2457
b1 !
#2458
#2496
b0 !
#2500
#2535
b1 !
#2536
#2550
#2551
b0 "
#2574
b0 !
#2600
#2613
b1 !
#2614
#2650
#2651
#2652
b0 !
#2691
b1 !
b0 #
#2692
#2700
#2730
b0 !
#2750
#2751
#2769
b1 !
#2770
#2800
#2808
b0 !
#2847
b1 !
#2848
#2850
#2851
b1 "
b1 #
#2886
b0 !
#2900
#2925
b1 !
#2926
#2950
#2951
b0 "
#2964
b0 !
#3000
#3003
b1 !
#3004
#3042
b0 !
#3050
#3051
b1 "
#3081
b1 !
#3082
#3100
#3120
b0 !
#3150
#3151
b0 "
#3159
b1 !
#3160
#3198
b0 !
#3200
#3237
b1 !
b0 #
#3238
#3250
#3251
#3276
b0 !
#3300
#3315
b1 !
#3316
#3350
#3351
b1 "
b1 #
#3354
b0 !
#3393
b1 !
#3394
#3400
#3432
b0 !
#3450
#3451
#3471
b1 !
#3472
#3500
#3510
b0 !
#3549
b1 !
#3550
#3551
b0 "
#3588
b0 !
#3600
#3627
b1 !
#3628
#3650
#3651
b1 "
#3666
b0 !
#3700
#3705
b1 !
#3706
#3744
b0 !
#3750
#3751
b0 "
#3783
b1 !
#3784
#3800
#3822
b0 !
#3850
#3851
b1 "
#3861
b1 !
#3862
#3900
b0 !
#3939
b1 !
#3940
#3950
#3951
b0 "
#3978
b0 !
#4000
#4017
b1 !
#4018
#4050
#4051
#4056
b0 !
#4095
b1 !
b0 #
#4096
#4100
#4134
b0 !
#4150
#4151
b1 "
b1 #
#4173
b1 !
#4174
#4200
#4212
b0 !
#4250
#4251
b1 !
#4252
#4290
b0 !
#4300
#4329
b1 !
#4330
#4350
#4351
#4368
b0 !
#4400
#4407
b1 !
#4408
#4446
b0 !
#4450
#4451
b0 "
#4485
b1 !
#4486
#4500
#4524
b0 !
#4550
#4551
#4563
b1 !
b0 #
#4564
#4600
#4602
b0 !
#4641
b1 !
#4642
#4650
#4651
#4680
b0 !
#4700
#4719
b1 !
#4720
#4750
#4751
b1 "
b1 #
#4758
b0 !
#4797
b1 !
#4798
#4800
#4836
b0 !
#4850
#4851
#4875
b1 !
#4876
#4900
#4914
b0 !
#4950
#4951
b0 "
#4953
b1 !
#4954
#4992
b0 !
#5000
#5031
b1 !
b0 #
#5032
#5050
#5051
#5070
b0 !
#5100
#5109
b1 !
#5110
#5148
b0 !
#5150
#5151
#5187
b1 !
#5188
#5200
#5226
b0 !
#5250
#5251
#5265
b1 !
#5266
#5300
#5304
b0 !
#5343
b1 !
#5344
#5350
#5351
#5382
b0 !
#5400
#5421
b1 !
#5422
#5450
#5451
b1 "
b1 #
#5460
b0 !
#5499
b1 !
#5500
#5538
b0 !
#5550
#5551
b0 "
#5577
b1 !
#5578
#5600
#5616
b0 !
#5650
#5651
#5655
b1 !
b0 #
#5656
#5694
b0 !
#5700
#5733
b1 !
#5734
#5750
#5751
#5772
b0 !
#5800
#5811
b1 !
#5812
#5850
b0 !
#5851
#5889
b1 !
#5890
#5900
#5928
b0 !
#5950
#5951
#5967
b1 !
#5968
#6000
#6006
b0 !
#6045
b1 !
#6046
#6050
#6051
#6084
b0 !
#6100
#6123
b1 !
#6124
#6150
#6151
#6162
b0 !
#6200
#6201
b1 !
#6202
#6240
b0 !
#6250
#6251
#6279
b1 !
#6280
#6300
#6318
b0 !
#6350
#6351
#6357
b1 !
#6358
#6396
b0 !
#6400
#6435
b1 !
#6436
#6450
#6451
#6474
b0 !
#6500
#6513
b1 !
#6514
#6550
#6551
#6552
b0 !
#6591
b1 !
#6592
#6600
#6630
b0 !
#6650
#6651
#6669
b1 !
#6670
#6700
#6708
b0 !
#6747
b1 !
#6748
#6750
#6751
#6786
b0 !
#6800
#6825
b1 !
#6826
#6850
#6851
#6864
b0 !
#6900
#6903
b1 !
#6904
#6942
b0 !
#6950
#6951
#6981
b1 !
#6982
#7000
#7020
b0 !
#7050
#7051
b1 "
b1 #
#7059
b1 !
#7060
#7098
b0 !
#7100
#7137
b1 !
#7138
#7150
#7151
b0 "
#7176
b0 !
#7200
#7215
b1 !
#7216
#7250
#7251
#7254
b0 !
#7293
b1 !
b0 #
#7294
#7300
#7332
b0 !
#7350
#7351
#7371
b1 !
#7372
#7400
#7410
b0 !
#7449
b1 !
#7450
#7451
#7488
b0 !
#7500
#7527
b1 !
#7528
#7550
#7551
b1 "
b1 #
#7566
b0 !
#7600
#7605
b1 !
#7606
#7644
b0 !
#7650
#7651
b0 "
#7683
b1 !
#7684
#7700
#7722
b0 !
#7750
#7751
b1 "
#7761
b1 !
#7762
#7800
b0 !
#7839
b1 !
#7840
#7850
#7851
b0 "
#7878
b0 !
#7900
#7917
b1 !
#7918
#7950
#7951
#7956
b0 !
#7995
b1 !
b0 #
#7996
#8000
#8034
b0 !
#8050
#8051
#8073
b1 !
#8074
#8100
#8112
b0 !
#8150
#8151
b1 !
#8152
#8190
b0 !
#8200
#8229
b1 !
#8230
#8250
#8251
#8268
b0 !
#8300
#8307
b1 !
#8308
#8346
b0 !
#8350
#8351
b1 "
b1 #
#8385
b1 !
#8386
#8400
#8424
b0 !
#8450
#8451
b0 "
#8463
b1 !
#8464
#8500
#8502
b0 !
#8541
b1 !
b0 #
#8542
#8550
#8551
b1 "
b1 #
#8580
b0 !
#8600
#8619
b1 !
#8620
#8650
#8651
b0 "
#8658
b0 !
#8697
b1 !
#8698
#8700
#8736
b0 !
#8750
#8751
#8775
b1 !
b0 #
#8776
#8800
#8814
b0 !
#8850
#8851
#8853
b1 !
#8854
#8892
b0 !
#8900
#8931
b1 !
#8932
#8950
#8951
#8970
b0 !
#9000
#9009
b1 !
#9010
#9048
b0 !
#9050
#9051
b1 "
b1 #
#9087
b1 !
#9088
#9100
#9126
b0 !
#9150
#9151
b0 "
#9165
b1 !
#9166
#9200
#9204
b0 !
#9243
b1 !
b0 #
#9244
#9250
#9251
b1 "
b1 #
#9282
b0 !
#9300
#9321
b1 !
#9322
#9350
#9351
b0 "
#9360
b0 !
#9399
b1 !
#9400
#9438
b0 !
#9450
#9451
b1 "
#9477
b1 !
#9478
#9500
#9516
b0 !
#9550
#9551
b0 "
#9555
b1 !
#9556
#9594
b0 !
#9600
#9633
b1 !
b0 #
#9634
#9650
#9651
b1 "
b1 #
#9672
b0 !
#9700
#9711
b1 !
#9712
#9750
b0 !
#9751
b0 "
#9789
b1 !
#9790
#9800
#9828
b0 !
#9850
#9851
#9867
b1 !
b0 #
#9868
#9900
#9906
b0 !
#9945
b1 !
#9946
#9950
#9951
#9984
b0 !
#10000
#10023
b1 !
#10024
#10050
#10051
#10062
b0 !
#10100
#10101
b1 !
#10102
#10140
b0 !
#10150
#10179
b1 !
