crates/rhdl-fpga/vcd/fifo/filler/filler.vcd
$timescale 1 ps $end
$scope module top $end
$scope module _marker $end
$scope module constant $end
$var wire 6 $ value $end
$upscope $end
$upscope $end
$scope module rng $end
$scope module w $end
$scope module dff $end
$var wire 32 , input $end
$var wire 32 - output $end
$upscope $end
$upscope $end
$scope module x $end
$scope module dff $end
$var wire 32 & input $end
$var wire 32 ' output $end
$upscope $end
$upscope $end
$scope module y $end
$scope module dff $end
$var wire 32 ( input $end
$var wire 32 ) output $end
$upscope $end
$upscope $end
$scope module z $end
$scope module dff $end
$var wire 32 * input $end
$var wire 32 + output $end
$upscope $end
$upscope $end
$var wire 1 % input $end
$var wire 32 . outputs $end
$upscope $end
$scope module sleep_counter $end
$scope module dff $end
$var wire 4 / input $end
$var wire 4 0 output $end
$upscope $end
$upscope $end
$scope module sleep_len $end
$scope module constant $end
$var wire 4 1 value $end
$upscope $end
$upscope $end
$scope module write_probability $end
$scope module constant $end
$var wire 16 2 value $end
$upscope $end
$upscope $end
$var wire 1 ! clock $end
$var wire 1 # input $end
$var wire 7 3 outputs $end
$var wire 1 " reset $end
$upscope $end
$enddefinitions $end
#0
b0 !
b1 "
b0 #
b000000 $
b1 %
b00000000000000000000000000000000 &
b00000000000000000000000000000000 '
b00000000000000000000000000000000 (
b00000000000000000000000000000000 )
b00000000000000000000000000000000 *
b00000000000000000000000000000000 +
b00000000000000000000000000000000 ,
b00000000000000000000000000000000 -
b00000000000000000000000000000000 .
b0000 /
b0000 0
b0100 1
b1000000000000000 2
b0000000 3
#50
b1 !
b01100010010110010010110001100010 '
b01000010001110110110001000100101 )
b00111010011000010011100101100110 +
b10000100001100100011001101010010 -
b01000010001110110110001000100101 &
b00111010011000010011100101100110 (
b10000100001100100011001101010010 *
b00101111101000110010010110001010 ,
b10101011001110100011110001100010 .
b0100 /
#51
b0 "
b1100010 3
#100
b0 !
#150
b1 !
b01000010001110110110001000100101 '
b00111010011000010011100101100110 )
b10000100001100100011001101010010 +
b00101111101000110010010110001010 -
b00111010011000010011100101100110 &
b10000100001100100011001101010010 (
b00101111101000110010010110001010 *
b10110110000100000100000000010001 ,
b10011001001010100100101000100101 .
b0100 0
b0 %
b01000010001110110110001000100101 &
b00111010011000010011100101100110 (
b10000100001100100011001101010010 *
b00101111101000110010010110001010 ,
b0011 /
b0000000 3
#151
#200
b0 !
#250
b1 !
b0011 0
b0010 /
#251
#300
b0 !
#350
b1 !
b0010 0
b0001 /
#351
#400
b0 !
#450
b1 !
b0001 0
b0000 /
#451
#500
b0 !
#550
b1 !
b0000 0
b1 %
b00111010011000010011100101100110 &
b10000100001100100011001101010010 (
b00101111101000110010010110001010 *
b10110110000100000100000000010001 ,
b0100 /
b1100101 3
#551
#600
b0 !
#650
b1 !
b00111010011000010011100101100110 '
b10000100001100100011001101010010 )
b00101111101000110010010110001010 +
b10110110000100000100000000010001 -
b10000100001100100011001101010010 &
b00101111101000110010010110001010 (
b10110110000100000100000000010001 *
b10000101100010011111010110111100 ,
b00110011101010100000100101100110 .
b0100 0
b0 %
b00111010011000010011100101100110 &
b10000100001100100011001101010010 (
b00101111101000110010010110001010 *
b10110110000100000100000000010001 ,
b0011 /
b0000000 3
#651
#700
b0 !
#750
b1 !
b0011 0
b0010 /
#751
#800
b0 !
#850
b1 !
b0010 0
b0001 /
#851
#900
b0 !
#950
b1 !
b0001 0
b0000 /
#951
#1000
b0 !
#1050
b1 !
b0000 0
b1 %
b10000100001100100011001101010010 &
b00101111101000110010010110001010 (
b10110110000100000100000000010001 *
b10000101100010011111010110111100 ,
b1100110 3
#1051
#1100
b0 !
#1150
b1 !
b10000100001100100011001101010010 '
b00101111101000110010010110001010 )
b10110110000100000100000000010001 +
b10000101100010011111010110111100 -
b00101111101000110010010110001010 &
b10110110000100000100000000010001 (
b10000101100010011111010110111100 *
b10010000001101001110111011111100 ,
b00010101101010001010001101010010 .
b1010010 3
#1151
#1200
b0 !
#1250
b1 !
b00101111101000110010010110001010 '
b10110110000100000100000000010001 )
b10000101100010011111010110111100 +
b10010000001101001110111011111100 -
b10110110000100000100000000010001 &
b10000101100010011111010110111100 (
b10010000001101001110111011111100 *
b10100110100011010000011000000101 ,
b00110110100011110111010110001010 .
b1001010 3
#1251
#1300
b0 !
#1350
b1 !
b10110110000100000100000000010001 '
b10000101100010011111010110111100 )
b10010000001101001110111011111100 +
b10100110100011010000011000000101 -
b10000101100010011111010110111100 &
b10010000001101001110111011111100 (
b10100110100011010000011000000101 *
b10010010101010011100101000001101 ,
b00110100000100001100100000010001 .
b1010001 3
#1351
#1400
b0 !
#1450
b1 !
b10000101100010011111010110111100 '
b10010000001101001110111011111100 )
b10100110100011010000011000000101 +
b10010010101010011100101000001101 -
b10010000001101001110111011111100 &
b10100110100011010000011000000101 (
b10010010101010011100101000001101 *
b01011000010001111110100111110001 ,
b11001010001001000001010110111100 .
b0100 /
b1111100 3
#1451
#1500
b0 !
#1550
b1 !
b10010000001101001110111011111100 '
b10100110100011010000011000000101 )
b10010010101010011100101000001101 +
b01011000010001111110100111110001 -
b10100110100011010000011000000101 &
b10010010101010011100101000001101 (
b01011000010001111110100111110001 *
b01101111001100111010111100001011 ,
b00110111010000110000111011111100 .
b0100 0
b0 %
b10010000001101001110111011111100 &
b10100110100011010000011000000101 (
b10010010101010011100101000001101 *
b01011000010001111110100111110001 ,
b0011 /
b0000000 3
#1551
#1600
b0 !
#1650
b1 !
b0011 0
b0010 /
#1651
#1700
b0 !
#1750
b1 !
b0010 0
b0001 /
#1751
#1800
b0 !
#1850
b1 !
b0001 0
b0000 /
#1851
#1900
b0 !
#1950
b1 !
b0000 0
b1 %
b10100110100011010000011000000101 &
b10010010101010011100101000001101 (
b01011000010001111110100111110001 *
b01101111001100111010111100001011 ,
b1111100 3
#1951
#2000
b0 !
#2050
b1 !
b10100110100011010000011000000101 '
b10010010101010011100101000001101 )
b01011000010001111110100111110001 +
b01101111001100111010111100001011 -
b10010010101010011100101000001101 &
b01011000010001111110100111110001 (
b01101111001100111010111100001011 *
b10100001010000000011000111000110 ,
b11001110101111010010111000000101 .
b0100 /
b1000101 3
#2051
#2100
b0 !
#2150
b1 !
b10010010101010011100101000001101 '
b01011000010001111110100111110001 )
b01101111001100111010111100001011 +
b10100001010000000011000111000110 -
b01011000010001111110100111110001 &
b01101111001100111010111100001011 (
b10100001010000000011000111000110 *
b01111101011001010111111001000001 ,
b11011100111110011010001000001101 .
b0100 0
b0 %
b10010010101010011100101000001101 &
b01011000010001111110100111110001 (
b01101111001100111010111100001011 *
b10100001010000000011000111000110 ,
b0011 /
b0000000 3
#2151
#2200
b0 !
#2250
b1 !
b0011 0
b0010 /
#2251
#2300
b0 !
#2350
b1 !
b0010 0
b0001 /
#2351
#2400
b0 !
#2450
b1 !
b0001 0
b0000 /
#2451
#2500
b0 !
#2550
b1 !
b0000 0
b1 %
b01011000010001111110100111110001 &
b01101111001100111010111100001011 (
b10100001010000000011000111000110 *
b01111101011001010111111001000001 ,
b0100 /
b1001101 3
#2551
#2600
b0 !
#2650
b1 !
b01011000010001111110100111110001 '
b01101111001100111010111100001011 )
b10100001010000000011000111000110 +
b01111101011001010111111001000001 -
b01101111001100111010111100001011 &
b10100001010000000011000111000110 (
b01111101011001010111111001000001 *
b00011010000010100001100001111101 ,
b01100111000010000110000111110001 .
b0100 0
b0 %
b01011000010001111110100111110001 &
b01101111001100111010111100001011 (
b10100001010000000011000111000110 *
b01111101011001010111111001000001 ,
b0011 /
b0000000 3
#2651
#2700
b0 !
#2750
b1 !
b0011 0
b0010 /
#2751
#2800
b0 !
#2850
b1 !
b0010 0
b0001 /
#2851
#2900
b0 !
#2950
b1 !
b0001 0
b0000 /
#2951
#3000
b0 !
#3050
b1 !
b0000 0
b1 %
b01101111001100111010111100001011 &
b10100001010000000011000111000110 (
b01111101011001010111111001000001 *
b00011010000010100001100001111101 ,
b1110001 3
#3051
#3100
b0 !
#3150
b1 !
b01101111001100111010111100001011 '
b10100001010000000011000111000110 )
b01111101011001010111111001000001 +
b00011010000010100001100001111101 -
b10100001010000000011000111000110 &
b01111101011001010111111001000001 (
b00011010000010100001100001111101 *
b11101000101100111010011111000000 ,
b11110010010010111111011100001011 .
b0100 /
b1001011 3
#3151
#3200
b0 !
#3250
b1 !
b10100001010000000011000111000110 '
b01111101011001010111111001000001 )
b00011010000010100001100001111101 +
b11101000101100111010011111000000 -
b01111101011001010111111001000001 &
b00011010000010100001100001111101 (
b11101000101100111010011111000000 *
b01001000110111010111010100010001 ,
b10100000110011100000000111000110 .
b0100 0
b0 %
b10100001010000000011000111000110 &
b01111101011001010111111001000001 (
b00011010000010100001100001111101 *
b11101000101100111010011111000000 ,
b0011 /
b0000000 3
#3251
#3300
b0 !
#3350
b1 !
b0011 0
b0010 /
#3351
#3400
b0 !
#3450
b1 !
b0010 0
b0001 /
#3451
#3500
b0 !
#3550
b1 !
b0001 0
b0000 /
#3551
#3600
b0 !
#3650
b1 !
b0000 0
b1 %
b01111101011001010111111001000001 &
b00011010000010100001100001111101 (
b11101000101100111010011111000000 *
b01001000110111010111010100010001 ,
b0100 /
b1000110 3
#3651
#3700
b0 !
#3750
b1 !
b01111101011001010111111001000001 '
b00011010000010100001100001111101 )
b11101000101100111010011111000000 +
b01001000110111010111010100010001 -
b00011010000010100001100001111101 &
b11101000101100111010011111000000 (
b01001000110111010111010100010001 *
b00011110000111001001110100111101 ,
b01010110100101110111011001000001 .
b0100 0
b0 %
b01111101011001010111111001000001 &
b00011010000010100001100001111101 (
b11101000101100111010011111000000 *
b01001000110111010111010100010001 ,
b0011 /
b0000000 3
#3751
#3800
b0 !
#3850
b1 !
b0011 0
b0010 /
#3851
#3900
b0 !
#3950
b1 !
b0010 0
b0001 /
#3951
#4000
b0 !
#4050
b1 !
b0001 0
b0000 /
#4051
#4100
b0 !
#4150
b1 !
b0000 0
b1 %
b00011010000010100001100001111101 &
b11101000101100111010011111000000 (
b01001000110111010111010100010001 *
b00011110000111001001110100111101 ,
b1000001 3
#4151
#4200
b0 !
#4250
b1 !
b00011010000010100001100001111101 '
b11101000101100111010011111000000 )
b01001000110111010111010100010001 +
b00011110000111001001110100111101 -
b11101000101100111010011111000000 &
b01001000110111010111010100010001 (
b00011110000111001001110100111101 *
b01010100100111111010011101110011 ,
b01001010110010011111000001111101 .
b1111101 3
#4251
#4300
b0 !
#4350
b1 !
b11101000101100111010011111000000 '
b01001000110111010111010100010001 )
b00011110000111001001110100111101 +
b01010100100111111010011101110011 -
b01001000110111010111010100010001 &
b00011110000111001001110100111101 (
b01010100100111111010011101110011 *
b00100001011001111000011110000111 ,
b01110101100011011010011111000000 .
b1000000 3
#4351
#4400
b0 !
#4450
b1 !
b01001000110111010111010100010001 '
b00011110000111001001110100111101 )
b01010100100111111010011101110011 +
b00100001011001111000011110000111 -
b00011110000111001001110100111101 &
b01010100100111111010011101110011 (
b00100001011001111000011110000111 *
b10000010101100010000101101000111 ,
b10100011011101011111110100010001 .
b0100 /
b1010001 3
#4451
#4500
b0 !
#4550
b1 !
b00011110000111001001110100111101 '
b01010100100111111010011101110011 )
b00100001011001111000011110000111 +
b10000010101100010000101101000111 -
b01010100100111111010011101110011 &
b00100001011001111000011110000111 (
b10000010101100010000101101000111 *
b01111000101111101001101101011001 ,
b11111010111101010111010100111101 .
b0100 0
b0 %
b00011110000111001001110100111101 &
b01010100100111111010011101110011 (
b00100001011001111000011110000111 *
b10000010101100010000101101000111 ,
b0011 /
b0000000 3
#4551
#4600
b0 !
#4650
b1 !
b0011 0
b0010 /
#4651
#4700
b0 !
#4750
b1 !
b0010 0
b0001 /
#4751
#4800
b0 !
#4850
b1 !
b0001 0
b0000 /
#4851
#4900
b0 !
#4950
b1 !
b0000 0
b1 %
b01010100100111111010011101110011 &
b00100001011001111000011110000111 (
b10000010101100010000101101000111 *
b01111000101111101001101101011001 ,
b0100 /
b1111101 3
#4951
#5000
b0 !
#5050
b1 !
b01010100100111111010011101110011 '
b00100001011001111000011110000111 )
b10000010101100010000101101000111 +
b01111000101111101001101101011001 -
b00100001011001111000011110000111 &
b10000010101100010000101101000111 (
b01111000101111101001101101011001 *
b11010001101100110000111100000010 ,
b10101001101001000011111101110011 .
b0100 0
b0 %
b01010100100111111010011101110011 &
b00100001011001111000011110000111 (
b10000010101100010000101101000111 *
b01111000101111101001101101011001 ,
b0011 /
b0000000 3
#5051
#5100
b0 !
