crates/rhdl-fpga/vcd/lid/single.vcd
$timescale 1 ps $end
$scope module top $end
$scope module drainer $end
$scope module drain_kernel $end
$var wire 6 Y data $end
$var wire 1 [ data_matches $end
$var wire 6 Z validation $end
$var wire 1 \ will_read $end
$upscope $end
$scope module read_probability $end
$scope module constant $end
$var wire 16 j value $end
$upscope $end
$upscope $end
$scope module rng $end
$scope module w $end
$scope module dff $end
$var wire 32 d input $end
$var wire 32 e output $end
$upscope $end
$upscope $end
$scope module x $end
$scope module dff $end
$var wire 32 ^ input $end
$var wire 32 _ output $end
$upscope $end
$upscope $end
$scope module y $end
$scope module dff $end
$var wire 32 ` input $end
$var wire 32 a output $end
$upscope $end
$upscope $end
$scope module z $end
$scope module dff $end
$var wire 32 b input $end
$var wire 32 c output $end
$upscope $end
$upscope $end
$var wire 1 ] input $end
$var wire 32 f outputs $end
$upscope $end
$scope module sleep_counter $end
$scope module dff $end
$var wire 4 g input $end
$var wire 4 h output $end
$upscope $end
$upscope $end
$scope module sleep_len $end
$scope module constant $end
$var wire 4 i value $end
$upscope $end
$upscope $end
$scope module valid $end
$scope module dff $end
$var wire 1 k input $end
$var wire 1 l output $end
$upscope $end
$upscope $end
$var wire 7 X input $end
$var wire 2 m outputs $end
$upscope $end
$scope module filler $end
$scope module _marker $end
$scope module constant $end
$var wire 6 $ value $end
$upscope $end
$upscope $end
$scope module rng $end
$scope module w $end
$scope module dff $end
$var wire 32 , input $end
$var wire 32 - output $end
$upscope $end
$upscope $end
$scope module x $end
$scope module dff $end
$var wire 32 & input $end
$var wire 32 ' output $end
$upscope $end
$upscope $end
$scope module y $end
$scope module dff $end
$var wire 32 ( input $end
$var wire 32 ) output $end
$upscope $end
$upscope $end
$scope module z $end
$scope module dff $end
$var wire 32 * input $end
$var wire 32 + output $end
$upscope $end
$upscope $end
$var wire 1 % input $end
$var wire 32 . outputs $end
$upscope $end
$scope module sleep_counter $end
$scope module dff $end
$var wire 4 / input $end
$var wire 4 0 output $end
$upscope $end
$upscope $end
$scope module sleep_len $end
$scope module constant $end
$var wire 4 1 value $end
$upscope $end
$upscope $end
$scope module write_probability $end
$scope module constant $end
$var wire 16 2 value $end
$upscope $end
$upscope $end
$var wire 1 # input $end
$var wire 7 3 outputs $end
$upscope $end
$scope module receiver $end
$scope module one_slot $end
$scope module dff $end
$var wire 6 Q input $end
$var wire 6 R output $end
$upscope $end
$upscope $end
$scope module read_slot $end
$scope module dff $end
$var wire 1 U input $end
$var wire 1 V output $end
$upscope $end
$upscope $end
$scope module state $end
$scope module dff $end
$var wire 2 M input $end
$var wire 2 N output $end
$upscope $end
$upscope $end
$scope module write_slot $end
$scope module dff $end
$var wire 1 S input $end
$var wire 1 T output $end
$upscope $end
$upscope $end
$scope module zero_slot $end
$scope module dff $end
$var wire 6 O input $end
$var wire 6 P output $end
$upscope $end
$upscope $end
$var wire 8 L input $end
$var wire 9 W outputs $end
$upscope $end
$scope module relay $end
$scope module inner $end
$scope module aux_ff $end
$scope module dff $end
$var wire 6 D input $end
$var wire 6 E output $end
$upscope $end
$upscope $end
$scope module main_ff $end
$scope module dff $end
$var wire 6 B input $end
$var wire 6 C output $end
$upscope $end
$upscope $end
$scope module state_ff $end
$scope module dff $end
$var wire 1 H input $end
$var wire 1 I output $end
$upscope $end
$upscope $end
$scope module void_ff $end
$scope module dff $end
$var wire 1 F input $end
$var wire 1 G output $end
$upscope $end
$upscope $end
$var wire 8 A input $end
$var wire 8 J outputs $end
$upscope $end
$var wire 8 @ input $end
$var wire 8 K outputs $end
$upscope $end
$scope module sender $end
$scope module one_slot $end
$scope module dff $end
$var wire 6 9 input $end
$var wire 6 : output $end
$upscope $end
$upscope $end
$scope module read_slot $end
$scope module dff $end
$var wire 1 = input $end
$var wire 1 > output $end
$upscope $end
$upscope $end
$scope module state $end
$scope module dff $end
$var wire 2 5 input $end
$var wire 2 6 output $end
$upscope $end
$upscope $end
$scope module write_slot $end
$scope module dff $end
$var wire 1 ; input $end
$var wire 1 < output $end
$upscope $end
$upscope $end
$scope module zero_slot $end
$scope module dff $end
$var wire 6 7 input $end
$var wire 6 8 output $end
$upscope $end
$upscope $end
$var wire 8 4 input $end
$var wire 9 ? outputs $end
$upscope $end
$var wire 1 ! clock $end
$var wire 1 ]! input $end
$var wire 1 n outputs $end
$var wire 1 " reset $end
$upscope $end
$enddefinitions $end
#0
b0 !
b1 "
b0 #
b000000 $
b1 %
b00000000000000000000000000000000 &
b00000000000000000000000000000000 '
b00000000000000000000000000000000 (
b00000000000000000000000000000000 )
b00000000000000000000000000000000 *
b00000000000000000000000000000000 +
b00000000000000000000000000000000 ,
b00000000000000000000000000000000 -
b00000000000000000000000000000000 .
b0000 /
b0000 0
b0100 1
b0111111111111111 2
b0000000 3
b00000000 4
b00 5
b00 6
b000000 7
b000000 8
b000000 9
b000000 :
b0 ;
b0 <
b0 =
b0 >
b000000000 ?
b00000000 @
b11000000 A
b000000 B
b000000 C
b000000 D
b000000 E
b0 F
b0 G
b0 H
b0 I
b11000000 J
b00000000 K
b00000000 L
b00 M
b00 N
b000000 O
b000000 P
b000000 Q
b000000 R
b0 S
b0 T
b0 U
b0 V
b010000000 W
b0000000 X
b000000 Y
b000000 Z
b1 [
b0 \
b0 ]
b00000000000000000000000000000000 ^
b00000000000000000000000000000000 _
b00000000000000000000000000000000 `
b00000000000000000000000000000000 a
b00000000000000000000000000000000 b
b00000000000000000000000000000000 c
b00000000000000000000000000000000 d
b00000000000000000000000000000000 e
b00000000000000000000000000000000 f
b0000 g
b0000 h
b0100 i
b0111111111111111 j
b1 k
b0 l
b10 m
b10000000 @
b01000000 A
b1 F
b1 n
#50
b1 !
b01100010010110010010110001100010 '
b01000010001110110110001000100101 )
b00111010011000010011100101100110 +
b10000100001100100011001101010010 -
b01000010001110110110001000100101 &
b00111010011000010011100101100110 (
b10000100001100100011001101010010 *
b00101111101000110010010110001010 ,
b10101011001110100011110001100010 .
b0100 /
b1 G
b01100010010110010010110001100010 _
b01000010001110110110001000100101 a
b00111010011000010011100101100110 c
b10000100001100100011001101010010 e
b01100010010110010010110001100010 ^
b01000010001110110110001000100101 `
b00111010011000010011100101100110 b
b10000100001100100011001101010010 d
b10101011001110100011110001100010 f
b1 l
b100010 Z
b0 [
#51
b0 "
b1100010 3
b01000000 J
b10000000 K
b11100010 4
b01 5
b100010 7
b1 ;
#100
b0 !
#150
b1 !
b01000010001110110110001000100101 '
b00111010011000010011100101100110 )
b10000100001100100011001101010010 +
b00101111101000110010010110001010 -
b00111010011000010011100101100110 &
b10000100001100100011001101010010 (
b00101111101000110010010110001010 *
b10110110000100000100000000010001 ,
b10011001001010100100101000100101 .
b0100 0
b0 %
b01000010001110110110001000100101 &
b00111010011000010011100101100110 (
b10000100001100100011001101010010 *
b00101111101000110010010110001010 ,
b0011 /
b0000000 3
b01 6
b100010 8
b1 <
b100010 9
b0 ;
b1 =
b001100010 ?
b10000000 4
b00 5
b000000 9
b1 ;
b11100010 @
b00100010 A
b100010 B
b0 F
#151
#200
b0 !
#250
b1 !
b0011 0
b0010 /
b00 6
b1 >
b000000000 ?
b100010 C
b0 G
b00100010 J
b11100010 K
b10000000 @
b01000000 A
b000000 B
b1 F
b01100010 L
b01 M
b100010 O
b1 S
#251
#300
b0 !
#350
b1 !
b0010 0
b0001 /
b000000 C
b1 G
b01000000 J
b10000000 K
b01 N
b100010 P
b1 T
b10 M
b100010 Q
b0 S
b011100010 W
b00000000 L
b01 M
b000000 Q
b1 S
b1100010 X
b100010 Y
b1 [
b1 \
b1 ]
b01000010001110110110001000100101 ^
b00111010011000010011100101100110 `
b10000100001100100011001101010010 b
b00101111101000110010010110001010 d
b11 m
b10000000 L
b00 M
b1 U
#351
#400
b0 !
#450
b1 !
b0001 0
b0000 /
b00 N
b1 V
b11 M
b0 U
b010000000 W
b01000010001110110110001000100101 _
b00111010011000010011100101100110 a
b10000100001100100011001101010010 c
b00101111101000110010010110001010 e
b00111010011000010011100101100110 ^
b10000100001100100011001101010010 `
b00101111101000110010010110001010 b
b10110110000100000100000000010001 d
b10011001001010100100101000100101 f
b100101 Z
b0 [
b0 k
b0000000 X
b000000 Y
b0 \
b0 ]
b01000010001110110110001000100101 ^
b00111010011000010011100101100110 `
b10000100001100100011001101010010 b
b00101111101000110010010110001010 d
b1 k
b10 m
b00000000 L
b00 M
b1 U
#451
#500
b0 !
#550
b1 !
b0000 0
b1 %
b00111010011000010011100101100110 &
b10000100001100100011001101010010 (
b00101111101000110010010110001010 *
b10110110000100000100000000010001 ,
b0100 /
b1100101 3
b11100101 4
b01 5
b100101 9
b0 ;
#551
#600
b0 !
#650
b1 !
b00111010011000010011100101100110 '
b10000100001100100011001101010010 )
b00101111101000110010010110001010 +
b10110110000100000100000000010001 -
b10000100001100100011001101010010 &
b00101111101000110010010110001010 (
b10110110000100000100000000010001 *
b10000101100010011111010110111100 ,
b00110011101010100000100101100110 .
b0100 0
b0 %
b00111010011000010011100101100110 &
b10000100001100100011001101010010 (
b00101111101000110010010110001010 *
b10110110000100000100000000010001 ,
b0011 /
b0000000 3
b01 6
b100101 :
b0 <
b100101 7
b1 ;
b0 =
b001100101 ?
b10000000 4
b00 5
b100010 7
b0 ;
b11100101 @
b00100101 A
b100101 B
b0 F
#651
#700
b0 !
#750
b1 !
b0011 0
b0010 /
b00 6
b0 >
b000000000 ?
b100101 C
b0 G
b00100101 J
b11100101 K
b10000000 @
b01000000 A
b000000 B
b1 F
b01100101 L
b01 M
b100101 Q
b0 S
#751
#800
b0 !
#850
b1 !
b0010 0
b0001 /
b000000 C
b1 G
b01000000 J
b10000000 K
b01 N
b100101 R
b0 T
b10 M
b100101 O
b1 S
b011100101 W
b00000000 L
b01 M
b100010 O
b0 S
b1100101 X
b100101 Y
b1 [
b1 \
b1 ]
b00111010011000010011100101100110 ^
b10000100001100100011001101010010 `
b00101111101000110010010110001010 b
b10110110000100000100000000010001 d
b11 m
b10000000 L
b00 M
b0 U
#851
#900
b0 !
#950
b1 !
b0001 0
b0000 /
b00 N
b0 V
b11 M
b1 U
b010000000 W
b00111010011000010011100101100110 _
b10000100001100100011001101010010 a
b00101111101000110010010110001010 c
b10110110000100000100000000010001 e
b10000100001100100011001101010010 ^
b00101111101000110010010110001010 `
b10110110000100000100000000010001 b
b10000101100010011111010110111100 d
b00110011101010100000100101100110 f
b100110 Z
b0 [
b0 k
b0000000 X
b000000 Y
b0 \
b0 ]
b00111010011000010011100101100110 ^
b10000100001100100011001101010010 `
b00101111101000110010010110001010 b
b10110110000100000100000000010001 d
b1 k
b10 m
b00000000 L
b00 M
b0 U
#951
#1000
b0 !
#1050
b1 !
b0000 0
b1 %
b10000100001100100011001101010010 &
b00101111101000110010010110001010 (
b10110110000100000100000000010001 *
b10000101100010011111010110111100 ,
b1100110 3
b11100110 4
b01 5
b100110 7
b1 ;
#1051
#1100
b0 !
#1150
b1 !
b10000100001100100011001101010010 '
b00101111101000110010010110001010 )
b10110110000100000100000000010001 +
b10000101100010011111010110111100 -
b00101111101000110010010110001010 &
b10110110000100000100000000010001 (
b10000101100010011111010110111100 *
b10010000001101001110111011111100 ,
b00010101101010001010001101010010 .
b1010010 3
b01 6
b100110 8
b1 <
b100110 9
b0 ;
b1 =
b001100110 ?
b11010010 4
b010010 9
b11100110 @
b00100110 A
b100110 B
b0 F
#1151
#1200
b0 !
#1250
b1 !
b00101111101000110010010110001010 '
b10110110000100000100000000010001 )
b10000101100010011111010110111100 +
b10010000001101001110111011111100 -
b10110110000100000100000000010001 &
b10000101100010011111010110111100 (
b10010000001101001110111011111100 *
b10100110100011010000011000000101 ,
b00110110100011110111010110001010 .
b1001010 3
b010010 :
b0 <
b1 >
b010010 7
b1 ;
b0 =
b001010010 ?
b100110 C
b0 G
b00100110 J
b11100110 K
b11001010 4
b001010 7
b11010010 @
b00010010 A
b010010 B
b01100110 L
b01 M
b100110 O
b1 S
#1251
#1300
b0 !
#1350
b1 !
b10110110000100000100000000010001 '
b10000101100010011111010110111100 )
b10010000001101001110111011111100 +
b10100110100011010000011000000101 -
b10000101100010011111010110111100 &
b10010000001101001110111011111100 (
b10100110100011010000011000000101 *
b10010010101010011100101000001101 ,
b00110100000100001100100000010001 .
b1010001 3
b001010 8
b1 <
b0 >
b001010 9
b0 ;
b1 =
b001001010 ?
b010010 C
b00010010 J
b11010010 K
b01 N
b100110 P
b1 T
b10 M
b100110 Q
b0 S
b011100110 W
b11010001 4
b010001 9
b11001010 @
b00001010 A
b001010 B
b01010010 L
b010010 Q
b1100110 X
b100110 Y
b1 [
b1 \
b1 ]
b10000100001100100011001101010010 ^
b00101111101000110010010110001010 `
b10110110000100000100000000010001 b
b10000101100010011111010110111100 d
b11 m
b11010010 L
b01 M
b1 U
#1351
#1400
b0 !
#1450
b1 !
b10000101100010011111010110111100 '
b10010000001101001110111011111100 )
b10100110100011010000011000000101 +
b10010010101010011100101000001101 -
b10010000001101001110111011111100 &
b10100110100011010000011000000101 (
b10010010101010011100101000001101 *
b01011000010001111110100111110001 ,
b11001010001001000001010110111100 .
b0100 /
b1111100 3
b010001 :
b0 <
b1 >
b010001 7
b1 ;
b0 =
b001010001 ?
b001010 C
b00001010 J
b11001010 K
b010010 R
b0 T
b1 V
b010010 O
b1 S
b0 U
b011010010 W
b10000100001100100011001101010010 _
b00101111101000110010010110001010 a
b10110110000100000100000000010001 c
b10000101100010011111010110111100 e
b00101111101000110010010110001010 ^
b10110110000100000100000000010001 `
b10000101100010011111010110111100 b
b10010000001101001110111011111100 d
b00010101101010001010001101010010 f
b010010 Z
b0 [
b0100 g
b0 k
b11111100 4
b111100 7
b11010001 @
b00010001 A
b010001 B
b11001010 L
b001010 O
b1010010 X
b010010 Y
b1 [
b1 k
#1451
#1500
b0 !
#1550
b1 !
b10010000001101001110111011111100 '
b10100110100011010000011000000101 )
b10010010101010011100101000001101 +
b01011000010001111110100111110001 -
b10100110100011010000011000000101 &
b10010010101010011100101000001101 (
b01011000010001111110100111110001 *
b01101111001100111010111100001011 ,
b00110111010000110000111011111100 .
b0100 0
b0 %
b10010000001101001110111011111100 &
b10100110100011010000011000000101 (
b10010010101010011100101000001101 *
b01011000010001111110100111110001 ,
b0011 /
b0000000 3
b111100 8
b1 <
b0 >
b111100 9
b0 ;
b1 =
b001111100 ?
b010001 C
b00010001 J
b11010001 K
b001010 P
b1 T
b0 V
b001010 Q
b0 S
b1 U
b011001010 W
b00101111101000110010010110001010 _
b10110110000100000100000000010001 a
b10000101100010011111010110111100 c
b10010000001101001110111011111100 e
b10110110000100000100000000010001 ^
b10000101100010011111010110111100 `
b10010000001101001110111011111100 b
b10100110100011010000011000000101 d
b00110110100011110111010110001010 f
b0100 h
b001010 Z
b0 [
b0 \
b0 ]
b00101111101000110010010110001010 ^
b10110110000100000100000000010001 `
b10000101100010011111010110111100 b
b10010000001101001110111011111100 d
b0011 g
b10 m
b10000000 4
b00 5
b010001 9
b1 ;
b11111100 @
b00111100 A
b111100 B
b01010001 L
b10 M
b010001 Q
b0 U
b1001010 X
b001010 Y
b1 [
#1551
#1600
b0 !
#1650
b1 !
b0011 0
b0010 /
b00 6
b1 >
b000000000 ?
b111100 C
b00111100 J
b11111100 K
b10 N
b010001 R
b0 T
b001001010 W
b0011 h
b0010 g
b00000000 @
b11000000 A
b01111100 L
#1651
#1700
b0 !
#1750
b1 !
b0010 0
b0001 /
b0010 h
b0001 g
#1751
#1800
b0 !
#1850
b1 !
b0001 0
b0000 /
b0001 h
b0000 g
#1851
#1900
b0 !
#1950
b1 !
b0000 0
b1 %
b10100110100011010000011000000101 &
b10010010101010011100101000001101 (
b01011000010001111110100111110001 *
b01101111001100111010111100001011 ,
b1111100 3
b0000 h
b1 \
b1 ]
b10110110000100000100000000010001 ^
b10000101100010011111010110111100 `
b10010000001101001110111011111100 b
b10100110100011010000011000000101 d
b11 m
b11111100 4
b01 5
b111100 9
b0 ;
b11111100 L
b01 M
b1 U
#1951
#2000
b0 !
#2050
b1 !
b10100110100011010000011000000101 '
b10010010101010011100101000001101 )
b01011000010001111110100111110001 +
b01101111001100111010111100001011 -
b10010010101010011100101000001101 &
b01011000010001111110100111110001 (
b01101111001100111010111100001011 *
b10100001010000000011000111000110 ,
b11001110101111010010111000000101 .
b0100 /
b1000101 3
b01 6
b111100 :
b0 <
b1 ;
b0 =
b001111100 ?
b01 N
b1 V
b111100 O
b1 S
b0 U
b011010001 W
b10110110000100000100000000010001 _
b10000101100010011111010110111100 a
b10010000001101001110111011111100 c
b10100110100011010000011000000101 e
b10000101100010011111010110111100 ^
b10010000001101001110111011111100 `
b10100110100011010000011000000101 b
b10010010101010011100101000001101 d
b00110100000100001100100000010001 f
b010001 Z
b0 [
b0100 g
b0 k
b11000101 4
b000101 7
b11111100 @
b00111100 A
b1010001 X
b010001 Y
b1 [
b1 k
#2051
#2100
b0 !
#2150
b1 !
b10010010101010011100101000001101 '
b01011000010001111110100111110001 )
b01101111001100111010111100001011 +
b10100001010000000011000111000110 -
b01011000010001111110100111110001 &
b01101111001100111010111100001011 (
b10100001010000000011000111000110 *
b01111101011001010111111001000001 ,
b11011100111110011010001000001101 .
b0100 0
b0 %
b10010010101010011100101000001101 &
b01011000010001111110100111110001 (
b01101111001100111010111100001011 *
b10100001010000000011000111000110 ,
b0011 /
b0000000 3
b000101 8
b1 <
b0 >
b000101 9
b0 ;
b1 =
b001000101 ?
b111100 P
b1 T
b0 V
b111100 Q
b0 S
b1 U
b011111100 W
b10000101100010011111010110111100 _
b10010000001101001110111011111100 a
b10100110100011010000011000000101 c
b10010010101010011100101000001101 e
b10010000001101001110111011111100 ^
b10100110100011010000011000000101 `
b10010010101010011100101000001101 b
b01011000010001111110100111110001 d
b11001010001001000001010110111100 f
b0100 h
b111100 Z
b0 [
b0 \
b0 ]
b10000101100010011111010110111100 ^
b10010000001101001110111011111100 `
b10100110100011010000011000000101 b
b10010010101010011100101000001101 d
b0011 g
b10 m
b10000000 4
b00 5
b111100 9
b1 ;
b11000101 @
b00000101 A
b000101 B
b01111100 L
b10 M
b0 U
b1111100 X
b111100 Y
b1 [
#2151
#2200
b0 !
#2250
b1 !
b0011 0
b0010 /
b00 6
b1 >
b000000000 ?
b000101 C
b00000101 J
b11000101 K
b10 N
b111100 R
b0 T
b001111100 W
b0011 h
b0010 g
b00000000 @
b11000000 A
b01000101 L
#2251
#2300
b0 !
#2350
b1 !
b0010 0
b0001 /
b0010 h
b0001 g
#2351
#2400
b0 !
#2450
b1 !
b0001 0
b0000 /
b0001 h
b0000 g
#2451
#2500
b0 !
#2550
b1 !
b0000 0
b1 %
b01011000010001111110100111110001 &
b01101111001100111010111100001011 (
b10100001010000000011000111000110 *
b01111101011001010111111001000001 ,
b0100 /
b1001101 3
b0000 h
b1 \
b1 ]
b10010000001101001110111011111100 ^
b10100110100011010000011000000101 `
b10010010101010011100101000001101 b
b01011000010001111110100111110001 d
b11 m
b11001101 4
b01 5
b001101 9
b0 ;
b11000101 L
b01 M
b1 U
#2551
#2600
b0 !
#2650
b1 !
b01011000010001111110100111110001 '
b01101111001100111010111100001011 )
b10100001010000000011000111000110 +
b01111101011001010111111001000001 -
b01101111001100111010111100001011 &
b10100001010000000011000111000110 (
b01111101011001010111111001000001 *
b00011010000010100001100001111101 ,
b01100111000010000110000111110001 .
b0100 0
b0 %
b01011000010001111110100111110001 &
b01101111001100111010111100001011 (
b10100001010000000011000111000110 *
b01111101011001010111111001000001 ,
b0011 /
b0000000 3
b01 6
b001101 :
b0 <
b001101 7
b1 ;
b0 =
b001001101 ?
b01 N
b1 V
b000101 O
b1 S
b0 U
b011111100 W
b10010000001101001110111011111100 _
b10100110100011010000011000000101 a
b10010010101010011100101000001101 c
b01011000010001111110100111110001 e
b10100110100011010000011000000101 ^
b10010010101010011100101000001101 `
b01011000010001111110100111110001 b
b01101111001100111010111100001011 d
b00110111010000110000111011111100 f
b10000000 4
b00 5
b000101 7
b0 ;
b11001101 @
b00001101 A
b001101 B
#2651
#2700
b0 !
#2750
b1 !
b0011 0
b0010 /
b00 6
b0 >
b000000000 ?
b001101 C
b00001101 J
b11001101 K
b000101 P
b1 T
b0 V
b000101 Q
b0 S
b1 U
b011000101 W
b10100110100011010000011000000101 _
b10010010101010011100101000001101 a
b01011000010001111110100111110001 c
b01101111001100111010111100001011 e
b10010010101010011100101000001101 ^
b01011000010001111110100111110001 `
b01101111001100111010111100001011 b
b10100001010000000011000111000110 d
b11001110101111010010111000000101 f
b000101 Z
b0 [
b0 k
b10000000 @
b01000000 A
b000000 B
b1 F
b11001101 L
b001101 Q
b1000101 X
b000101 Y
b1 [
b1 k
#2751
#2800
b0 !
#2850
b1 !
b0010 0
b0001 /
b000000 C
b1 G
b01000000 J
b10000000 K
b001101 R
b0 T
b1 V
b001101 O
b1 S
b0 U
b011001101 W
b10010010101010011100101000001101 _
b01011000010001111110100111110001 a
b01101111001100111010111100001011 c
b10100001010000000011000111000110 e
b01011000010001111110100111110001 ^
b01101111001100111010111100001011 `
b10100001010000000011000111000110 b
b01111101011001010111111001000001 d
b11011100111110011010001000001101 f
b001101 Z
b0 [
b0100 g
b0 k
b10000000 L
b00 M
b000101 O
b0 S
b1001101 X
b001101 Y
b1 [
b1 k
#2851
#2900
b0 !
#2950
b1 !
b0001 0
b0000 /
b00 N
b0 V
b11 M
b1 U
b010000000 W
b01011000010001111110100111110001 _
b01101111001100111010111100001011 a
b10100001010000000011000111000110 c
b01111101011001010111111001000001 e
b01101111001100111010111100001011 ^
b10100001010000000011000111000110 `
b01111101011001010111111001000001 b
b00011010000010100001100001111101 d
b01100111000010000110000111110001 f
b0100 h
b110001 Z
b0 [
b0 \
b0 ]
b01011000010001111110100111110001 ^
b01101111001100111010111100001011 `
b10100001010000000011000111000110 b
b01111101011001010111111001000001 d
b0011 g
b10 m
b00000000 L
b00 M
b0 U
b0000000 X
b000000 Y
#2951
#3000
b0 !
#3050
b1 !
b0000 0
b1 %
b01101111001100111010111100001011 &
b10100001010000000011000111000110 (
b01111101011001010111111001000001 *
b00011010000010100001100001111101 ,
b1110001 3
b0011 h
b0010 g
b11110001 4
b01 5
b110001 7
b1 ;
#3051
#3100
b0 !
#3150
b1 !
b01101111001100111010111100001011 '
b10100001010000000011000111000110 )
b01111101011001010111111001000001 +
b00011010000010100001100001111101 -
b10100001010000000011000111000110 &
b01111101011001010111111001000001 (
b00011010000010100001100001111101 *
b11101000101100111010011111000000 ,
b11110010010010111111011100001011 .
b0100 /
b1001011 3
b01 6
b110001 8
b1 <
b110001 9
b0 ;
b1 =
b001110001 ?
b0010 h
b0001 g
b11001011 4
b001011 9
b11110001 @
b00110001 A
b110001 B
b0 F
#3151
#3200
b0 !
#3250
b1 !
b10100001010000000011000111000110 '
b01111101011001010111111001000001 )
b00011010000010100001100001111101 +
b11101000101100111010011111000000 -
b01111101011001010111111001000001 &
b00011010000010100001100001111101 (
b11101000101100111010011111000000 *
b01001000110111010111010100010001 ,
b10100000110011100000000111000110 .
b0100 0
b0 %
b10100001010000000011000111000110 &
b01111101011001010111111001000001 (
b00011010000010100001100001111101 *
b11101000101100111010011111000000 ,
b0011 /
b0000000 3
b001011 :
b0 <
b1 >
b001011 7
b1 ;
b0 =
b001001011 ?
b110001 C
b0 G
b00110001 J
b11110001 K
b0001 h
b0000 g
b10000000 4
b00 5
b110001 7
b0 ;
b11001011 @
b00001011 A
b001011 B
b01110001 L
b01 M
b110001 O
b1 S
#3251
#3300
b0 !
#3350
b1 !
b0011 0
b0010 /
b00 6
b0 >
b000000000 ?
b001011 C
b00001011 J
b11001011 K
b01 N
b110001 P
b1 T
b10 M
b110001 Q
b0 S
b011110001 W
b0000 h
b10000000 @
b01000000 A
b000000 B
b1 F
b01001011 L
b001011 Q
b1110001 X
b110001 Y
b1 [
b1 \
b1 ]
b01101111001100111010111100001011 ^
b10100001010000000011000111000110 `
b01111101011001010111111001000001 b
b00011010000010100001100001111101 d
b11 m
b11001011 L
b01 M
b1 U
#3351
#3400
b0 !
#3450
b1 !
b0010 0
b0001 /
b000000 C
b1 G
b01000000 J
b10000000 K
b001011 R
b0 T
b1 V
b001011 O
b1 S
b0 U
b011001011 W
b01101111001100111010111100001011 _
b10100001010000000011000111000110 a
b01111101011001010111111001000001 c
b00011010000010100001100001111101 e
b10100001010000000011000111000110 ^
b01111101011001010111111001000001 `
b00011010000010100001100001111101 b
b11101000101100111010011111000000 d
b11110010010010111111011100001011 f
b001011 Z
b0 [
b0100 g
b0 k
b10000000 L
b00 M
b110001 O
b0 S
b1001011 X
b001011 Y
b1 [
b1 k
#3451
#3500
b0 !
#3550
b1 !
b0001 0
b0000 /
b00 N
b0 V
b11 M
b1 U
b010000000 W
b10100001010000000011000111000110 _
b01111101011001010111111001000001 a
b00011010000010100001100001111101 c
b11101000101100111010011111000000 e
b01111101011001010111111001000001 ^
b00011010000010100001100001111101 `
b11101000101100111010011111000000 b
b01001000110111010111010100010001 d
b10100000110011100000000111000110 f
b0100 h
b000110 Z
b0 [
b0 \
b0 ]
b10100001010000000011000111000110 ^
b01111101011001010111111001000001 `
b00011010000010100001100001111101 b
b11101000101100111010011111000000 d
b0011 g
b10 m
b00000000 L
b00 M
b0 U
b0000000 X
b000000 Y
#3551
#3600
b0 !
#3650
b1 !
b0000 0
b1 %
b01111101011001010111111001000001 &
b00011010000010100001100001111101 (
b11101000101100111010011111000000 *
b01001000110111010111010100010001 ,
b0100 /
b1000110 3
b0011 h
b0010 g
b11000110 4
b01 5
b000110 7
b1 ;
#3651
#3700
b0 !
#3750
b1 !
b01111101011001010111111001000001 '
b00011010000010100001100001111101 )
b11101000101100111010011111000000 +
b01001000110111010111010100010001 -
b00011010000010100001100001111101 &
b11101000101100111010011111000000 (
b01001000110111010111010100010001 *
b00011110000111001001110100111101 ,
b01010110100101110111011001000001 .
b0100 0
b0 %
b01111101011001010111111001000001 &
b00011010000010100001100001111101 (
b11101000101100111010011111000000 *
b01001000110111010111010100010001 ,
b0011 /
b0000000 3
b01 6
b000110 8
b1 <
b000110 9
b0 ;
b1 =
b001000110 ?
b0010 h
b0001 g
b10000000 4
b00 5
b001011 9
b1 ;
b11000110 @
b00000110 A
b000110 B
b0 F
#3751
#3800
b0 !
#3850
b1 !
b0011 0
b0010 /
b00 6
b1 >
b000000000 ?
b000110 C
b0 G
b00000110 J
b11000110 K
b0001 h
b0000 g
b10000000 @
b01000000 A
b000000 B
b1 F
b01000110 L
b01 M
b000110 O
b1 S
#3851
#3900
b0 !
#3950
b1 !
b0010 0
b0001 /
b000000 C
b1 G
b01000000 J
b10000000 K
b01 N
b000110 P
b1 T
b10 M
b000110 Q
b0 S
b011000110 W
b0000 h
b00000000 L
b01 M
b001011 Q
b1 S
b1000110 X
b000110 Y
b1 [
b1 \
b1 ]
b01111101011001010111111001000001 ^
b00011010000010100001100001111101 `
b11101000101100111010011111000000 b
b01001000110111010111010100010001 d
b11 m
b10000000 L
b00 M
b1 U
#3951
#4000
b0 !
#4050
b1 !
b0001 0
b0000 /
b00 N
b1 V
b11 M
b0 U
b010000000 W
b01111101011001010111111001000001 _
b00011010000010100001100001111101 a
b11101000101100111010011111000000 c
b01001000110111010111010100010001 e
b00011010000010100001100001111101 ^
b11101000101100111010011111000000 `
b01001000110111010111010100010001 b
b00011110000111001001110100111101 d
b01010110100101110111011001000001 f
b000001 Z
b0 [
b0 k
b0000000 X
b000000 Y
b0 \
b0 ]
b01111101011001010111111001000001 ^
b00011010000010100001100001111101 `
b11101000101100111010011111000000 b
b01001000110111010111010100010001 d
b1 k
b10 m
b00000000 L
b00 M
b1 U
#4051
#4100
b0 !
#4150
b1 !
b0000 0
b1 %
b00011010000010100001100001111101 &
b11101000101100111010011111000000 (
b01001000110111010111010100010001 *
b00011110000111001001110100111101 ,
b1000001 3
b11000001 4
b01 5
b000001 9
b0 ;
#4151
#4200
b0 !
#4250
b1 !
b00011010000010100001100001111101 '
b11101000101100111010011111000000 )
b01001000110111010111010100010001 +
b00011110000111001001110100111101 -
b11101000101100111010011111000000 &
b01001000110111010111010100010001 (
b00011110000111001001110100111101 *
b01010100100111111010011101110011 ,
b01001010110010011111000001111101 .
b1111101 3
b01 6
b000001 :
b0 <
b000001 7
b1 ;
b0 =
b001000001 ?
b11111101 4
b111101 7
b11000001 @
b00000001 A
b000001 B
b0 F
#4251
#4300
b0 !
#4350
b1 !
b11101000101100111010011111000000 '
b01001000110111010111010100010001 )
b00011110000111001001110100111101 +
b01010100100111111010011101110011 -
b01001000110111010111010100010001 &
b00011110000111001001110100111101 (
b01010100100111111010011101110011 *
b00100001011001111000011110000111 ,
b01110101100011011010011111000000 .
b1000000 3
b111101 8
b1 <
b0 >
b111101 9
b0 ;
b1 =
b001111101 ?
b000001 C
b0 G
b00000001 J
b11000001 K
b11000000 4
b000000 9
b11111101 @
b00111101 A
b111101 B
b01000001 L
b01 M
b000001 Q
b0 S
#4351
#4400
b0 !
