crates/rhdl-fpga/vcd/gearbox/single.vcd
$timescale 1 ps $end
$comment
    TraceInfo({"top.clock":Clock,"top.filler._marker.constant.value":Bits(16),"top.filler.input":Struct((name:"rhdl_fpga::fifo::testing::filler::In",fields:[(name:"full",ty:Bits(1))])),"top.filler.outputs":Struct((name:"rhdl_fpga::fifo::testing::filler::Out<rhdl::rhdl_typenum::consts::U16>",fields:[(name:"data",ty:Enum((name:"Option::<rhdl::rhdl_bits::bits_impl::Bits<rhdl::rhdl_typenum::consts::U16>>",variants:[(name:"None",discriminant:0,ty:Empty),(name:"Some",discriminant:1,ty:Tuple((elements:[Bits(16)])))],discriminant_layout:(width:1,alignment:Msb,ty:Unsigned))))])),"top.filler.rng.input":Bits(1),"top.filler.rng.outputs":Bits(32),"top.filler.rng.w.dff.input":Bits(32),"top.filler.rng.w.dff.output":Bits(32),"top.filler.rng.x.dff.input":Bits(32),"top.filler.rng.x.dff.output":Bits(32),"top.filler.rng.y.dff.input":Bits(32),"top.filler.rng.y.dff.output":Bits(32),"top.filler.rng.z.dff.input":Bits(32),"top.filler.rng.z.dff.output":Bits(32),"top.filler.sleep_counter.dff.input":Bits(4),"top.filler.sleep_counter.dff.output":Bits(4),"top.filler.sleep_len.constant.value":Bits(4),"top.filler.write_probability.constant.value":Bits(16),"top.input":Empty,"top.outputs":Enum((name:"Option::<rhdl::rhdl_bits::bits_impl::Bits<rhdl::rhdl_typenum::consts::U8>>",variants:[(name:"None",discriminant:0,ty:Empty),(name:"Some",discriminant:1,ty:Tuple((elements:[Bits(8)])))],discriminant_layout:(width:1,alignment:Msb,ty:Unsigned))),"top.reducer.data_store.dff.input":Bits(16),"top.reducer.data_store.dff.output":Bits(16),"top.reducer.input":Struct((name:"rhdl_fpga::gearbox::reducer::I<rhdl::rhdl_typenum::consts::U16>",fields:[(name:"data",ty:Enum((name:"Option::<rhdl::rhdl_bits::bits_impl::Bits<rhdl::rhdl_typenum::consts::U16>>",variants:[(name:"None",discriminant:0,ty:Empty),(name:"Some",discriminant:1,ty:Tuple((elements:[Bits(16)])))],discriminant_layout:(width:1,alignment:Msb,ty:Unsigned)))),(name:"ready",ty:Bits(1))])),"top.reducer.outputs":Struct((name:"rhdl_fpga::gearbox::reducer::O<rhdl::rhdl_typenum::consts::U8>",fields:[(name:"data",ty:Enum((name:"Option::<rhdl::rhdl_bits::bits_impl::Bits<rhdl::rhdl_typenum::consts::U8>>",variants:[(name:"None",discriminant:0,ty:Empty),(name:"Some",discriminant:1,ty:Tuple((elements:[Bits(8)])))],discriminant_layout:(width:1,alignment:Msb,ty:Unsigned)))),(name:"ready",ty:Bits(1))])),"top.reducer.state.dff.input":Enum((name:"rhdl_fpga::gearbox::reducer::State",variants:[(name:"Empty",discriminant:0,ty:Empty),(name:"Load1",discriminant:1,ty:Empty),(name:"Load2",discriminant:2,ty:Empty)],discriminant_layout:(width:2,alignment:Msb,ty:Unsigned))),"top.reducer.state.dff.output":Enum((name:"rhdl_fpga::gearbox::reducer::State",variants:[(name:"Empty",discriminant:0,ty:Empty),(name:"Load1",discriminant:1,ty:Empty),(name:"Load2",discriminant:2,ty:Empty)],discriminant_layout:(width:2,alignment:Msb,ty:Unsigned))),"top.reset":Reset,"top.sender.input":Struct((name:"rhdl_fpga::lid::fifo_to_rv::In<rhdl::rhdl_bits::bits_impl::Bits<rhdl::rhdl_typenum::consts::U16>>",fields:[(name:"data",ty:Enum((name:"Option::<rhdl::rhdl_bits::bits_impl::Bits<rhdl::rhdl_typenum::consts::U16>>",variants:[(name:"None",discriminant:0,ty:Empty),(name:"Some",discriminant:1,ty:Tuple((elements:[Bits(16)])))],discriminant_layout:(width:1,alignment:Msb,ty:Unsigned)))),(name:"ready",ty:Bits(1))])),"top.sender.one_slot.dff.input":Bits(16),"top.sender.one_slot.dff.output":Bits(16),"top.sender.outputs":Struct((name:"rhdl_fpga::lid::fifo_to_rv::Out<rhdl::rhdl_bits::bits_impl::Bits<rhdl::rhdl_typenum::consts::U16>>",fields:[(name:"data",ty:Enum((name:"Option::<rhdl::rhdl_bits::bits_impl::Bits<rhdl::rhdl_typenum::consts::U16>>",variants:[(name:"None",discriminant:0,ty:Empty),(name:"Some",discriminant:1,ty:Tuple((elements:[Bits(16)])))],discriminant_layout:(width:1,alignment:Msb,ty:Unsigned)))),(name:"full",ty:Bits(1)),(name:"error",ty:Bits(1))])),"top.sender.read_slot.dff.input":Bits(1),"top.sender.read_slot.dff.output":Bits(1),"top.sender.state.dff.input":Enum((name:"rhdl_fpga::lid::fifo_to_rv::State",variants:[(name:"Empty",discriminant:0,ty:Empty),(name:"OneLoaded",discriminant:1,ty:Empty),(name:"TwoLoaded",discriminant:2,ty:Empty),(name:"Error",discriminant:3,ty:Empty)],discriminant_layout:(width:2,alignment:Msb,ty:Unsigned))),"top.sender.state.dff.output":Enum((name:"rhdl_fpga::lid::fifo_to_rv::State",variants:[(name:"Empty",discriminant:0,ty:Empty),(name:"OneLoaded",discriminant:1,ty:Empty),(name:"TwoLoaded",discriminant:2,ty:Empty),(name:"Error",discriminant:3,ty:Empty)],discriminant_layout:(width:2,alignment:Msb,ty:Unsigned))),"top.sender.write_slot.dff.input":Bits(1),"top.sender.write_slot.dff.output":Bits(1),"top.sender.zero_slot.dff.input":Bits(16),"top.sender.zero_slot.dff.output":Bits(16)})
$end
$scope module top $end
$var wire 1 ! clock $end
$var wire 1 " input $end
$var wire 9 # outputs $end
$var wire 1 $ reset $end
$scope module filler $end
$var wire 1 % input $end
$var wire 17 & outputs $end
$scope module _marker $end
$scope module constant $end
$var wire 16 ' value $end
$upscope $end
$upscope $end
$scope module rng $end
$var wire 1 ( input $end
$var wire 32 ) outputs $end
$scope module w $end
$scope module dff $end
$var wire 32 * input $end
$var wire 32 + output $end
$upscope $end
$upscope $end
$scope module x $end
$scope module dff $end
$var wire 32 , input $end
$var wire 32 - output $end
$upscope $end
$upscope $end
$scope module y $end
$scope module dff $end
$var wire 32 . input $end
$var wire 32 / output $end
$upscope $end
$upscope $end
$scope module z $end
$scope module dff $end
$var wire 32 0 input $end
$var wire 32 1 output $end
$upscope $end
$upscope $end
$upscope $end
$scope module sleep_counter $end
$scope module dff $end
$var wire 4 2 input $end
$var wire 4 3 output $end
$upscope $end
$upscope $end
$scope module sleep_len $end
$scope module constant $end
$var wire 4 4 value $end
$upscope $end
$upscope $end
$scope module write_probability $end
$scope module constant $end
$var wire 16 5 value $end
$upscope $end
$upscope $end
$upscope $end
$scope module reducer $end
$var wire 18 6 input $end
$var wire 10 7 outputs $end
$scope module data_store $end
$scope module dff $end
$var wire 16 8 input $end
$var wire 16 9 output $end
$upscope $end
$upscope $end
$scope module state $end
$scope module dff $end
$var wire 2 : input $end
$var wire 2 ; output $end
$upscope $end
$upscope $end
$upscope $end
$scope module sender $end
$var wire 18 < input $end
$var wire 19 = outputs $end
$scope module one_slot $end
$scope module dff $end
$var wire 16 > input $end
$var wire 16 ? output $end
$upscope $end
$upscope $end
$scope module read_slot $end
$scope module dff $end
$var wire 1 @ input $end
$var wire 1 A output $end
$upscope $end
$upscope $end
$scope module state $end
$scope module dff $end
$var wire 2 B input $end
$var wire 2 C output $end
$upscope $end
$upscope $end
$scope module write_slot $end
$scope module dff $end
$var wire 1 D input $end
$var wire 1 E output $end
$upscope $end
$upscope $end
$scope module zero_slot $end
$scope module dff $end
$var wire 16 F input $end
$var wire 16 G output $end
$upscope $end
$upscope $end
$upscope $end
$upscope $end
$enddefinitions $end
#0
b0 !
b000000000 #
b1 $
b0 %
b00000000000000000 &
b0000000000000000 '
b1 (
b00000000000000000000000000000000 )
b00000000000000000000000000000000 *
b00000000000000000000000000000000 +
b00000000000000000000000000000000 ,
b00000000000000000000000000000000 -
b00000000000000000000000000000000 .
b00000000000000000000000000000000 /
b00000000000000000000000000000000 0
b00000000000000000000000000000000 1
b0000 2
b0000 3
b0100 4
b0111111111111111 5
b100000000000000000 6
b1000000000 7
b0000000000000000 8
b0000000000000000 9
b00 :
b00 ;
b000000000000000000 <
b0000000000000000000 =
b0000000000000000 >
b0000000000000000 ?
b0 @
b0 A
b00 B
b00 C
b0 D
b0 E
b0000000000000000 F
b0000000000000000 G
b100000000000000000 <
#50
b1 !
b10101011001110100011110001100010 )
b00101111101000110010010110001010 *
b10000100001100100011001101010010 +
b01000010001110110110001000100101 ,
b01100010010110010010110001100010 -
b00111010011000010011100101100110 .
b01000010001110110110001000100101 /
b10000100001100100011001101010010 0
b00111010011000010011100101100110 1
b0100 2
#51
b0 $
b10011110001100010 &
b110011110001100010 <
b01 B
b1 D
b0011110001100010 F
#100
b0 !
#150
b1 !
b00000000000000000 &
b0 (
b10011001001010100100101000100101 )
b10110110000100000100000000010001 *
b00101111101000110010010110001010 +
b00111010011000010011100101100110 ,
b01000010001110110110001000100101 -
b10000100001100100011001101010010 .
b00111010011000010011100101100110 /
b00101111101000110010010110001010 0
b10000100001100100011001101010010 1
b0011 2
b0100 3
b110011110001100010 6
b0011110001100010 8
b10 :
b100000000000000000 <
b0010011110001100010 =
b0011110001100010 >
b1 @
b00 B
b01 C
b0 D
b1 E
b0011110001100010 G
b00101111101000110010010110001010 *
b01000010001110110110001000100101 ,
b00111010011000010011100101100110 .
b10000100001100100011001101010010 0
b0000000000000000 >
b1 D
#200
b0 !
#250
b1 !
b101100010 #
b0010 2
b0011 3
b100000000000000000 6
b0101100010 7
b0011110001100010 9
b01 :
b10 ;
b000000000000000000 <
b0000000000000000000 =
b1 A
b00 C
#300
b0 !
#350
b1 !
b100111100 #
b0001 2
b0010 3
b1100111100 7
b00 :
b01 ;
b100000000000000000 <
#400
b0 !
#450
b1 !
b000000000 #
b0000 2
b0001 3
b1000000000 7
b00 ;
#500
b0 !
#550
b1 !
b10100101000100101 &
b1 (
b10110110000100000100000000010001 *
b00111010011000010011100101100110 ,
b10000100001100100011001101010010 .
b00101111101000110010010110001010 0
b0100 2
b0000 3
b110100101000100101 <
b0100101000100101 >
b01 B
b0 D
#600
b0 !
#650
b1 !
b00000000000000000 &
b0 (
b00110011101010100000100101100110 )
b10000101100010011111010110111100 *
b10110110000100000100000000010001 +
b10000100001100100011001101010010 ,
b00111010011000010011100101100110 -
b00101111101000110010010110001010 .
b10000100001100100011001101010010 /
b10110110000100000100000000010001 0
b00101111101000110010010110001010 1
b0011 2
b0100 3
b110100101000100101 6
b0100101000100101 8
b10 :
b100000000000000000 <
b0010100101000100101 =
b0100101000100101 ?
b0 @
b00 B
b01 C
b1 D
b0 E
b0100101000100101 F
b10110110000100000100000000010001 *
b00111010011000010011100101100110 ,
b10000100001100100011001101010010 .
b00101111101000110010010110001010 0
b0 D
b0011110001100010 F
#700
b0 !
#750
b1 !
b100100101 #
b0010 2
b0011 3
b100000000000000000 6
b0100100101 7
b0100101000100101 9
b01 :
b10 ;
b000000000000000000 <
b0000000000000000000 =
b0 A
b00 C
#800
b0 !
#850
b1 !
b101001010 #
b0001 2
b0010 3
b1101001010 7
b00 :
b01 ;
b100000000000000000 <
#900
b0 !
#950
b1 !
b000000000 #
b0000 2
b0001 3
b1000000000 7
b00 ;
#1000
b0 !
#1050
b1 !
b10000100101100110 &
b1 (
b10000101100010011111010110111100 *
b10000100001100100011001101010010 ,
b00101111101000110010010110001010 .
b10110110000100000100000000010001 0
b0000 3
b110000100101100110 <
b01 B
b1 D
b0000100101100110 F
#1100
b0 !
#1150
b1 !
b11010001101010010 &
b00010101101010001010001101010010 )
b10010000001101001110111011111100 *
b10000101100010011111010110111100 +
b00101111101000110010010110001010 ,
b10000100001100100011001101010010 -
b10110110000100000100000000010001 .
b00101111101000110010010110001010 /
b10000101100010011111010110111100 0
b10110110000100000100000000010001 1
b110000100101100110 6
b0000100101100110 8
b10 :
b111010001101010010 <
b0010000100101100110 =
b0000100101100110 >
b1 @
b01 C
b0 D
b1 E
b0000100101100110 G
b1010001101010010 >
#1200
b0 !
#1250
b1 !
b101100110 #
b10111010110001010 &
b00110110100011110111010110001010 )
b10100110100011010000011000000101 *
b10010000001101001110111011111100 +
b10110110000100000100000000010001 ,
b00101111101000110010010110001010 -
b10000101100010011111010110111100 .
b10110110000100000100000000010001 /
b10010000001101001110111011111100 0
b10000101100010011111010110111100 1
b111010001101010010 6
b0101100110 7
b0000100101100110 9
b01 :
b10 ;
b010111010110001010 <
b0011010001101010010 =
b1010001101010010 ?
b0 @
b1 A
b10 B
b1 D
b0 E
b1010001101010010 F
b1 @
b0111010110001010 F
#1300
b0 !
#1350
b1 !
b100001001 #
b1 %
b11100100000010001 &
b0 (
b00110100000100001100100000010001 )
b10010010101010011100101000001101 *
b10100110100011010000011000000101 +
b10000101100010011111010110111100 ,
b10110110000100000100000000010001 -
b10010000001101001110111011111100 .
b10000101100010011111010110111100 /
b10100110100011010000011000000101 0
b10010000001101001110111011111100 1
b1100001001 7
b1010001101010010 8
b10 :
b01 ;
b111100100000010001 <
b0111010001101010010 =
b0111010110001010 >
b0 @
b11 B
b10 C
b0 D
b1 E
b0111010110001010 G
b00000000000000000 &
b10100110100011010000011000000101 *
b10110110000100000100000000010001 ,
b10000101100010011111010110111100 .
b10010000001101001110111011111100 0
b100000000000000000 <
b1100100000010001 >
b01 B
b1 D
b1010001101010010 >
#1400
b0 !
#1450
b1 !
b101010010 #
b0 %
b11100100000010001 &
b1 (
b10010010101010011100101000001101 *
b10000101100010011111010110111100 ,
b10010000001101001110111011111100 .
b10100110100011010000011000000101 0
b110111010110001010 6
b0101010010 7
b1010001101010010 9
b01 :
b10 ;
b000000000000000000 <
b0010111010110001010 =
b1100100000010001 >
b1 @
b0 A
b00 B
b01 C
b0 D
b011100100000010001 <
b0 @
b01 B
b10 B
#1500
b0 !
#1550
b1 !
b110100011 #
b1 %
b10001010110111100 &
b0 (
b11001010001001000001010110111100 )
b01011000010001111110100111110001 *
b10010010101010011100101000001101 +
b10010000001101001110111011111100 ,
b10000101100010011111010110111100 -
b10100110100011010000011000000101 .
b10010000001101001110111011111100 /
b10010010101010011100101000001101 0
b10100110100011010000011000000101 1
b0100 2
b1110100011 7
b0111010110001010 8
b10 :
b01 ;
b110001010110111100 <
b0110111010110001010 =
b1100100000010001 ?
b1 @
b11 B
b10 C
b1 D
b0 E
b1100100000010001 F
b00000000000000000 &
b10010010101010011100101000001101 *
b10000101100010011111010110111100 ,
b10010000001101001110111011111100 .
b10100110100011010000011000000101 0
b0000 2
b100000000000000000 <
b01 B
b0 D
b0001010110111100 F
b0111010110001010 F
#1600
b0 !
#1650
b1 !
b110001010 #
b0 %
b10001010110111100 &
b1 (
b01011000010001111110100111110001 *
b10010000001101001110111011111100 ,
b10100110100011010000011000000101 .
b10010010101010011100101000001101 0
b0100 2
b111100100000010001 6
b0110001010 7
b0111010110001010 9
b01 :
b10 ;
b000000000000000000 <
b0011100100000010001 =
b0 @
b1 A
b00 B
b01 C
b1 D
b0001010110111100 F
b010001010110111100 <
b1 @
b01 B
b10 B
#1700
b0 !
#1750
b1 !
b101110101 #
b1 %
b00000000000000000 &
b0 (
b00110111010000110000111011111100 )
b01101111001100111010111100001011 *
b01011000010001111110100111110001 +
b10100110100011010000011000000101 ,
b10010000001101001110111011111100 -
b10010010101010011100101000001101 .
b10100110100011010000011000000101 /
b01011000010001111110100111110001 0
b10010010101010011100101000001101 1
b0011 2
b0100 3
b1101110101 7
b1100100000010001 8
b10 :
b01 ;
b100000000000000000 <
b0111100100000010001 =
b0001010110111100 >
b0 @
b11 B
b10 C
b0 D
b1 E
b0001010110111100 G
b01011000010001111110100111110001 *
b10010000001101001110111011111100 ,
b10100110100011010000011000000101 .
b10010010101010011100101000001101 0
b1100100000010001 >
b01 B
b1 D
#1800
b0 !
#1850
b1 !
b100010001 #
b0 %
b0010 2
b0011 3
b110001010110111100 6
b0100010001 7
b1100100000010001 9
b01 :
b10 ;
b000000000000000000 <
b0010001010110111100 =
b1 @
b0 A
b00 B
b01 C
b0 @
b01 B
#1900
b0 !
#1950
b1 !
b111001000 #
b0001 2
b0010 3
b1111001000 7
b0001010110111100 8
b10 :
b01 ;
b100000000000000000 <
b1 @
b00 B
#2000
b0 !
#2050
b1 !
b110111100 #
b0000 2
b0001 3
b100000000000000000 6
b0110111100 7
b0001010110111100 9
b01 :
b10 ;
b000000000000000000 <
b0000000000000000000 =
b1 A
b00 C
#2100
b0 !
#2150
b1 !
b100010101 #
b10000111011111100 &
b1 (
b01101111001100111010111100001011 *
b10100110100011010000011000000101 ,
b10010010101010011100101000001101 .
b01011000010001111110100111110001 0
b0000 3
b1100010101 7
b00 :
b01 ;
b110000111011111100 <
b0000111011111100 >
b01 B
b0 D
#2200
b0 !
#2250
b1 !
b000000000 #
b10010111000000101 &
b11001110101111010010111000000101 )
b10100001010000000011000111000110 *
b01101111001100111010111100001011 +
b10010010101010011100101000001101 ,
b10100110100011010000011000000101 -
b01011000010001111110100111110001 .
b10010010101010011100101000001101 /
b01101111001100111010111100001011 0
b01011000010001111110100111110001 1
b0100 2
b110000111011111100 6
b1000000000 7
b0000111011111100 8
b10 :
b00 ;
b110010111000000101 <
b0010000111011111100 =
b0000111011111100 ?
b0 @
b01 C
b1 D
b0 E
b0000111011111100 F
b0010111000000101 F
#2300
b0 !
#2350
b1 !
b111111100 #
b00000000000000000 &
b0 (
b11011100111110011010001000001101 )
b01111101011001010111111001000001 *
b10100001010000000011000111000110 +
b01011000010001111110100111110001 ,
b10010010101010011100101000001101 -
b01101111001100111010111100001011 .
b01011000010001111110100111110001 /
b10100001010000000011000111000110 0
b01101111001100111010111100001011 1
b0011 2
b0100 3
b110010111000000101 6
b0111111100 7
b0000111011111100 9
b01 :
b10 ;
b000000000000000000 <
b0010010111000000101 =
b0010111000000101 >
b1 @
b0 A
b0 D
b1 E
b0010111000000101 G
b10100001010000000011000111000110 *
b10010010101010011100101000001101 ,
b01011000010001111110100111110001 .
b01101111001100111010111100001011 0
b0000111011111100 >
b0 @
b1 D
#2400
b0 !
#2450
b1 !
b100001110 #
b0010 2
b0011 3
b1100001110 7
b0010111000000101 8
b10 :
b01 ;
b100000000000000000 <
b1 @
b00 B
#2500
b0 !
#2550
b1 !
b100000101 #
b0001 2
b0010 3
b100000000000000000 6
b0100000101 7
b0010111000000101 9
b01 :
b10 ;
b000000000000000000 <
b0000000000000000000 =
b1 A
b00 C
#2600
b0 !
#2650
b1 !
b100101110 #
b0000 2
b0001 3
b1100101110 7
b00 :
b01 ;
b100000000000000000 <
#2700
b0 !
#2750
b1 !
b000000000 #
b11010001000001101 &
b1 (
b01111101011001010111111001000001 *
b01011000010001111110100111110001 ,
b01101111001100111010111100001011 .
b10100001010000000011000111000110 0
b0100 2
b0000 3
b1000000000 7
b00 ;
b111010001000001101 <
b1010001000001101 >
b01 B
b0 D
#2800
b0 !
#2850
b1 !
b00000000000000000 &
b0 (
b01100111000010000110000111110001 )
b00011010000010100001100001111101 *
b01111101011001010111111001000001 +
b01101111001100111010111100001011 ,
b01011000010001111110100111110001 -
b10100001010000000011000111000110 .
b01101111001100111010111100001011 /
b01111101011001010111111001000001 0
b10100001010000000011000111000110 1
b0011 2
b0100 3
b111010001000001101 6
b1010001000001101 8
b10 :
b100000000000000000 <
b0011010001000001101 =
b1010001000001101 ?
b0 @
b00 B
b01 C
b1 D
b0 E
b1010001000001101 F
b01111101011001010111111001000001 *
b01011000010001111110100111110001 ,
b01101111001100111010111100001011 .
b10100001010000000011000111000110 0
b0 D
b0010111000000101 F
#2900
b0 !
#2950
b1 !
b100001101 #
b0010 2
b0011 3
b100000000000000000 6
b0100001101 7
b1010001000001101 9
b01 :
b10 ;
b000000000000000000 <
b0000000000000000000 =
b0 A
b00 C
#3000
b0 !
#3050
b1 !
b110100010 #
b0001 2
b0010 3
b1110100010 7
b00 :
b01 ;
b100000000000000000 <
#3100
b0 !
#3150
b1 !
b000000000 #
b0000 2
b0001 3
b1000000000 7
b00 ;
#3200
b0 !
#3250
b1 !
b10110000111110001 &
b1 (
b00011010000010100001100001111101 *
b01101111001100111010111100001011 ,
b10100001010000000011000111000110 .
b01111101011001010111111001000001 0
b0000 3
b110110000111110001 <
b01 B
b1 D
b0110000111110001 F
#3300
b0 !
#3350
b1 !
b11111011100001011 &
b11110010010010111111011100001011 )
b11101000101100111010011111000000 *
b00011010000010100001100001111101 +
b10100001010000000011000111000110 ,
b01101111001100111010111100001011 -
b01111101011001010111111001000001 .
b10100001010000000011000111000110 /
b00011010000010100001100001111101 0
b01111101011001010111111001000001 1
b0100 2
b110110000111110001 6
b0110000111110001 8
b10 :
b111111011100001011 <
b0010110000111110001 =
b0110000111110001 >
b1 @
b01 C
b0 D
b1 E
b0110000111110001 G
b1111011100001011 >
#3400
b0 !
#3450
b1 !
b111110001 #
b00000000000000000 &
b0 (
b10100000110011100000000111000110 )
b01001000110111010111010100010001 *
b11101000101100111010011111000000 +
b01111101011001010111111001000001 ,
b10100001010000000011000111000110 -
b00011010000010100001100001111101 .
b01111101011001010111111001000001 /
b11101000101100111010011111000000 0
b00011010000010100001100001111101 1
b0011 2
b0100 3
b111111011100001011 6
b0111110001 7
b0110000111110001 9
b01 :
b10 ;
b000000000000000000 <
b0011111011100001011 =
b1111011100001011 ?
b0 @
b1 A
b1 D
b0 E
b1111011100001011 F
b11101000101100111010011111000000 *
b10100001010000000011000111000110 ,
b01111101011001010111111001000001 .
b00011010000010100001100001111101 0
b1 @
b0 D
b0110000111110001 F
#3500
b0 !
#3550
b1 !
b101100001 #
b0010 2
b0011 3
b1101100001 7
b1111011100001011 8
b10 :
b01 ;
b100000000000000000 <
b0 @
b00 B
#3600
b0 !
#3650
b1 !
b100001011 #
b0001 2
b0010 3
b100000000000000000 6
b0100001011 7
b1111011100001011 9
b01 :
b10 ;
b000000000000000000 <
b0000000000000000000 =
b0 A
b00 C
#3700
b0 !
#3750
b1 !
b111110111 #
b0000 2
b0001 3
b1111110111 7
b00 :
b01 ;
b100000000000000000 <
#3800
b0 !
#3850
b1 !
b000000000 #
b10000000111000110 &
b1 (
b01001000110111010111010100010001 *
b01111101011001010111111001000001 ,
b00011010000010100001100001111101 .
b11101000101100111010011111000000 0
b0100 2
b0000 3
b1000000000 7
b00 ;
b110000000111000110 <
b01 B
b1 D
b0000000111000110 F
#3900
b0 !
#3950
b1 !
b00000000000000000 &
b0 (
b01010110100101110111011001000001 )
b00011110000111001001110100111101 *
b01001000110111010111010100010001 +
b00011010000010100001100001111101 ,
b01111101011001010111111001000001 -
b11101000101100111010011111000000 .
b00011010000010100001100001111101 /
b01001000110111010111010100010001 0
b11101000101100111010011111000000 1
b0011 2
b0100 3
b110000000111000110 6
b0000000111000110 8
b10 :
b100000000000000000 <
b0010000000111000110 =
b0000000111000110 >
b1 @
b00 B
b01 C
b0 D
b1 E
b0000000111000110 G
b01001000110111010111010100010001 *
b01111101011001010111111001000001 ,
b00011010000010100001100001111101 .
b11101000101100111010011111000000 0
b1111011100001011 >
b1 D
#4000
b0 !
#4050
b1 !
b111000110 #
b0010 2
b0011 3
b100000000000000000 6
b0111000110 7
b0000000111000110 9
b01 :
b10 ;
b000000000000000000 <
b0000000000000000000 =
b1 A
b00 C
#4100
b0 !
#4150
b1 !
b100000001 #
b0001 2
b0010 3
b1100000001 7
b00 :
b01 ;
b100000000000000000 <
#4200
b0 !
#4250
b1 !
b000000000 #
b0000 2
b0001 3
b1000000000 7
b00 ;
#4300
b0 !
#4350
b1 !
b10111011001000001 &
b1 (
b00011110000111001001110100111101 *
b00011010000010100001100001111101 ,
b11101000101100111010011111000000 .
b01001000110111010111010100010001 0
b0000 3
b110111011001000001 <
b0111011001000001 >
b01 B
b0 D
#4400
b0 !
#4450
b1 !
b11111000001111101 &
b01001010110010011111000001111101 )
b01010100100111111010011101110011 *
b00011110000111001001110100111101 +
b11101000101100111010011111000000 ,
b00011010000010100001100001111101 -
b01001000110111010111010100010001 .
b11101000101100111010011111000000 /
b00011110000111001001110100111101 0
b01001000110111010111010100010001 1
b110111011001000001 6
b0111011001000001 8
b10 :
b111111000001111101 <
b0010111011001000001 =
b0111011001000001 ?
b0 @
b01 C
b1 D
b0 E
b0111011001000001 F
b1111000001111101 F
#4500
b0 !
#4550
b1 !
b101000001 #
b11010011111000000 &
b01110101100011011010011111000000 )
b00100001011001111000011110000111 *
b01010100100111111010011101110011 +
b01001000110111010111010100010001 ,
b11101000101100111010011111000000 -
b00011110000111001001110100111101 .
b01001000110111010111010100010001 /
b01010100100111111010011101110011 0
b00011110000111001001110100111101 1
b111111000001111101 6
b0101000001 7
b0111011001000001 9
b01 :
b10 ;
b011010011111000000 <
b0011111000001111101 =
b1111000001111101 >
b1 @
b0 A
b10 B
b0 D
b1 E
b1111000001111101 G
b1010011111000000 >
b0 @
#4600
b0 !
#4650
b1 !
b101110110 #
b1 %
b11111110100010001 &
b0 (
b10100011011101011111110100010001 )
b10000010101100010000101101000111 *
b00100001011001111000011110000111 +
b00011110000111001001110100111101 ,
b01001000110111010111010100010001 -
b01010100100111111010011101110011 .
b00011110000111001001110100111101 /
b00100001011001111000011110000111 0
b01010100100111111010011101110011 1
b0100 2
b1101110110 7
b1111000001111101 8
b10 :
b01 ;
b111111110100010001 <
b0111111000001111101 =
b1010011111000000 ?
b1 @
b11 B
b10 C
b1 D
b0 E
b1010011111000000 F
b00000000000000000 &
b00100001011001111000011110000111 *
b01001000110111010111010100010001 ,
b00011110000111001001110100111101 .
b01010100100111111010011101110011 0
b0000 2
b100000000000000000 <
b01 B
b0 D
b1111110100010001 F
b1111000001111101 F
#4700
b0 !
#4750
b1 !
b101111101 #
b0 %
b11111110100010001 &
b1 (
b10000010101100010000101101000111 *
b00011110000111001001110100111101 ,
b01010100100111111010011101110011 .
b00100001011001111000011110000111 0
b0100 2
b111010011111000000 6
b0101111101 7
b1111000001111101 9
b01 :
b10 ;
b000000000000000000 <
b0011010011111000000 =
b0 @
b1 A
b00 B
b01 C
b1 D
b1111110100010001 F
b011111110100010001 <
b1 @
b01 B
b10 B
#4800
b0 !
#4850
b1 !
b111110000 #
b1 %
b00000000000000000 &
b0 (
b11111010111101010111010100111101 )
b01111000101111101001101101011001 *
b10000010101100010000101101000111 +
b01010100100111111010011101110011 ,
b00011110000111001001110100111101 -
b00100001011001111000011110000111 .
b01010100100111111010011101110011 /
b10000010101100010000101101000111 0
b00100001011001111000011110000111 1
b0011 2
b0100 3
b1111110000 7
b1010011111000000 8
b10 :
b01 ;
b100000000000000000 <
b0111010011111000000 =
b1111110100010001 >
b0 @
b11 B
b10 C
b0 D
b1 E
b1111110100010001 G
b10000010101100010000101101000111 *
b00011110000111001001110100111101 ,
b01010100100111111010011101110011 .
b00100001011001111000011110000111 0
b1010011111000000 >
b01 B
b1 D
#4900
b0 !
#4950
b1 !
b111000000 #
b0 %
b0010 2
b0011 3
b111111110100010001 6
b0111000000 7
b1010011111000000 9
b01 :
b10 ;
b000000000000000000 <
b0011111110100010001 =
b1 @
b0 A
b00 B
b01 C
b0 @
b01 B
#5000
b0 !
#5050
b1 !
b110100111 #
b0001 2
b0010 3
b1110100111 7
b1111110100010001 8
b10 :
b01 ;
b100000000000000000 <
b1 @
b00 B
#5100
b0 !
#5150
b1 !
b100010001 #
b0000 2
b0001 3
b100000000000000000 6
b0100010001 7
b1111110100010001 9
b01 :
b10 ;
b000000000000000000 <
b0000000000000000000 =
b1 A
b00 C
#5200
b0 !
#5250
b1 !
b111111101 #
b10111010100111101 &
b1 (
b01111000101111101001101101011001 *
b01010100100111111010011101110011 ,
b00100001011001111000011110000111 .
b10000010101100010000101101000111 0
b0100 2
b0000 3
b1111111101 7
b00 :
b01 ;
b110111010100111101 <
b0111010100111101 >
b01 B
b0 D
#5300
b0 !
#5350
b1 !
b000000000 #
b00000000000000000 &
b0 (
b10101001101001000011111101110011 )
b11010001101100110000111100000010 *
b01111000101111101001101101011001 +
b00100001011001111000011110000111 ,
b01010100100111111010011101110011 -
b10000010101100010000101101000111 .
b00100001011001111000011110000111 /
b01111000101111101001101101011001 0
b10000010101100010000101101000111 1
b0011 2
b0100 3
b110111010100111101 6
b1000000000 7
b0111010100111101 8
b10 :
b00 ;
b100000000000000000 <
b0010111010100111101 =
b0111010100111101 ?
b0 @
b00 B
b01 C
b1 D
b0 E
b0111010100111101 F
b01111000101111101001101101011001 *
b01010100100111111010011101110011 ,
b00100001011001111000011110000111 .
b10000010101100010000101101000111 0
b0 D
b1111110100010001 F
#5400
b0 !
#5450
b1 !
b100111101 #
b0010 2
b0011 3
b100000000000000000 6
b0100111101 7
b0111010100111101 9
b01 :
b10 ;
b000000000000000000 <
b0000000000000000000 =
b0 A
b00 C
#5500
b0 !
#5550
b1 !
b101110101 #
b0001 2
b0010 3
b1101110101 7
b00 :
b01 ;
b100000000000000000 <
#5600
b0 !
#5650
b1 !
b000000000 #
b0000 2
b0001 3
b1000000000 7
b00 ;
#5700
b0 !
#5750
b1 !
b10011111101110011 &
b1 (
b11010001101100110000111100000010 *
b00100001011001111000011110000111 ,
b10000010101100010000101101000111 .
b01111000101111101001101101011001 0
b0100 2
b0000 3
b110011111101110011 <
b01 B
b1 D
b0011111101110011 F
#5800
b0 !
