crates/rhdl-fpga/vcd/synchronizer/hdl.vcd
$date
	Sun Feb  1 09:00:29 2026
$end
$version
	Icarus Verilog
$end
$timescale
	1s
$end
$scope module testbench $end
$var wire 1 ! o $end
$var reg 3 " i [2:0] $end
$var reg 1 # rust_out $end
$scope module t $end
$var wire 3 $ i [2:0] $end
$var wire 1 ! o $end
$var wire 1 % reset $end
$var wire 1 & data $end
$var wire 1 ' clock $end
$var reg 1 ( reg1 $end
$var reg 1 ) reg2 $end
$upscope $end
$upscope $end
$enddefinitions $end
$comment Show the parameter values. $end
$dumpall
$end
#0
$dumpvars
x)
x(
0'
0&
1%
b100 $
0#
b100 "
x!
$end
#39
0!
0)
0(
1'
b110 "
b110 $
#40
0%
b10 "
b10 $
#51
1&
b11 "
b11 $
#78
0'
b1 "
b1 $
#117
1(
1'
b11 "
b11 $
#156
0'
b1 "
b1 $
#195
1!
1)
1'
1#
b11 "
b11 $
#234
0'
b1 "
b1 $
#273
1'
b11 "
b11 $
#312
0'
b1 "
b1 $
#351
0(
0&
1'
b10 "
b10 $
#390
0'
b0 "
b0 $
#429
0!
0)
1'
b10 "
b10 $
#451
1&
b11 "
b11 $
#468
0'
b1 "
b1 $
#507
1(
1'
0#
b11 "
b11 $
#546
0'
b1 "
b1 $
#585
1!
1)
1'
1#
b11 "
b11 $
#624
0'
b1 "
b1 $
#663
1'
b11 "
b11 $
#702
0'
b1 "
b1 $
#741
1'
b11 "
b11 $
#780
0'
b1 "
b1 $
#819
1'
b11 "
b11 $
#858
0'
b1 "
b1 $
#897
1'
b11 "
b11 $
#936
0'
b1 "
b1 $
#951
0&
b0 "
b0 $
#975
0(
1'
b10 "
b10 $
#1014
0'
b0 "
b0 $
#1051
1&
b1 "
b1 $
#1053
0!
0)
1(
1'
0#
b11 "
b11 $
#1092
0'
b1 "
b1 $
#1131
1!
1)
1'
1#
b11 "
b11 $
#1170
0'
b1 "
b1 $
#1209
1'
b11 "
b11 $
#1248
0'
b1 "
b1 $
#1251
0&
b0 "
b0 $
#1287
0(
1'
b10 "
b10 $
#1326
0'
b0 "
b0 $
#1351
1&
b1 "
b1 $
#1365
0!
0)
1(
1'
0#
b11 "
b11 $
#1404
0'
b1 "
b1 $
#1443
1!
1)
1'
1#
b11 "
b11 $
#1451
0&
b10 "
b10 $
#1482
0'
b0 "
b0 $
#1521
0(
1'
b10 "
b10 $
#1560
0'
b0 "
b0 $
#1599
0!
0)
1'
0#
b10 "
b10 $
#1638
0'
b0 "
b0 $
#1651
1&
b1 "
b1 $
#1677
1(
1'
b11 "
b11 $
#1716
0'
b1 "
b1 $
#1755
1!
1)
1'
1#
b11 "
b11 $
#1794
0'
b1 "
b1 $
#1833
1'
b11 "
b11 $
#1872
0'
b1 "
b1 $
#1911
1'
b11 "
b11 $
#1950
0'
b1 "
b1 $
#1951
0&
b0 "
b0 $
#1989
0(
1'
b10 "
b10 $
#2028
0'
b0 "
b0 $
#2051
1&
b1 "
b1 $
#2067
0!
0)
1(
1'
0#
b11 "
b11 $
#2106
0'
b1 "
b1 $
#2145
1!
1)
1'
1#
b11 "
b11 $
#2151
0&
b10 "
b10 $
#2184
0'
b0 "
b0 $
#2223
0(
1'
b10 "
b10 $
#2251
1&
b11 "
b11 $
#2262
0'
b1 "
b1 $
#2301
0!
0)
1(
1'
0#
b11 "
b11 $
#2340
0'
b1 "
b1 $
#2379
1!
1)
1'
1#
b11 "
b11 $
#2418
0'
b1 "
b1 $
#2457
1'
b11 "
b11 $
#2496
0'
b1 "
b1 $
#2535
1'
b11 "
b11 $
#2551
0&
b10 "
b10 $
#2574
0'
b0 "
b0 $
#2613
0(
1'
b10 "
b10 $
#2651
1&
b11 "
b11 $
#2652
0'
b1 "
b1 $
#2691
0!
0)
1(
1'
0#
b11 "
b11 $
#2730
0'
b1 "
b1 $
#2769
1!
1)
1'
1#
b11 "
b11 $
#2808
0'
b1 "
b1 $
#2847
1'
b11 "
b11 $
#2851
0&
b10 "
b10 $
#2886
0'
b0 "
b0 $
#2925
0(
1'
b10 "
b10 $
#2964
0'
b0 "
b0 $
#3003
0!
0)
1'
0#
b10 "
b10 $
#3042
0'
b0 "
b0 $
#3051
1&
b1 "
b1 $
#3081
1(
1'
b11 "
b11 $
#3120
0'
b1 "
b1 $
#3159
1!
1)
1'
1#
b11 "
b11 $
#3198
0'
b1 "
b1 $
#3237
1'
b11 "
b11 $
#3251
0&
b10 "
b10 $
#3276
0'
b0 "
b0 $
#3315
0(
1'
b10 "
b10 $
#3354
0'
b0 "
b0 $
#3393
0!
0)
1'
0#
b10 "
b10 $
#3432
0'
b0 "
b0 $
#3471
1'
b10 "
b10 $
#3510
0'
b0 "
b0 $
#3549
1'
b10 "
b10 $
#3551
1&
b11 "
b11 $
#3588
0'
b1 "
b1 $
#3627
1(
1'
b11 "
b11 $
#3651
0&
b10 "
b10 $
#3666
0'
b0 "
b0 $
#3705
1!
1)
0(
1'
1#
b10 "
b10 $
#3744
0'
b0 "
b0 $
#3783
0!
0)
1'
0#
b10 "
b10 $
#3822
0'
b0 "
b0 $
#3861
1'
b10 "
b10 $
#3900
0'
b0 "
b0 $
#3939
1'
b10 "
b10 $
#3978
0'
b0 "
b0 $
#4017
1'
b10 "
b10 $
#4056
0'
b0 "
b0 $
#4095
1'
b10 "
b10 $
#4134
0'
b0 "
b0 $
#4151
1&
b1 "
b1 $
#4173
1(
1'
b11 "
b11 $
#4212
0'
b1 "
b1 $
#4251
1!
1)
0(
0&
1'
1#
b10 "
b10 $
#4290
0'
b0 "
b0 $
#4329
0!
0)
1'
b10 "
b10 $
#4351
1&
b11 "
b11 $
#4368
0'
b1 "
b1 $
#4407
1(
1'
0#
b11 "
b11 $
#4446
0'
b1 "
b1 $
#4451
0&
b0 "
b0 $
#4485
1!
1)
0(
1'
1#
b10 "
b10 $
#4524
0'
b0 "
b0 $
#4563
0!
0)
1'
0#
b10 "
b10 $
#4602
0'
b0 "
b0 $
#4641
1'
b10 "
b10 $
#4651
1&
b11 "
b11 $
#4680
0'
b1 "
b1 $
#4719
1(
1'
b11 "
b11 $
#4751
0&
b10 "
b10 $
#4758
0'
b0 "
b0 $
#4797
1!
1)
0(
1'
1#
b10 "
b10 $
#4836
0'
b0 "
b0 $
#4851
1&
b1 "
b1 $
#4875
0!
0)
1(
1'
0#
b11 "
b11 $
#4914
0'
b1 "
b1 $
#4951
0&
b0 "
b0 $
#4953
1!
1)
0(
1'
1#
b10 "
b10 $
#4992
0'
b0 "
b0 $
#5031
0!
0)
1'
0#
b10 "
b10 $
#5051
1&
b11 "
b11 $
#5070
0'
b1 "
b1 $
#5109
1(
1'
b11 "
b11 $
#5148
0'
b1 "
b1 $
#5151
0&
b0 "
b0 $
#5187
1!
1)
0(
1'
1#
b10 "
b10 $
#5226
0'
b0 "
b0 $
#5265
0!
0)
1'
0#
b10 "
b10 $
#5304
0'
b0 "
b0 $
#5343
1'
b10 "
b10 $
#5351
1&
b11 "
b11 $
#5382
0'
b1 "
b1 $
#5421
1(
1'
b11 "
b11 $
#5451
0&
b10 "
b10 $
#5460
0'
b0 "
b0 $
#5499
1!
1)
0(
1'
1#
b10 "
b10 $
#5538
0'
b0 "
b0 $
#5551
1&
b1 "
b1 $
#5577
0!
0)
1(
1'
0#
b11 "
b11 $
#5616
0'
b1 "
b1 $
#5651
0&
b0 "
b0 $
#5655
1!
1)
0(
1'
1#
b10 "
b10 $
#5694
0'
b0 "
b0 $
#5733
0!
0)
1'
0#
b10 "
b10 $
#5772
0'
b0 "
b0 $
#5811
1'
b10 "
b10 $
#5850
0'
b0 "
b0 $
#5851
1&
b1 "
b1 $
#5889
1(
1'
b11 "
b11 $
#5928
0'
b1 "
b1 $
#5967
1!
1)
1'
1#
b11 "
b11 $
#6006
0'
b1 "
b1 $
#6045
1'
b11 "
b11 $
#6084
0'
b1 "
b1 $
#6123
1'
b11 "
b11 $
#6151
0&
b10 "
b10 $
#6162
0'
b0 "
b0 $
#6201
0(
1'
b10 "
b10 $
#6240
0'
b0 "
b0 $
#6279
0!
0)
1'
0#
b10 "
b10 $
#6318
0'
b0 "
b0 $
#6351
1&
b1 "
b1 $
#6357
1(
1'
b11 "
b11 $
#6396
0'
b1 "
b1 $
#6435
1!
1)
1'
1#
b11 "
b11 $
#6474
0'
b1 "
b1 $
#6513
1'
b11 "
b11 $
#6551
0&
b10 "
b10 $
#6552
0'
b0 "
b0 $
#6591
0(
1'
b10 "
b10 $
#6630
0'
b0 "
b0 $
#6669
0!
0)
1'
0#
b10 "
b10 $
#6708
0'
b0 "
b0 $
#6747
1'
b10 "
b10 $
#6786
0'
b0 "
b0 $
#6825
1'
b10 "
b10 $
#6851
1&
b11 "
b11 $
#6864
0'
b1 "
b1 $
#6903
1(
1'
b11 "
b11 $
#6942
0'
b1 "
b1 $
#6951
0&
b0 "
b0 $
#6981
1!
1)
0(
1'
1#
b10 "
b10 $
#7020
0'
b0 "
b0 $
#7059
0!
0)
1'
0#
b10 "
b10 $
#7098
0'
b0 "
b0 $
#7137
1'
b10 "
b10 $
#7151
1&
b11 "
b11 $
#7176
0'
b1 "
b1 $
#7215
1(
1'
b11 "
b11 $
#7251
0&
b10 "
b10 $
#7254
0'
b0 "
b0 $
#7293
1!
1)
0(
1'
1#
b10 "
b10 $
#7332
0'
b0 "
b0 $
#7371
0!
0)
1'
0#
b10 "
b10 $
#7410
0'
b0 "
b0 $
#7449
1'
b10 "
b10 $
#7451
1&
b11 "
b11 $
#7488
0'
b1 "
b1 $
#7527
1(
1'
b11 "
b11 $
#7566
0'
b1 "
b1 $
#7605
1!
1)
1'
1#
b11 "
b11 $
#7644
0'
b1 "
b1 $
#7651
0&
b0 "
b0 $
#7683
0(
1'
b10 "
b10 $
#7722
0'
b0 "
b0 $
#7751
1&
b1 "
b1 $
#7761
0!
0)
1(
1'
0#
b11 "
b11 $
#7800
0'
b1 "
b1 $
#7839
1!
1)
1'
1#
b11 "
b11 $
#7878
0'
b1 "
b1 $
#7917
1'
b11 "
b11 $
#7956
0'
b1 "
b1 $
#7995
1'
b11 "
b11 $
#8034
0'
b1 "
b1 $
#8073
1'
b11 "
b11 $
#8112
0'
b1 "
b1 $
#8151
0(
0&
1'
b10 "
b10 $
#8190
0'
b0 "
b0 $
#8229
0!
0)
1'
b10 "
b10 $
#8251
1&
b11 "
b11 $
#8268
0'
b1 "
b1 $
#8307
1(
1'
0#
b11 "
b11 $
#8346
0'
b1 "
b1 $
#8351
0&
b0 "
b0 $
#8385
1!
1)
0(
1'
1#
b10 "
b10 $
#8424
0'
b0 "
b0 $
#8463
0!
0)
1'
0#
b10 "
b10 $
#8502
0'
b0 "
b0 $
#8541
1'
b10 "
b10 $
#8551
1&
b11 "
b11 $
#8580
0'
b1 "
b1 $
#8619
1(
1'
b11 "
b11 $
#8651
0&
b10 "
b10 $
#8658
0'
b0 "
b0 $
#8697
1!
1)
0(
1'
1#
b10 "
b10 $
#8736
0'
b0 "
b0 $
#8751
1&
b1 "
b1 $
#8775
0!
0)
1(
1'
0#
b11 "
b11 $
#8814
0'
b1 "
b1 $
#8851
0&
b0 "
b0 $
#8853
1!
1)
0(
1'
1#
b10 "
b10 $
#8892
0'
b0 "
b0 $
#8931
0!
0)
1'
0#
b10 "
b10 $
#8951
1&
b11 "
b11 $
#8970
0'
b1 "
b1 $
#9009
1(
1'
b11 "
b11 $
#9048
0'
b1 "
b1 $
#9051
0&
b0 "
b0 $
#9087
1!
1)
0(
1'
1#
b10 "
b10 $
#9126
0'
b0 "
b0 $
#9151
1&
b1 "
b1 $
#9165
0!
0)
1(
1'
0#
b11 "
b11 $
#9204
0'
b1 "
b1 $
#9243
1!
1)
1'
1#
b11 "
b11 $
#9251
0&
b10 "
b10 $
#9282
0'
b0 "
b0 $
#9321
0(
1'
b10 "
b10 $
#9360
0'
b0 "
b0 $
#9399
0!
0)
1'
0#
b10 "
b10 $
#9438
0'
b0 "
b0 $
#9477
1'
b10 "
b10 $
#9516
0'
b0 "
b0 $
#9551
1&
b1 "
b1 $
#9555
1(
1'
b11 "
b11 $
#9594
0'
b1 "
b1 $
#9633
1!
1)
1'
1#
b11 "
b11 $
#9651
0&
b10 "
b10 $
#9672
0'
b0 "
b0 $
#9711
0(
1'
b10 "
b10 $
#9750
0'
b0 "
b0 $
#9751
1&
b1 "
b1 $
#9789
0!
0)
1(
1'
0#
b11 "
b11 $
#9828
0'
b1 "
b1 $
#9851
0&
b0 "
b0 $
#9867
1!
1)
0(
1'
1#
b10 "
b10 $
#9906
0'
b0 "
b0 $
#9945
0!
0)
1'
0#
b10 "
b10 $
#9984
0'
b0 "
b0 $
#10023
1'
b10 "
b10 $
#10062
0'
b0 "
b0 $
#10101
1'
b10 "
b10 $
#10140
0'
b0 "
b0 $
#10179
1'
b10 "
b10 $
