crates/rhdl-fpga/vcd/cross/rw_counter.vcd
$timescale 1 ps $end
$scope module top $end
$scope module counter $end
$scope module dff $end
$var wire 8 " input $end
$var wire 8 # output $end
$upscope $end
$upscope $end
$scope module syncs $end
$scope module array $end
$var wire 1 $ clock $end
$var wire 1 & input $end
$var wire 1 ' output $end
$var wire 1 % reset $end
$upscope $end
$upscope $end
$var wire 5 ! input $end
$var wire 8 ( outputs $end
$upscope $end
$enddefinitions $end
#51
b01010 !
b00000000 "
b00000000 #
b1 $
b0 %
b0 &
b0 '
b00000000 (
#151
#200
b01000 !
#300
#352
b01010 !
#451
b01011 !
b00000001 "
#508
b01001 !
#600
b00000010 "
b00000001 #
b1 &
b0 &
b1 &
b0 &
#700
b00000011 "
b00000010 #
b1 &
b1 '
b0 '
b0 &
b1 &
b1 '
b0 '
b0 &
b00000001 (
#751
b01011 !
b00000100 "
b00000011 #
b1 '
b1 &
b0 &
b0 '
b00000010 (
#851
b00000101 "
b00000100 #
b1 '
b1 &
b0 '
b0 &
#900
b01001 !
b1 &
b1 '
b0 '
b0 &
b1 &
b1 '
b0 '
b0 &
b00000011 (
#1000
b01000 !
b00000101 #
b1 &
b1 '
b0 &
b0 '
b1 &
b1 '
b0 &
b0 '
b00000100 (
#1054
b01011 !
b00000110 "
b1 &
b1 '
b0 &
b0 '
b00000101 (
#1151
b01010 !
b00000110 #
b1 &
b1 '
b0 &
b1 &
b0 &
b0 '
#1210
b01000 !
b1 &
b1 '
b0 &
b1 &
b0 &
b0 '
#1300
b01001 !
b00000111 "
b1 &
b1 '
b0 &
b0 '
b1 &
b1 '
b0 &
b0 '
b1 &
b1 '
b0 &
b0 '
b1 &
b1 '
b0 &
b0 '
b00000110 (
#1400
b00001000 "
b00000111 #
b1 '
b0 '
b1 &
b1 '
b0 &
b0 '
b1 '
b0 '
b1 &
b1 '
b0 &
b0 '
#1451
b01011 !
b00001001 "
b00001000 #
b1 &
b1 '
b0 '
b0 &
b00000111 (
#1551
b01010 !
b00001001 #
b1 &
b0 &
b1 &
b1 '
b0 '
b0 &
#1600
b01000 !
b1 &
b0 &
b1 &
b1 '
b0 &
b0 '
b1 &
b0 &
b1 &
b1 '
b0 &
b0 '
b00001000 (
#1700
b01001 !
b00001010 "
b1 &
b1 '
b0 &
b0 '
b1 &
b1 '
b0 &
b0 '
b1 &
b1 '
b0 &
b0 '
b1 &
b1 '
b0 &
b0 '
b00001001 (
#1756
b01011 !
b00001011 "
b00001010 #
b1 &
b1 '
b0 '
b1 '
b0 &
b0 '
#1851
b01010 !
b00001011 #
b1 '
b1 &
b0 &
b0 '
b00001010 (
#1912
b01000 !
b1 '
b1 &
b0 &
b0 '
#2000
b1 &
b1 '
b0 &
b0 '
b1 &
b1 '
b0 &
b0 '
b00001011 (
#2100
b01001 !
b00001100 "
b1 &
b1 '
b0 &
b0 '
b1 &
b1 '
b0 &
b0 '
#2151
b01011 !
b00001101 "
b00001100 #
b1 &
b1 '
b0 &
b1 &
b0 &
b0 '
#2251
b01010 !
b00001101 #
b1 &
b1 '
b0 &
b1 &
b0 &
b0 '
#2302
b01000 !
b1 &
b1 '
b0 &
b0 '
b1 &
b1 '
b0 &
b0 '
b00001100 (
#2400
b1 &
b1 '
b0 &
b0 '
b1 &
b1 '
b0 &
b0 '
b1 &
b1 '
b0 &
b0 '
b1 &
b1 '
b0 &
b0 '
b00001101 (
#2458
b01011 !
b00001110 "
b1 &
b1 '
b0 &
b0 '
b1 &
b1 '
b0 &
b0 '
#2551
b01010 !
b00001110 #
b1 &
b1 '
b0 &
b0 '
b1 &
b1 '
b0 &
b0 '
#2651
b01011 !
b00001111 "
b1 &
b1 '
b0 &
b0 '
b1 &
b1 '
b0 &
b0 '
#2700
b01001 !
b1 &
b1 '
b0 &
b0 '
b1 &
b1 '
b0 &
b0 '
b1 &
b1 '
b0 &
b0 '
b1 &
b1 '
b0 &
b0 '
b00001110 (
#2800
b01000 !
b00001111 #
b1 '
b0 '
b1 &
b1 '
b0 &
b0 '
b1 '
b0 '
b1 &
b1 '
b0 &
b0 '
#2851
b01011 !
b00010000 "
b1 &
b1 '
b0 &
b0 '
b00001111 (
#2951
b00010001 "
b00010000 #
b1 &
b1 '
b0 '
b0 &
#3004
b01001 !
b1 &
b1 '
b0 '
b0 &
#3100
b01000 !
b00010001 #
b1 &
b0 &
b1 &
b1 '
b0 &
b0 '
b1 &
b0 &
b1 &
b1 '
b0 &
b0 '
b00010000 (
#3160
b01010 !
b1 &
b1 '
b0 &
b0 '
b1 &
b1 '
b0 &
b0 '
b00010001 (
#3251
b1 &
b1 '
b0 &
b0 '
b1 &
b1 '
b0 &
b0 '
#3351
b01011 !
b00010010 "
b1 &
b1 '
b0 &
b0 '
b1 &
b1 '
b0 &
b0 '
#3400
b01001 !
b1 &
b1 '
b0 &
b0 '
b1 &
b1 '
b0 &
b0 '
b1 &
b1 '
b0 &
b0 '
b1 &
b1 '
b0 &
b0 '
#3500
b01000 !
b00010010 #
b1 &
b1 '
b0 '
b0 &
b1 &
b1 '
b0 &
b0 '
b1 &
b1 '
b0 '
b0 &
b1 &
b1 '
b0 &
b0 '
#3551
b01010 !
b1 &
b1 '
b0 &
b0 '
b1 &
b1 '
b0 &
b0 '
b00010010 (
#3651
b01011 !
b00010011 "
b1 &
b1 '
b0 &
b0 '
b1 &
b1 '
b0 &
b0 '
#3706
b01001 !
b1 &
b1 '
b0 &
b0 '
b1 &
b1 '
b0 &
b0 '
#3800
b00010100 "
b00010011 #
b1 '
b1 &
b0 &
b0 '
b1 &
b1 '
b0 &
b0 '
b1 '
b1 &
b0 &
b0 '
b1 &
b1 '
b0 &
b0 '
#3862
b01011 !
b00010101 "
b00010100 #
b1 &
b1 '
b0 '
b1 '
b0 &
b0 '
b00010011 (
#3951
b01010 !
b00010101 #
b1 &
b1 '
b0 &
b0 '
b00010100 (
#4051
b01011 !
b00010110 "
b1 &
b1 '
b0 &
b0 '
#4100
b01001 !
b1 &
b1 '
b0 &
b0 '
b1 &
b1 '
b0 &
b0 '
b00010101 (
#4200
b00010111 "
b00010110 #
b1 &
b1 '
b0 &
b1 &
b0 &
b0 '
b1 &
b1 '
b0 &
b1 &
b0 &
b0 '
#4252
b01010 !
b00010111 #
b1 '
b0 '
b1 &
b1 '
b0 &
b0 '
b00010110 (
#4351
b1 &
b1 '
b0 &
b0 '
b00010111 (
#4408
b01000 !
b1 &
b1 '
b0 &
b0 '
#4500
b1 &
b1 '
b0 &
b0 '
b1 &
b1 '
b0 &
b0 '
#4600
b01001 !
b00011000 "
b1 &
b1 '
b0 &
b0 '
b1 &
b1 '
b0 &
b0 '
#4651
b01010 !
b00011000 #
b1 &
b1 '
b0 &
b1 &
b0 &
b0 '
#4751
b1 &
b1 '
b0 &
b1 &
b0 &
b0 '
#4800
b01000 !
b1 &
b1 '
b0 &
b0 '
b1 &
b1 '
b0 &
b0 '
b1 &
b1 '
b0 &
b0 '
b1 &
b1 '
b0 &
b0 '
b00011000 (
#4900
b1 &
b1 '
b0 &
b0 '
b1 &
b1 '
b0 &
b0 '
b1 &
b1 '
b0 &
b0 '
b1 &
b1 '
b0 &
b0 '
#4954
b01011 !
b00011001 "
b1 &
b1 '
b0 &
b0 '
b1 &
b1 '
b0 &
b0 '
#5051
b01010 !
b00011001 #
b1 &
b0 &
b1 &
b1 '
b0 &
b0 '
b1 &
b1 '
b0 &
b0 '
#5110
b01000 !
b1 &
b0 &
b1 &
b1 '
b0 &
b0 '
b1 &
b1 '
b0 &
b0 '
#5200
b1 &
b1 '
b0 &
b0 '
b1 &
b1 '
b0 &
b0 '
b1 &
b1 '
b0 &
b0 '
b1 &
b1 '
b0 &
b0 '
b1 &
b1 '
b0 &
b0 '
b1 &
b1 '
b0 &
b0 '
b00011001 (
#5300
b1 &
b1 '
b0 &
b0 '
b1 &
b1 '
b0 &
b0 '
b1 &
b1 '
b0 &
b0 '
b1 &
b1 '
b0 &
b0 '
b1 &
b1 '
b0 &
b0 '
b1 &
b1 '
b0 &
b0 '
#5351
b01010 !
b1 &
b1 '
b0 &
b0 '
b1 &
b1 '
b0 &
b0 '
b1 &
b1 '
b0 &
b0 '
#5451
b1 &
b1 '
b0 &
b0 '
b1 &
b1 '
b0 &
b0 '
b1 &
b1 '
b0 &
b0 '
#5500
b01000 !
b1 &
b1 '
b0 &
b0 '
b1 &
b1 '
b0 &
b0 '
b1 &
b1 '
b0 &
b0 '
b1 &
b1 '
b0 &
b0 '
b1 &
b1 '
b0 &
b0 '
b1 &
b1 '
b0 &
b0 '
#5600
b1 &
b1 '
b0 &
b0 '
b1 &
b1 '
b0 &
b0 '
b1 &
b1 '
b0 &
b0 '
b1 &
b1 '
b0 &
b0 '
b1 &
b1 '
b0 &
b0 '
b1 &
b1 '
b0 &
b0 '
#5656
b01010 !
b1 &
b1 '
b0 &
b0 '
b1 &
b1 '
b0 &
b0 '
b1 &
b1 '
b0 &
b0 '
#5751
b1 &
b1 '
b0 &
b0 '
b1 &
b1 '
b0 &
b0 '
b1 &
b1 '
b0 &
b0 '
#5812
b01000 !
b1 &
b1 '
b0 &
b0 '
b1 &
b1 '
b0 &
b0 '
b1 &
b1 '
b0 &
b0 '
#5900
b1 &
b1 '
b0 &
b0 '
b1 &
b1 '
b0 &
b0 '
b1 &
b1 '
b0 &
b0 '
b1 &
b1 '
b0 &
b0 '
b1 &
b1 '
b0 &
b0 '
b1 &
b1 '
b0 &
b0 '
#6000
b1 &
b1 '
b0 &
b0 '
b1 &
b1 '
b0 &
b0 '
b1 &
b1 '
b0 &
b0 '
b1 &
b1 '
b0 &
b0 '
b1 &
b1 '
b0 &
b0 '
b1 &
b1 '
b0 &
b0 '
#6051
b01010 !
b1 &
b1 '
b0 &
b0 '
b1 &
b1 '
b0 &
b0 '
b1 &
b1 '
b0 &
b0 '
#6151
b1 &
b1 '
b0 &
b0 '
b1 &
b1 '
b0 &
b0 '
b1 &
b1 '
b0 &
b0 '
#6202
b01000 !
b1 &
b1 '
b0 &
b0 '
b1 &
b1 '
b0 &
b0 '
b1 &
b1 '
b0 &
b0 '
#6300
b01001 !
b00011010 "
b1 &
b1 '
b0 &
b0 '
b1 &
b1 '
b0 &
b0 '
b1 &
b1 '
b0 &
b0 '
b1 &
b1 '
b0 &
b0 '
b1 &
b1 '
b0 &
b0 '
b1 &
b1 '
b0 &
b0 '
#6358
b01010 !
b00011010 #
b1 &
b1 '
b0 '
b1 '
b0 &
b0 '
b1 &
b1 '
b0 &
b0 '
#6451
b1 &
b1 '
b0 &
b0 '
b1 &
b1 '
b0 &
b0 '
b00011010 (
#6551
b1 &
b1 '
b0 &
b0 '
b1 &
b1 '
b0 &
b0 '
#6600
b01000 !
b1 &
b1 '
b0 &
b0 '
b1 &
b1 '
b0 &
b0 '
b1 &
b1 '
b0 &
b0 '
b1 &
b1 '
b0 &
b0 '
#6700
b01001 !
b00011011 "
b1 &
b1 '
b0 &
b0 '
b1 &
b1 '
b0 &
b0 '
b1 &
b1 '
b0 &
b0 '
b1 &
b1 '
b0 &
b0 '
#6751
b01010 !
b00011011 #
b1 '
b1 &
b0 &
b0 '
b1 &
b1 '
b0 &
b0 '
#6851
b1 '
b1 &
b0 &
b0 '
b1 &
b1 '
b0 &
b0 '
#6904
b01000 !
b1 &
b1 '
b0 &
b0 '
b1 &
b1 '
b0 &
b0 '
b00011011 (
#7000
b1 &
b1 '
b0 &
b0 '
b1 &
b1 '
b0 &
b0 '
b1 &
b1 '
b0 &
b0 '
b1 &
b1 '
b0 &
b0 '
#7060
b01011 !
b00011100 "
b1 &
b1 '
b0 &
b0 '
b1 &
b1 '
b0 &
b0 '
#7151
b00011101 "
b00011100 #
b1 &
b1 '
b0 &
b0 '
b1 &
b1 '
b0 &
b0 '
#7251
b00011110 "
b00011101 #
b1 &
b1 '
b0 &
b0 '
b1 &
b1 '
b0 &
b0 '
#7300
b01001 !
b1 &
b1 '
b0 &
b0 '
b1 &
b1 '
b0 &
b0 '
b1 &
b1 '
b0 &
b0 '
b1 &
b1 '
b0 &
b0 '
b00011100 (
#7400
b01000 !
b00011110 #
b1 &
b1 '
b0 &
b0 '
b1 &
b1 '
b0 &
b0 '
b1 &
b1 '
b0 &
b0 '
b1 &
b1 '
b0 &
b0 '
b00011101 (
#7451
b01011 !
b00011111 "
b1 &
b1 '
b0 &
b0 '
b1 &
b1 '
b0 &
b0 '
b00011110 (
#7551
b00100000 "
b00011111 #
b1 '
b0 '
b1 &
b1 '
b0 &
b0 '
#7606
b01001 !
b1 '
b0 '
b1 &
b1 '
b0 &
b0 '
#7700
b01000 !
b00100000 #
b1 &
b1 '
b0 '
b0 &
b1 &
b1 '
b0 '
b0 &
b00011111 (
#7762
b01010 !
b1 &
b1 '
b0 &
b0 '
b00100000 (
#7851
b1 &
b1 '
b0 &
b0 '
#7951
b01011 !
b00100001 "
b1 &
b1 '
b0 &
b0 '
#8000
b01001 !
b1 &
b1 '
b0 &
b0 '
b1 &
b1 '
b0 &
b0 '
#8100
b01000 !
b00100001 #
b1 &
b0 &
b1 &
b1 '
b0 &
b0 '
b1 &
b0 &
b1 &
b1 '
b0 &
b0 '
#8152
b01011 !
b00100010 "
b1 &
b1 '
b0 &
b0 '
b1 &
b1 '
b0 &
b0 '
b00100001 (
#8251
b00100011 "
b00100010 #
b1 &
b1 '
b0 '
b0 &
b1 &
b1 '
b0 &
b0 '
#8308
b01001 !
b1 &
b1 '
b0 '
b0 &
b1 &
b1 '
b0 &
b0 '
#8400
b01000 !
b00100011 #
b1 '
b1 &
b0 &
b0 '
b1 &
b1 '
b0 &
b0 '
b1 '
b1 &
b0 &
b0 '
b1 &
b1 '
b0 &
b0 '
b00100010 (
#8500
b1 &
b1 '
b0 &
b0 '
b1 &
b1 '
b0 &
b0 '
b1 &
b1 '
b0 &
b0 '
b1 &
b1 '
b0 &
b0 '
b00100011 (
#8551
b01011 !
b00100100 "
b1 &
b1 '
b0 &
b0 '
b1 &
b1 '
b0 &
b0 '
#8651
b01010 !
b00100100 #
b1 &
b1 '
b0 '
b0 &
b1 &
b1 '
b0 &
b0 '
#8700
b01000 !
b1 &
b1 '
b0 '
b0 &
b1 &
b1 '
b0 &
b0 '
b1 &
b1 '
b0 '
b0 &
b1 &
b1 '
b0 &
b0 '
#8800
b1 &
b1 '
b0 &
b0 '
b1 &
b1 '
b0 &
b0 '
b1 &
b1 '
b0 &
b0 '
b1 &
b1 '
b0 &
b0 '
b00100100 (
#8854
b01010 !
b1 &
b1 '
b0 &
b0 '
b1 &
b1 '
b0 &
b0 '
#8951
b1 &
b1 '
b0 &
b0 '
b1 &
b1 '
b0 &
b0 '
#9010
b01000 !
b1 &
b1 '
b0 &
b0 '
b1 &
b1 '
b0 &
b0 '
#9100
b1 &
b1 '
b0 &
b0 '
b1 &
b1 '
b0 &
b0 '
b1 &
b1 '
b0 &
b0 '
b1 &
b1 '
b0 &
b0 '
#9200
b01001 !
b00100101 "
b1 &
b1 '
b0 &
b0 '
b1 &
b1 '
b0 &
b0 '
b1 &
b1 '
b0 &
b0 '
b1 &
b1 '
b0 &
b0 '
#9251
b01011 !
b00100110 "
b00100101 #
b1 &
b1 '
b0 &
b0 '
b1 &
b1 '
b0 &
b0 '
#9351
b00100111 "
b00100110 #
b1 &
b0 &
b1 '
b1 &
b0 &
b0 '
b1 &
b1 '
b0 &
b0 '
#9400
b01001 !
b1 &
b1 '
b0 &
b1 &
b0 &
b0 '
b1 &
b1 '
b0 &
b0 '
b1 &
b1 '
b0 &
b1 &
b0 &
b0 '
b1 &
b1 '
b0 &
b0 '
b00100101 (
#9500
b00101000 "
b00100111 #
b1 '
b0 '
b1 &
b1 '
b0 &
b0 '
b1 &
b1 '
b0 &
b0 '
b1 '
b0 '
b1 &
b1 '
b0 &
b0 '
b1 &
b1 '
b0 &
b0 '
b00100110 (
#9556
b01011 !
b00101001 "
b00101000 #
b1 &
b1 '
b0 '
b1 '
b0 &
b0 '
b00100111 (
#9651
b00101010 "
b00101001 #
b1 &
b0 &
b1 &
b1 '
b0 &
b0 '
b00101000 (
#9712
b01001 !
b1 &
b0 &
b1 &
b1 '
b0 &
b0 '
#9800
b01000 !
b00101010 #
b1 &
b1 '
b0 '
b1 '
b0 &
b0 '
b1 &
b1 '
b0 '
b1 '
b0 &
b0 '
b00101001 (
#9900
b1 &
b1 '
b0 &
b0 '
b1 &
b1 '
b0 &
b0 '
b00101010 (
#9951
b01010 !
b1 &
b1 '
b0 &
b0 '
#10051
b1 &
b1 '
b0 &
b0 '
#10102
b01000 !
b1 &
b1 '
b0 &
b0 '
