crates/rhdl-fpga/vcd/cross/split_counter.vcd
$date
	Sun Feb  1 09:00:30 2026
$end
$version
	Icarus Verilog
$end
$timescale
	1s
$end
$scope module testbench $end
$var wire 8 ! o [7:0] $end
$var reg 5 " i [4:0] $end
$var reg 8 # rust_out [7:0] $end
$scope module t $end
$var wire 5 $ i [4:0] $end
$var wire 16 % q [15:0] $end
$var wire 42 & od [41:0] $end
$var wire 8 ' o [7:0] $end
$var wire 34 ( d [33:0] $end
$scope function kernel_cross_counter_kernel $end
$var parameter 34 ) l0 $end
$var parameter 8 * l1 $end
$var parameter 8 + l10 $end
$var parameter 8 , l11 $end
$var parameter 8 - l12 $end
$var parameter 8 . l13 $end
$var parameter 8 / l14 $end
$var parameter 8 0 l15 $end
$var parameter 8 1 l16 $end
$var parameter 8 2 l17 $end
$var parameter 8 3 l18 $end
$var parameter 8 4 l19 $end
$var parameter 8 5 l2 $end
$var parameter 8 6 l20 $end
$var parameter 8 7 l21 $end
$var parameter 8 8 l22 $end
$var parameter 8 9 l3 $end
$var parameter 8 : l4 $end
$var parameter 8 ; l5 $end
$var parameter 8 < l6 $end
$var parameter 8 = l7 $end
$var parameter 8 > l8 $end
$var parameter 8 ? l9 $end
$var reg 5 @ arg_0 [4:0] $end
$var reg 16 A arg_1 [15:0] $end
$var reg 2 B r0 [1:0] $end
$var reg 5 C r1 [4:0] $end
$var reg 8 D r10 [7:0] $end
$var reg 8 E r11 [7:0] $end
$var reg 8 F r12 [7:0] $end
$var reg 8 G r13 [7:0] $end
$var reg 1 H r14 $end
$var reg 34 I r15 [33:0] $end
$var reg 2 J r16 [1:0] $end
$var reg 34 K r17 [33:0] $end
$var reg 8 L r18 [7:0] $end
$var reg 1 M r19 $end
$var reg 34 N r2 [33:0] $end
$var reg 34 O r20 [33:0] $end
$var reg 2 P r21 [1:0] $end
$var reg 34 Q r22 [33:0] $end
$var reg 8 R r23 [7:0] $end
$var reg 1 S r24 $end
$var reg 34 T r25 [33:0] $end
$var reg 2 U r26 [1:0] $end
$var reg 34 V r27 [33:0] $end
$var reg 8 W r28 [7:0] $end
$var reg 1 X r29 $end
$var reg 8 Y r3 [7:0] $end
$var reg 34 Z r30 [33:0] $end
$var reg 2 [ r31 [1:0] $end
$var reg 34 \ r32 [33:0] $end
$var reg 8 ] r33 [7:0] $end
$var reg 1 ^ r34 $end
$var reg 34 _ r35 [33:0] $end
$var reg 2 ` r36 [1:0] $end
$var reg 34 a r37 [33:0] $end
$var reg 8 b r38 [7:0] $end
$var reg 1 c r39 $end
$var reg 16 d r4 [15:0] $end
$var reg 34 e r40 [33:0] $end
$var reg 2 f r41 [1:0] $end
$var reg 34 g r42 [33:0] $end
$var reg 8 h r43 [7:0] $end
$var reg 1 i r44 $end
$var reg 34 j r45 [33:0] $end
$var reg 2 k r46 [1:0] $end
$var reg 34 l r47 [33:0] $end
$var reg 8 m r48 [7:0] $end
$var reg 1 n r49 $end
$var reg 1 o r5 $end
$var reg 34 p r50 [33:0] $end
$var reg 2 q r51 [1:0] $end
$var reg 34 r r52 [33:0] $end
$var reg 8 s r53 [7:0] $end
$var reg 1 t r54 $end
$var reg 8 u r55 [7:0] $end
$var reg 8 v r56 [7:0] $end
$var reg 1 w r57 $end
$var reg 8 x r58 [7:0] $end
$var reg 8 y r59 [7:0] $end
$var reg 8 z r6 [7:0] $end
$var reg 8 { r60 [7:0] $end
$var reg 1 | r61 $end
$var reg 8 } r62 [7:0] $end
$var reg 8 ~ r63 [7:0] $end
$var reg 8 !" r64 [7:0] $end
$var reg 1 "" r65 $end
$var reg 8 #" r66 [7:0] $end
$var reg 8 $" r67 [7:0] $end
$var reg 8 %" r68 [7:0] $end
$var reg 1 &" r69 $end
$var reg 8 '" r7 [7:0] $end
$var reg 8 (" r70 [7:0] $end
$var reg 8 )" r71 [7:0] $end
$var reg 8 *" r72 [7:0] $end
$var reg 1 +" r73 $end
$var reg 8 ," r74 [7:0] $end
$var reg 8 -" r75 [7:0] $end
$var reg 8 ." r76 [7:0] $end
$var reg 1 /" r77 $end
$var reg 8 0" r78 [7:0] $end
$var reg 8 1" r79 [7:0] $end
$var reg 34 2" r8 [33:0] $end
$var reg 8 3" r80 [7:0] $end
$var reg 1 4" r81 $end
$var reg 8 5" r82 [7:0] $end
$var reg 8 6" r83 [7:0] $end
$var reg 8 7" r84 [7:0] $end
$var reg 8 8" r85 [7:0] $end
$var reg 8 9" r86 [7:0] $end
$var reg 8 :" r87 [7:0] $end
$var reg 8 ;" r88 [7:0] $end
$var reg 8 <" r89 [7:0] $end
$var reg 8 =" r9 [7:0] $end
$var reg 8 >" r90 [7:0] $end
$var reg 8 ?" r91 [7:0] $end
$var reg 42 @" r92 [41:0] $end
$var reg 9 A" r93 [8:0] $end
$var reg 9 B" r94 [8:0] $end
$var reg 10 C" r95 [9:0] $end
$var reg 12 D" r96 [11:0] $end
$upscope $end
$scope module c0 $end
$var wire 10 E" i [9:0] $end
$var wire 8 F" o [7:0] $end
$scope module c $end
$var wire 2 G" clock_reset [1:0] $end
$var wire 8 H" i [7:0] $end
$var wire 1 I" reset $end
$var wire 1 J" clock $end
$var reg 8 K" o [7:0] $end
$upscope $end
$upscope $end
$scope module c1 $end
$var wire 24 L" i [23:0] $end
$var wire 8 M" o [7:0] $end
$scope module c0 $end
$var wire 3 N" i [2:0] $end
$var wire 1 O" reset $end
$var wire 1 P" o $end
$var wire 1 Q" data $end
$var wire 1 R" clock $end
$var reg 1 S" reg1 $end
$var reg 1 P" reg2 $end
$upscope $end
$scope module c1 $end
$var wire 3 T" i [2:0] $end
$var wire 1 U" reset $end
$var wire 1 V" o $end
$var wire 1 W" data $end
$var wire 1 X" clock $end
$var reg 1 Y" reg1 $end
$var reg 1 V" reg2 $end
$upscope $end
$scope module c2 $end
$var wire 3 Z" i [2:0] $end
$var wire 1 [" reset $end
$var wire 1 \" o $end
$var wire 1 ]" data $end
$var wire 1 ^" clock $end
$var reg 1 _" reg1 $end
$var reg 1 \" reg2 $end
$upscope $end
$scope module c3 $end
$var wire 3 `" i [2:0] $end
$var wire 1 a" reset $end
$var wire 1 b" o $end
$var wire 1 c" data $end
$var wire 1 d" clock $end
$var reg 1 e" reg1 $end
$var reg 1 b" reg2 $end
$upscope $end
$scope module c4 $end
$var wire 3 f" i [2:0] $end
$var wire 1 g" reset $end
$var wire 1 h" o $end
$var wire 1 i" data $end
$var wire 1 j" clock $end
$var reg 1 k" reg1 $end
$var reg 1 h" reg2 $end
$upscope $end
$scope module c5 $end
$var wire 3 l" i [2:0] $end
$var wire 1 m" reset $end
$var wire 1 n" o $end
$var wire 1 o" data $end
$var wire 1 p" clock $end
$var reg 1 q" reg1 $end
$var reg 1 n" reg2 $end
$upscope $end
$scope module c6 $end
$var wire 3 r" i [2:0] $end
$var wire 1 s" reset $end
$var wire 1 t" o $end
$var wire 1 u" data $end
$var wire 1 v" clock $end
$var reg 1 w" reg1 $end
$var reg 1 t" reg2 $end
$upscope $end
$scope module c7 $end
$var wire 3 x" i [2:0] $end
$var wire 1 y" reset $end
$var wire 1 z" o $end
$var wire 1 {" data $end
$var wire 1 |" clock $end
$var reg 1 }" reg1 $end
$var reg 1 z" reg2 $end
$upscope $end
$upscope $end
$upscope $end
$upscope $end
$enddefinitions $end
$comment Show the parameter values. $end
$dumpall
b100000 ?
b10000 >
b1000 =
b100 <
b10 ;
b1 :
b0 9
bx 8
b0 7
b10000000 6
b0 5
b1000000 4
b100000 3
b10000 2
b1000 1
b100 0
b10 /
b0 .
b1 -
b10000000 ,
b1000000 +
b1 *
bx )
$end
#0
$dumpvars
x}"
0|"
0{"
xz"
1y"
b100 x"
xw"
0v"
0u"
xt"
1s"
b100 r"
xq"
0p"
0o"
xn"
1m"
b100 l"
xk"
0j"
0i"
xh"
1g"
b100 f"
xe"
0d"
0c"
xb"
1a"
b100 `"
x_"
0^"
0]"
x\"
1["
b100 Z"
xY"
0X"
0W"
xV"
1U"
b100 T"
xS"
0R"
0Q"
xP"
1O"
b100 N"
bx M"
b100100100100100100100100 L"
b0 K"
0J"
1I"
b0 H"
b10 G"
b0 F"
b10 E"
b0xxxxxxxx D"
b0xxxxxxxx C"
b0xxxxxxxx B"
b0 A"
b1001001001001001001001000000000010xxxxxxxx @"
bx ?"
bx >"
b0 ="
b0xxxx <"
bx ;"
b0xxxxxx :"
bx 9"
b0xxxxxxx 8"
bx 7"
bx 6"
b1xxxxxxx 5"
x4"
bx 3"
bx0000000010 2"
b0xxxxxxx 1"
b1xxxxxx 0"
x/"
bx ."
b0xxxxxx -"
b1xxxxx ,"
x+"
bx *"
b0xxxxx )"
b1xxxx ("
b0 '"
x&"
bx %"
b0xxxx $"
b1xxx #"
x""
bx !"
b0xxx ~
b1xx }
x|
bx {
b0 z
b0xx y
b1x x
xw
bx v
b0x u
xt
bx s
b1001001001001001001001000000000010 r
b10 q
bx01001001001001001001000000000010 p
0o
0n
b0 m
bx1001001001001001001000000000010 l
b10 k
bx01001001001001001000000000010 j
0i
b0 h
bx1001001001001001000000000010 g
b10 f
bx01001001001001000000000010 e
bx00000000 d
0c
b0 b
bx1001001001001000000000010 a
b10 `
bx01001001001000000000010 _
0^
b0 ]
bx1001001001000000000010 \
b10 [
bx01001001000000000010 Z
b0 Y
0X
b0 W
bx1001001000000000010 V
b10 U
bx01001000000000010 T
0S
b0 R
bx1001000000000010 Q
b10 P
bx01000000000010 O
bx10 N
0M
b0 L
bx1000000000010 K
b10 J
bx00000000010 I
0H
b0 G
b0 F
b0 E
b0 D
b10100 C
b10 B
bx00000000 A
b10100 @
b1001001001001001001001000000000010 (
bx '
b1001001001001001001001000000000010xxxxxxxx &
bx00000000 %
b10100 $
b0 #
b10100 "
bx !
$end
#39
b0 !
b0 '
b0 ?"
b0 >"
b0 <"
b0 D"
b0 ;"
b0 :"
b0 C"
b0 9"
b0 8"
b0 B"
b0 6"
b10000000 5"
04"
b0 3"
b0 1"
b1000000 0"
0/"
b0 ."
b0 -"
b100000 ,"
0+"
b0 *"
b0 )"
b10000 ("
0&"
b0 %"
b0 $"
b1000 #"
0""
b0 !"
b0 ~
b100 }
0|
b0 {
b0 y
b10 x
0w
b0 v
b0 u
0t
b0 s
b0 d
b0 A
0P"
0S"
0V"
0Y"
0\"
0_"
0b"
0e"
0h"
0k"
0n"
0q"
0t"
0w"
b0 %
b0 M"
0z"
0}"
1R"
1X"
1^"
1d"
1j"
1p"
1v"
1|"
b110 N"
b110 T"
b110 Z"
b110 `"
b110 f"
b110 l"
b110 r"
b110 x"
b110110110110110110110110 L"
b1101101101101101101101100000000010 (
b110110110110110110110110000000001000000000 &
b110110110110110110110110000000001000000000 @"
b0 7"
b1101101101101101101101100000000010 r
b11 q
bx01101101101101101101100000000010 p
bx1101101101101101101100000000010 l
b11 k
bx01101101101101101100000000010 j
bx1101101101101101100000000010 g
b11 f
bx01101101101101100000000010 e
bx1101101101101100000000010 a
b11 `
bx01101101101100000000010 _
bx1101101101100000000010 \
b11 [
bx01101101100000000010 Z
bx1101101100000000010 V
b11 U
bx01101100000000010 T
bx1101100000000010 Q
b11 P
bx01100000000010 O
bx1100000000010 K
b11 J
bx00000000010 I
bx0000000010 2"
bx10 N
b11100 C
b11100 @
b11100 "
b11100 $
#40
0O"
0U"
0["
0a"
0g"
0m"
0s"
0y"
b10 N"
b10 T"
b10 Z"
b10 `"
b10 f"
b10 l"
b10 r"
b10 x"
b10010010010010010010010 L"
b100100100100100100100100000000010 (
b10010010010010010010010000000001000000000 &
b10010010010010010010010000000001000000000 @"
b0 ?"
b100100100100100100100100000000010 r
b1 q
bx00100100100100100100100000000010 p
bx0100100100100100100100000000010 l
b1 k
bx00100100100100100100000000010 j
bx0100100100100100100000000010 g
b1 f
bx00100100100100100000000010 e
bx0100100100100100000000010 a
b1 `
bx00100100100100000000010 _
bx0100100100100000000010 \
b1 [
bx00100100100000000010 Z
bx0100100100000000010 V
b1 U
bx00100100000000010 T
bx0100100000000010 Q
b1 P
bx00100000000010 O
bx0100000000010 K
b1 J
bx00000000010 I
bx0000000010 2"
bx10 N
b1100 C
b1100 @
b1100 "
b1100 $
#50
1J"
b11 G"
b11 E"
b100100100100100100100100000000011 (
b10010010010010010010010000000001100000000 &
b10010010010010010010010000000001100000000 @"
b0 ?"
b100100100100100100100100000000011 r
bx00100100100100100100100000000011 p
bx0100100100100100100100000000011 l
bx00100100100100100100000000011 j
bx0100100100100100100000000011 g
bx00100100100100100000000011 e
bx0100100100100100000000011 a
bx00100100100100000000011 _
bx0100100100100000000011 \
bx00100100100000000011 Z
bx0100100100000000011 V
bx00100100000000011 T
bx0100100000000011 Q
bx00100000000011 O
bx0100000000011 K
bx00000000011 I
bx0000000011 2"
bx11 N
b11 B
b1110 C
b1110 @
b1110 "
b1110 $
#51
0I"
b1 G"
b1 E"
b100100100100100100100100000000001 (
b10010010010010010010010000000000100000000 &
b10010010010010010010010000000000100000000 @"
b0 ?"
b100100100100100100100100000000001 r
bx00100100100100100100100000000001 p
bx0100100100100100100100000000001 l
bx00100100100100100100000000001 j
bx0100100100100100100000000001 g
bx00100100100100100000000001 e
bx0100100100100100000000001 a
bx00100100100100000000001 _
bx0100100100100000000001 \
bx00100100100000000001 Z
bx0100100100000000001 V
bx00100100000000001 T
bx0100100000000001 Q
bx00100000000001 O
bx0100000000001 K
bx00000000001 I
bx0000000001 2"
bx01 N
b1 B
b1010 C
b1010 @
b1010 "
b1010 $
#78
0R"
0X"
0^"
0d"
0j"
0p"
0v"
0|"
b0 N"
b0 T"
b0 Z"
b0 `"
b0 f"
b0 l"
b0 r"
b0 x"
b0 L"
b1 (
b100000000 &
b100000000 @"
b0 ?"
b1 r
b0 q
bx00000000000000000000000000000001 p
bx0000000000000000000000000000001 l
b0 k
bx00000000000000000000000000001 j
bx0000000000000000000000000001 g
b0 f
bx00000000000000000000000001 e
bx0000000000000000000000001 a
b0 `
bx00000000000000000000001 _
bx0000000000000000000001 \
b0 [
bx00000000000000000001 Z
bx0000000000000000001 V
b0 U
bx00000000000000001 T
bx0000000000000001 Q
b0 P
bx00000000000001 O
bx0000000000001 K
b0 J
bx00000000001 I
bx0000000001 2"
bx01 N
b10 C
b10 @
b10 "
b10 $
#100
0J"
b0 G"
b0 E"
b0 (
b0 &
b0 @"
b0 ?"
b0 r
bx00000000000000000000000000000000 p
bx0000000000000000000000000000000 l
bx00000000000000000000000000000 j
bx0000000000000000000000000000 g
bx00000000000000000000000000 e
bx0000000000000000000000000 a
bx00000000000000000000000 _
bx0000000000000000000000 \
bx00000000000000000000 Z
bx0000000000000000000 V
bx00000000000000000 T
bx0000000000000000 Q
bx00000000000000 O
bx0000000000000 K
bx00000000000 I
bx0000000000 2"
bx00 N
b0 B
b0 C
b0 @
b0 "
b0 $
#117
1R"
1X"
1^"
1d"
1j"
1p"
1v"
1|"
b10 N"
b10 T"
b10 Z"
b10 `"
b10 f"
b10 l"
b10 r"
b10 x"
b10010010010010010010010 L"
b100100100100100100100100000000000 (
b10010010010010010010010000000000000000000 &
b10010010010010010010010000000000000000000 @"
b0 ?"
b100100100100100100100100000000000 r
b1 q
bx00100100100100100100100000000000 p
bx0100100100100100100100000000000 l
b1 k
bx00100100100100100100000000000 j
bx0100100100100100100000000000 g
b1 f
bx00100100100100100000000000 e
bx0100100100100100000000000 a
b1 `
bx00100100100100000000000 _
bx0100100100100000000000 \
b1 [
bx00100100100000000000 Z
bx0100100100000000000 V
b1 U
bx00100100000000000 T
bx0100100000000000 Q
b1 P
bx00100000000000 O
bx0100000000000 K
b1 J
bx00000000000 I
bx0000000000 2"
bx00 N
b1000 C
b1000 @
b1000 "
b1000 $
#150
1J"
b1 G"
b1 E"
b100100100100100100100100000000001 (
b10010010010010010010010000000000100000000 &
b10010010010010010010010000000000100000000 @"
b0 ?"
b100100100100100100100100000000001 r
bx00100100100100100100100000000001 p
bx0100100100100100100100000000001 l
bx00100100100100100100000000001 j
bx0100100100100100100000000001 g
bx00100100100100100000000001 e
bx0100100100100100000000001 a
bx00100100100100000000001 _
bx0100100100100000000001 \
bx00100100100000000001 Z
bx0100100100000000001 V
bx00100100000000001 T
bx0100100000000001 Q
bx00100000000001 O
bx0100000000001 K
bx00000000001 I
bx0000000001 2"
bx01 N
b1 B
b1010 C
b1010 @
b1010 "
b1010 $
#151
b1 H"
b101 E"
b100100100100100100100100000000101 (
b10010010010010010010010000000010100000000 &
b10010010010010010010010000000010100000000 @"
b0 ?"
b100100100100100100100100000000101 r
bx00100100100100100100100000000101 p
bx0100100100100100100100000000101 l
bx00100100100100100100000000101 j
bx0100100100100100100000000101 g
bx00100100100100100000000101 e
bx0100100100100100000000101 a
bx00100100100100000000101 _
bx0100100100100000000101 \
bx00100100100000000101 Z
bx0100100100000000101 V
bx00100100000000101 T
bx0100100000000101 Q
bx00100000000101 O
bx0100000000101 K
bx00000000101 I
bx0000000101 2"
b1 '"
b1 z
1o
bx01 N
b1011 C
b1011 @
b1011 "
b1011 $
#156
0R"
0X"
0^"
0d"
0j"
0p"
0v"
0|"
b0 N"
b0 T"
b0 Z"
b0 `"
b0 f"
b0 l"
b0 r"
b0 x"
b0 L"
b101 (
b10100000000 &
b10100000000 @"
b0 ?"
b101 r
b0 q
bx00000000000000000000000000000101 p
bx0000000000000000000000000000101 l
b0 k
bx00000000000000000000000000101 j
bx0000000000000000000000000101 g
b0 f
bx00000000000000000000000101 e
bx0000000000000000000000101 a
b0 `
bx00000000000000000000101 _
bx0000000000000000000101 \
b0 [
bx00000000000000000101 Z
bx0000000000000000101 V
b0 U
bx00000000000000101 T
bx0000000000000101 Q
b0 P
bx00000000000101 O
bx0000000000101 K
b0 J
bx00000000101 I
bx0000000101 2"
bx01 N
b11 C
b11 @
b11 "
b11 $
#195
1R"
1X"
1^"
1d"
1j"
1p"
1v"
1|"
b10 N"
b10 T"
b10 Z"
b10 `"
b10 f"
b10 l"
b10 r"
b10 x"
b10010010010010010010010 L"
b100100100100100100100100000000101 (
b10010010010010010010010000000010100000000 &
b10010010010010010010010000000010100000000 @"
b0 ?"
b100100100100100100100100000000101 r
b1 q
bx00100100100100100100100000000101 p
bx0100100100100100100100000000101 l
b1 k
bx00100100100100100100000000101 j
bx0100100100100100100000000101 g
b1 f
bx00100100100100100000000101 e
bx0100100100100100000000101 a
b1 `
bx00100100100100000000101 _
bx0100100100100000000101 \
b1 [
bx00100100100000000101 Z
bx0100100100000000101 V
b1 U
bx00100100000000101 T
bx0100100000000101 Q
b1 P
bx00100000000101 O
bx0100000000101 K
b1 J
bx00000000101 I
bx0000000101 2"
bx01 N
b1011 C
b1011 @
b1011 "
b1011 $
#200
0J"
b0 G"
b100 E"
b100100100100100100100100000000100 (
b10010010010010010010010000000010000000000 &
b10010010010010010010010000000010000000000 @"
b0 ?"
b100100100100100100100100000000100 r
bx00100100100100100100100000000100 p
bx0100100100100100100100000000100 l
bx00100100100100100100000000100 j
bx0100100100100100100000000100 g
bx00100100100100100000000100 e
bx0100100100100100000000100 a
bx00100100100100000000100 _
bx0100100100100000000100 \
bx00100100100000000100 Z
bx0100100100000000100 V
bx00100100000000100 T
bx0100100000000100 Q
bx00100000000100 O
bx0100000000100 K
bx00000000100 I
bx0000000100 2"
bx00 N
b0 B
b1001 C
b1001 @
b1001 "
b1001 $
#234
0R"
0X"
0^"
0d"
0j"
0p"
0v"
0|"
b0 N"
b0 T"
b0 Z"
b0 `"
b0 f"
b0 l"
b0 r"
b0 x"
b0 L"
b100 (
b10000000000 &
b10000000000 @"
b0 ?"
b100 r
b0 q
bx00000000000000000000000000000100 p
bx0000000000000000000000000000100 l
b0 k
bx00000000000000000000000000100 j
bx0000000000000000000000000100 g
b0 f
bx00000000000000000000000100 e
bx0000000000000000000000100 a
b0 `
bx00000000000000000000100 _
bx0000000000000000000100 \
b0 [
bx00000000000000000100 Z
bx0000000000000000100 V
b0 U
bx00000000000000100 T
bx0000000000000100 Q
b0 P
bx00000000000100 O
bx0000000000100 K
b0 J
bx00000000100 I
bx0000000100 2"
bx00 N
b1 C
b1 @
b1 "
b1 $
#250
1Q"
b1 N"
b10 H"
b1 L"
1H
b1 G
b1 F
b1 E
b1 A"
b1 ="
b10 '"
b1 Y
b1 d
b1 A
b1 %
b1 F"
b1 K"
1J"
b1 G"
b1001 E"
b10000001001 (
b1000000100100000000 &
b1000000100100000000 @"
b0 ?"
b10000001001 r
bx00000000000000000000010000001001 p
bx0000000000000000000010000001001 l
bx00000000000000000010000001001 j
bx0000000000000000010000001001 g
bx00000000000000010000001001 e
bx0000000000000010000001001 a
bx00000000000010000001001 _
bx0000000000010000001001 \
bx00000000010000001001 Z
bx0000000010000001001 V
bx00000010000001001 T
bx0000010000001001 Q
bx00010000001001 O
bx0010000001001 K
bx10000001001 I
bx0000001001 2"
bx01 N
b1 B
b11 C
b11 @
b11 "
b11 $
#273
1S"
1R"
1X"
1^"
1d"
1j"
1p"
1v"
1|"
b11 N"
b10 T"
b10 Z"
b10 `"
b10 f"
b10 l"
b10 r"
b10 x"
b10010010010010010010011 L"
b100100100100100100100110000001001 (
b10010010010010010010011000000100100000000 &
b10010010010010010010011000000100100000000 @"
b0 ?"
b100100100100100100100110000001001 r
b1 q
bx00100100100100100100110000001001 p
bx0100100100100100100110000001001 l
b1 k
bx00100100100100100110000001001 j
bx0100100100100100110000001001 g
b1 f
bx00100100100100110000001001 e
bx0100100100100110000001001 a
b1 `
bx00100100100110000001001 _
bx0100100100110000001001 \
b1 [
bx00100100110000001001 Z
bx0100100110000001001 V
b1 U
bx00100110000001001 T
bx0100110000001001 Q
b1 P
bx00110000001001 O
bx0110000001001 K
b1 J
bx10000001001 I
b1 F
bx0000001001 2"
bx01 N
b1011 C
b1011 @
b1011 "
b1011 $
#300
0J"
b0 G"
b1000 E"
b100100100100100100100110000001000 (
b10010010010010010010011000000100000000000 &
b10010010010010010010011000000100000000000 @"
b0 ?"
b100100100100100100100110000001000 r
bx00100100100100100100110000001000 p
bx0100100100100100100110000001000 l
bx00100100100100100110000001000 j
bx0100100100100100110000001000 g
bx00100100100100110000001000 e
bx0100100100100110000001000 a
bx00100100100110000001000 _
bx0100100100110000001000 \
bx00100100110000001000 Z
bx0100100110000001000 V
bx00100110000001000 T
bx0100110000001000 Q
bx00110000001000 O
bx0110000001000 K
bx10000001000 I
b1 F
bx0000001000 2"
bx00 N
b0 B
b1001 C
b1001 @
b1001 "
b1001 $
#312
0R"
0X"
0^"
0d"
0j"
0p"
0v"
0|"
b1 N"
b0 T"
b0 Z"
b0 `"
b0 f"
b0 l"
b0 r"
b0 x"
b1 L"
b10000001000 (
b1000000100000000000 &
b1000000100000000000 @"
b0 ?"
b10000001000 r
b0 q
bx00000000000000000000010000001000 p
bx0000000000000000000010000001000 l
b0 k
bx00000000000000000010000001000 j
bx0000000000000000010000001000 g
b0 f
bx00000000000000010000001000 e
bx0000000000000010000001000 a
b0 `
bx00000000000010000001000 _
bx0000000000010000001000 \
b0 [
bx00000000010000001000 Z
bx0000000010000001000 V
b0 U
bx00000010000001000 T
bx0000010000001000 Q
b0 P
bx00010000001000 O
bx0010000001000 K
b0 J
bx10000001000 I
b1 F
bx0000001000 2"
bx00 N
b1 C
b1 @
b1 "
b1 $
#350
1W"
b1 T"
b11 H"
b1001 L"
1M
b10 L
b11 E
b1 D
b10 A"
b10 ="
b11 '"
b10 Y
b10 d
b10 A
b10 %
b10 F"
b10 K"
1J"
b1 G"
b1101 E"
b10010000001101 (
b1001000000110100000000 &
b1001000000110100000000 @"
b0 ?"
b10010000001101 r
bx00000000000000000010010000001101 p
bx0000000000000000010010000001101 l
bx00000000000000010010000001101 j
bx0000000000000010010000001101 g
bx00000000000010010000001101 e
bx0000000000010010000001101 a
bx00000000010010000001101 _
bx0000000010010000001101 \
bx00000010010000001101 Z
bx0000010010000001101 V
bx00010010000001101 T
bx0010010000001101 Q
bx10010000001101 O
bx0010000001101 K
bx10000001101 I
b11 F
bx0000001101 2"
bx01 N
b1 B
b11 C
b11 @
b11 "
b11 $
#351
b1 !
b1 '
b1 >"
b1 D"
b1 ;"
b1 C"
b1 9"
b1 B"
b1 7"
b1 6"
b10000001 5"
b1 3"
b1 1"
b1000001 0"
b1 ."
b1 -"
b100001 ,"
b1 *"
b1 )"
b10001 ("
b1 %"
b1 $"
b1001 #"
b1 !"
b1 ~
b101 }
b1 {
b1 y
b11 x
b1 v
b1 u
1t
b1 s
b100000010 d
b100000010 A
b100000010 %
b1 M"
1P"
1Y"
1R"
1X"
1^"
1d"
1j"
1p"
1v"
1|"
b11 N"
b11 T"
b10 Z"
b10 `"
b10 f"
b10 l"
b10 r"
b10 x"
b10 H"
b10010010010010010011011 L"
b1001 E"
b100100100100100100110110000001001 (
b10010010010010010011011000000100100000001 &
b10010010010010010011011000000100100000001 @"
b1 ?"
b100100100100100100110110000001001 r
b1 q
bx00100100100100100110110000001001 p
bx0100100100100100110110000001001 l
b1 k
bx00100100100100110110000001001 j
bx0100100100100110110000001001 g
b1 f
bx00100100100110110000001001 e
bx0100100100110110000001001 a
b1 `
bx00100100110110000001001 _
bx0100100110110000001001 \
b1 [
bx00100110110000001001 Z
bx0100110110000001001 V
b1 U
bx00110110000001001 T
bx0110110000001001 Q
b1 P
bx10110000001001 O
bx0110000001001 K
b1 J
bx10000001001 I
b11 F
bx0000001001 2"
b10 '"
b0 z
0o
bx01 N
b1010 C
b1010 @
b1 #
b1010 "
b1010 $
#390
0R"
0X"
0^"
0d"
0j"
0p"
0v"
0|"
b1 N"
b1 T"
b0 Z"
b0 `"
b0 f"
b0 l"
b0 r"
b0 x"
b1001 L"
b10010000001001 (
b1001000000100100000001 &
b1001000000100100000001 @"
b1 ?"
b1 7"
b10010000001001 r
b0 q
bx00000000000000000010010000001001 p
bx0000000000000000010010000001001 l
b0 k
bx00000000000000010010000001001 j
bx0000000000000010010000001001 g
b0 f
bx00000000000010010000001001 e
bx0000000000010010000001001 a
b0 `
bx00000000010010000001001 _
bx0000000010010000001001 \
b0 [
bx00000010010000001001 Z
bx0000010010000001001 V
b0 U
bx00010010000001001 T
bx0010010000001001 Q
b0 P
bx10010000001001 O
bx0010000001001 K
b0 J
bx10000001001 I
b11 F
bx0000001001 2"
bx01 N
b10 C
b10 @
b10 "
b10 $
#400
0J"
b0 G"
b1000 E"
b10010000001000 (
b1001000000100000000001 &
b1001000000100000000001 @"
b1 ?"
b1 7"
b10010000001000 r
bx00000000000000000010010000001000 p
bx0000000000000000010010000001000 l
bx00000000000000010010000001000 j
bx0000000000000010010000001000 g
bx00000000000010010000001000 e
bx0000000000010010000001000 a
bx00000000010010000001000 _
bx0000000010010000001000 \
bx00000010010000001000 Z
bx0000010010000001000 V
bx00010010000001000 T
bx0010010000001000 Q
bx10010000001000 O
bx0010000001000 K
bx10000001000 I
b11 F
bx0000001000 2"
bx00 N
b0 B
b0 C
b0 @
b0 "
b0 $
#429
b10 !
b10 '
b10 >"
b10 D"
b10 ;"
b10 C"
b10 9"
b1 8"
b11 B"
b11 6"
b10000011 5"
b11 3"
b11 1"
b1000011 0"
b11 ."
b11 -"
b100011 ,"
b11 *"
b11 )"
b10011 ("
b11 %"
b11 $"
b1011 #"
b11 !"
b11 ~
b111 }
b11 {
b11 y
1w
b11 v
b11 s
b1100000010 d
b1100000010 A
b1100000010 %
b11 M"
1V"
1R"
1X"
1^"
1d"
1j"
1p"
1v"
1|"
b11 N"
b11 T"
b10 Z"
b10 `"
b10 f"
b10 l"
b10 r"
b10 x"
b10010010010010010011011 L"
b100100100100100100110110000001000 (
b10010010010010010011011000000100000000010 &
b10010010010010010011011000000100000000010 @"
b10 ?"
b11 7"
b100100100100100100110110000001000 r
b1 q
bx00100100100100100110110000001000 p
bx0100100100100100110110000001000 l
b1 k
bx00100100100100110110000001000 j
bx0100100100100110110000001000 g
b1 f
bx00100100100110110000001000 e
bx0100100100110110000001000 a
b1 `
bx00100100110110000001000 _
bx0100100110110000001000 \
b1 [
bx00100110110000001000 Z
bx0100110110000001000 V
b1 U
bx00110110000001000 T
bx0110110000001000 Q
b1 P
bx10110000001000 O
bx0110000001000 K
b1 J
bx10000001000 I
b11 F
bx0000001000 2"
bx00 N
b1000 C
b1000 @
b10 #
b1000 "
b1000 $
#450
1J"
b1 G"
b1001 E"
b100100100100100100110110000001001 (
b10010010010010010011011000000100100000010 &
b10010010010010010011011000000100100000010 @"
b10 ?"
b11 7"
b100100100100100100110110000001001 r
bx00100100100100100110110000001001 p
bx0100100100100100110110000001001 l
bx00100100100100110110000001001 j
bx0100100100100110110000001001 g
bx00100100100110110000001001 e
bx0100100100110110000001001 a
bx00100100110110000001001 _
bx0100100110110000001001 \
bx00100110110000001001 Z
bx0100110110000001001 V
bx00110110000001001 T
bx0110110000001001 Q
bx10110000001001 O
bx0110000001001 K
bx10000001001 I
b11 F
bx0000001001 2"
bx01 N
b1 B
b1010 C
b1010 @
b1010 "
b1010 $
#451
b11 H"
b1101 E"
b100100100100100100110110000001101 (
b10010010010010010011011000000110100000010 &
b10010010010010010011011000000110100000010 @"
b10 ?"
b11 7"
b100100100100100100110110000001101 r
bx00100100100100100110110000001101 p
bx0100100100100100110110000001101 l
bx00100100100100110110000001101 j
bx0100100100100110110000001101 g
bx00100100100110110000001101 e
bx0100100100110110000001101 a
bx00100100110110000001101 _
bx0100100110110000001101 \
bx00100110110000001101 Z
bx0100110110000001101 V
bx00110110000001101 T
bx0110110000001101 Q
bx10110000001101 O
bx0110000001101 K
bx10000001101 I
b11 F
bx0000001101 2"
b11 '"
b1 z
1o
bx01 N
b1011 C
b1011 @
b1011 "
b1011 $
