crates/rhdl-fpga/vcd/fifo/sync_fifo.vcd
$timescale 1 ps $end
$scope module top $end
$scope module drainer $end
$scope module drain_kernel $end
$var wire 16 I data $end
$var wire 1 K data_matches $end
$var wire 16 J validation $end
$var wire 1 L will_read $end
$upscope $end
$scope module read_probability $end
$scope module constant $end
$var wire 16 Z value $end
$upscope $end
$upscope $end
$scope module rng $end
$scope module w $end
$scope module dff $end
$var wire 32 T input $end
$var wire 32 U output $end
$upscope $end
$upscope $end
$scope module x $end
$scope module dff $end
$var wire 32 N input $end
$var wire 32 O output $end
$upscope $end
$upscope $end
$scope module y $end
$scope module dff $end
$var wire 32 P input $end
$var wire 32 Q output $end
$upscope $end
$upscope $end
$scope module z $end
$scope module dff $end
$var wire 32 R input $end
$var wire 32 S output $end
$upscope $end
$upscope $end
$var wire 1 M input $end
$var wire 32 V outputs $end
$upscope $end
$scope module sleep_counter $end
$scope module dff $end
$var wire 4 W input $end
$var wire 4 X output $end
$upscope $end
$upscope $end
$scope module sleep_len $end
$scope module constant $end
$var wire 4 Y value $end
$upscope $end
$upscope $end
$scope module valid $end
$scope module dff $end
$var wire 1 [ input $end
$var wire 1 \ output $end
$upscope $end
$upscope $end
$var wire 17 H input $end
$var wire 2 ] outputs $end
$upscope $end
$scope module fifo $end
$scope module ram $end
$scope module inner $end
$scope module synchronous_ram $end
$var wire 29 D input $end
$var wire 16 E output $end
$upscope $end
$upscope $end
$var wire 29 C input $end
$var wire 16 F outputs $end
$upscope $end
$scope module read_logic $end
$scope module ram_read_address $end
$scope module dff $end
$var wire 6 > input $end
$var wire 6 ? output $end
$upscope $end
$upscope $end
$scope module underflow $end
$scope module dff $end
$var wire 1 @ input $end
$var wire 1 A output $end
$upscope $end
$upscope $end
$var wire 7 = input $end
$var wire 10 B outputs $end
$upscope $end
$scope module write_logic $end
$scope module overflow $end
$scope module dff $end
$var wire 1 : input $end
$var wire 1 ; output $end
$upscope $end
$upscope $end
$scope module write_address $end
$scope module dff $end
$var wire 6 6 input $end
$var wire 6 7 output $end
$upscope $end
$upscope $end
$scope module write_address_delayed $end
$scope module dff $end
$var wire 6 8 input $end
$var wire 6 9 output $end
$upscope $end
$upscope $end
$var wire 7 5 input $end
$var wire 15 < outputs $end
$upscope $end
$var wire 18 4 input $end
$var wire 22 G outputs $end
$upscope $end
$scope module filler $end
$scope module _marker $end
$scope module constant $end
$var wire 16 $ value $end
$upscope $end
$upscope $end
$scope module rng $end
$scope module w $end
$scope module dff $end
$var wire 32 , input $end
$var wire 32 - output $end
$upscope $end
$upscope $end
$scope module x $end
$scope module dff $end
$var wire 32 & input $end
$var wire 32 ' output $end
$upscope $end
$upscope $end
$scope module y $end
$scope module dff $end
$var wire 32 ( input $end
$var wire 32 ) output $end
$upscope $end
$upscope $end
$scope module z $end
$scope module dff $end
$var wire 32 * input $end
$var wire 32 + output $end
$upscope $end
$upscope $end
$var wire 1 % input $end
$var wire 32 . outputs $end
$upscope $end
$scope module sleep_counter $end
$scope module dff $end
$var wire 4 / input $end
$var wire 4 0 output $end
$upscope $end
$upscope $end
$scope module sleep_len $end
$scope module constant $end
$var wire 4 1 value $end
$upscope $end
$upscope $end
$scope module write_probability $end
$scope module constant $end
$var wire 16 2 value $end
$upscope $end
$upscope $end
$var wire 1 # input $end
$var wire 17 3 outputs $end
$upscope $end
$var wire 1 ! clock $end
$var wire 1 =! input $end
$var wire 1 ^ outputs $end
$var wire 1 " reset $end
$upscope $end
$enddefinitions $end
#0
b0 !
b1 "
b0 #
b0000000000000000 $
b1 %
b00000000000000000000000000000000 &
b00000000000000000000000000000000 '
b00000000000000000000000000000000 (
b00000000000000000000000000000000 )
b00000000000000000000000000000000 *
b00000000000000000000000000000000 +
b00000000000000000000000000000000 ,
b00000000000000000000000000000000 -
b00000000000000000000000000000000 .
b0000 /
b0000 0
b0100 1
b1000000000000000 2
b00000000000000000 3
b000000000000000000 4
b0000000 5
b000000 6
b000000 7
b000000 8
b000000 9
b0 :
b0 ;
b000000000000000 <
b0000000 =
b000000 >
b000000 ?
b0 @
b0 A
b0000000011 B
b00000000000000000000000000000 C
b00000000000000000000000000000 D
b0000000000000000 E
b0000000000000000 F
b0001000000000000000000 G
b00000000000000000 H
b0000000000000000 I
b0000000000000000 J
b1 K
b0 L
b0 M
b00000000000000000000000000000000 N
b00000000000000000000000000000000 O
b00000000000000000000000000000000 P
b00000000000000000000000000000000 Q
b00000000000000000000000000000000 R
b00000000000000000000000000000000 S
b00000000000000000000000000000000 T
b00000000000000000000000000000000 U
b00000000000000000000000000000000 V
b0000 W
b0000 X
b0100 Y
b1101000000000000 Z
b1 [
b0 \
b10 ]
b1 ^
#50
b1 !
b01100010010110010010110001100010 '
b01000010001110110110001000100101 )
b00111010011000010011100101100110 +
b10000100001100100011001101010010 -
b01000010001110110110001000100101 &
b00111010011000010011100101100110 (
b10000100001100100011001101010010 *
b00101111101000110010010110001010 ,
b10101011001110100011110001100010 .
b0100 /
b01100010010110010010110001100010 O
b01000010001110110110001000100101 Q
b00111010011000010011100101100110 S
b10000100001100100011001101010010 U
b01100010010110010010110001100010 N
b01000010001110110110001000100101 P
b00111010011000010011100101100110 R
b10000100001100100011001101010010 T
b10101011001110100011110001100010 V
b1 \
b0011110001100010 J
b0 K
#51
b0 "
b10011110001100010 3
b010011110001100010 4
b1000000 5
b000001 6
b10011110001100010000000000000 C
b10011110001100010000000000000 D
#100
b0 !
#150
b1 !
b01000010001110110110001000100101 '
b00111010011000010011100101100110 )
b10000100001100100011001101010010 +
b00101111101000110010010110001010 -
b00111010011000010011100101100110 &
b10000100001100100011001101010010 (
b00101111101000110010010110001010 *
b10110110000100000100000000010001 ,
b10011001001010100100101000100101 .
b0100 0
b0 %
b01000010001110110110001000100101 &
b00111010011000010011100101100110 (
b10000100001100100011001101010010 *
b00101111101000110010010110001010 ,
b0011 /
b00000000000000000 3
b000001 7
b000010 6
b000001 8
b000000000001000 <
b10011110001100010000001000000 C
b10011110001100010000001000000 D
b000000000000000000 4
b0000000 5
b000001 6
b00000000000000000000000000000 C
b00000000000000000000000000000 D
#151
#200
b0 !
#250
b1 !
b0011 0
b0010 /
b000001 9
b000001000001000 <
b0011110001100010 E
b0011110001100010 F
b0000001 =
b0000000010 B
b0001010011110001100010 G
b10011110001100010 H
b0011110001100010 I
b1 K
b1 L
b1 M
b01000010001110110110001000100101 N
b00111010011000010011100101100110 P
b10000100001100100011001101010010 R
b00101111101000110010010110001010 T
b11 ]
b100000000000000000 4
b1000001 =
b000001 >
b1000001010 B
b0000001 5
b00000000000000000000000000001 C
b00000000000000000000000000001 D
#251
#300
b0 !
#350
b1 !
b0010 0
b0001 /
b000001 ?
b1 @
b0000001111 B
b0000000000000000 E
b0000000000000000 F
b1001000000000000000000 G
b01000010001110110110001000100101 O
b00111010011000010011100101100110 Q
b10000100001100100011001101010010 S
b00101111101000110010010110001010 U
b00111010011000010011100101100110 N
b10000100001100100011001101010010 P
b00101111101000110010010110001010 R
b10110110000100000100000000010001 T
b10011001001010100100101000100101 V
b0100101000100101 J
b0 K
b0 [
b00000000000000000 H
b0000000000000000 I
b0 L
b0 M
b01000010001110110110001000100101 N
b00111010011000010011100101100110 P
b10000100001100100011001101010010 R
b00101111101000110010010110001010 T
b1 [
b10 ]
b000000000000000000 4
b0000001 =
b0 @
b0000001011 B
b0001000000000000000000 G
#351
#400
b0 !
#450
b1 !
b0001 0
b0000 /
#451
#500
b0 !
#550
b1 !
b0000 0
b1 %
b00111010011000010011100101100110 &
b10000100001100100011001101010010 (
b00101111101000110010010110001010 *
b10110110000100000100000000010001 ,
b0100 /
b10100101000100101 3
b010100101000100101 4
b1000001 5
b000010 6
b10100101000100101000001000001 C
b10100101000100101000001000001 D
#551
#600
b0 !
#650
b1 !
b00111010011000010011100101100110 '
b10000100001100100011001101010010 )
b00101111101000110010010110001010 +
b10110110000100000100000000010001 -
b10000100001100100011001101010010 &
b00101111101000110010010110001010 (
b10110110000100000100000000010001 *
b10000101100010011111010110111100 ,
b00110011101010100000100101100110 .
b0100 0
b0 %
b00111010011000010011100101100110 &
b10000100001100100011001101010010 (
b00101111101000110010010110001010 *
b10110110000100000100000000010001 ,
b0011 /
b00000000000000000 3
b000010 7
b000011 6
b000010 8
b000001000010000 <
b10100101000100101000010000001 C
b10100101000100101000010000001 D
b000000000000000000 4
b0000001 5
b000010 6
b00000000000000000000000000001 C
b00000000000000000000000000001 D
#651
#700
b0 !
#750
b1 !
b0011 0
b0010 /
b000010 9
b000010000010000 <
b0100101000100101 E
b0100101000100101 F
b0000010 =
b0000001010 B
b0001010100101000100101 G
b10100101000100101 H
b0100101000100101 I
b1 K
b1 L
b1 M
b00111010011000010011100101100110 N
b10000100001100100011001101010010 P
b00101111101000110010010110001010 R
b10110110000100000100000000010001 T
b11 ]
b100000000000000000 4
b1000010 =
b000010 >
b1000010010 B
b0000010 5
b00000000000000000000000000010 C
b00000000000000000000000000010 D
#751
#800
b0 !
#850
b1 !
b0010 0
b0001 /
b000010 ?
b1 @
b0000010111 B
b0000000000000000 E
b0000000000000000 F
b1001000000000000000000 G
b00111010011000010011100101100110 O
b10000100001100100011001101010010 Q
b00101111101000110010010110001010 S
b10110110000100000100000000010001 U
b10000100001100100011001101010010 N
b00101111101000110010010110001010 P
b10110110000100000100000000010001 R
b10000101100010011111010110111100 T
b00110011101010100000100101100110 V
b0000100101100110 J
b0 K
b0 [
b00000000000000000 H
b0000000000000000 I
b0 L
b0 M
b00111010011000010011100101100110 N
b10000100001100100011001101010010 P
b00101111101000110010010110001010 R
b10110110000100000100000000010001 T
b1 [
b10 ]
b000000000000000000 4
b0000010 =
b0 @
b0000010011 B
b0001000000000000000000 G
#851
#900
b0 !
#950
b1 !
b0001 0
b0000 /
#951
#1000
b0 !
#1050
b1 !
b0000 0
b1 %
b10000100001100100011001101010010 &
b00101111101000110010010110001010 (
b10110110000100000100000000010001 *
b10000101100010011111010110111100 ,
b10000100101100110 3
b010000100101100110 4
b1000010 5
b000011 6
b10000100101100110000010000010 C
b10000100101100110000010000010 D
#1051
#1100
b0 !
#1150
b1 !
b10000100001100100011001101010010 '
b00101111101000110010010110001010 )
b10110110000100000100000000010001 +
b10000101100010011111010110111100 -
b00101111101000110010010110001010 &
b10110110000100000100000000010001 (
b10000101100010011111010110111100 *
b10010000001101001110111011111100 ,
b00010101101010001010001101010010 .
b11010001101010010 3
b000011 7
b000100 6
b000011 8
b000010000011000 <
b10000100101100110000011000010 C
b10000100101100110000011000010 D
b011010001101010010 4
b11010001101010010000011000010 C
b11010001101010010000011000010 D
#1151
#1200
b0 !
#1250
b1 !
b00101111101000110010010110001010 '
b10110110000100000100000000010001 )
b10000101100010011111010110111100 +
b10010000001101001110111011111100 -
b10110110000100000100000000010001 &
b10000101100010011111010110111100 (
b10010000001101001110111011111100 *
b10100110100011010000011000000101 ,
b00110110100011110111010110001010 .
b10111010110001010 3
b000100 7
b000011 9
b000101 6
b000100 8
b000011000100000 <
b0000100101100110 E
b0000100101100110 F
b0000011 =
b0000010010 B
b11010001101010010000100000010 C
b11010001101010010000100000010 D
b0001010000100101100110 G
b010111010110001010 4
b10111010110001010000100000010 C
b10111010110001010000100000010 D
b10000100101100110 H
b0000100101100110 I
b1 K
b1 L
b1 M
b10000100001100100011001101010010 N
b00101111101000110010010110001010 P
b10110110000100000100000000010001 R
b10000101100010011111010110111100 T
b11 ]
b110111010110001010 4
b1000011 =
b000011 >
b1000011010 B
b1000011 5
b10111010110001010000100000011 C
b10111010110001010000100000011 D
#1251
#1300
b0 !
#1350
b1 !
b10110110000100000100000000010001 '
b10000101100010011111010110111100 )
b10010000001101001110111011111100 +
b10100110100011010000011000000101 -
b10000101100010011111010110111100 &
b10010000001101001110111011111100 (
b10100110100011010000011000000101 *
b10010010101010011100101000001101 ,
b00110100000100001100100000010001 .
b11100100000010001 3
b000101 7
b000100 9
b000110 6
b000101 8
b000100000101000 <
b000011 ?
b1 @
b0000011111 B
b1010001101010010 E
b1010001101010010 F
b1000100 =
b000100 >
b0 @
b1000100010 B
b10111010110001010000101000011 C
b10111010110001010000101000011 D
b1000100 5
b10111010110001010000101000100 C
b10111010110001010000101000100 D
b0001011010001101010010 G
b10000100001100100011001101010010 O
b00101111101000110010010110001010 Q
b10110110000100000100000000010001 S
b10000101100010011111010110111100 U
b00101111101000110010010110001010 N
b10110110000100000100000000010001 P
b10000101100010011111010110111100 R
b10010000001101001110111011111100 T
b00010101101010001010001101010010 V
b1010001101010010 J
b0 K
b0 [
b111100100000010001 4
b11100100000010001000101000100 C
b11100100000010001000101000100 D
b11010001101010010 H
b1010001101010010 I
b1 K
b1 [
#1351
#1400
b0 !
#1450
b1 !
b10000101100010011111010110111100 '
b10010000001101001110111011111100 )
b10100110100011010000011000000101 +
b10010010101010011100101000001101 -
b10010000001101001110111011111100 &
b10100110100011010000011000000101 (
b10010010101010011100101000001101 *
b01011000010001111110100111110001 ,
b11001010001001000001010110111100 .
b0100 /
b10001010110111100 3
b000110 7
b000101 9
b000111 6
b000110 8
b000101000110000 <
b000100 ?
b1 @
b0000100111 B
b0111010110001010 E
b0111010110001010 F
b1000101 =
b000101 >
b0 @
b1000101010 B
b11100100000010001000110000100 C
b11100100000010001000110000100 D
b1000101 5
b11100100000010001000110000101 C
b11100100000010001000110000101 D
b0001010111010110001010 G
b00101111101000110010010110001010 O
b10110110000100000100000000010001 Q
b10000101100010011111010110111100 S
b10010000001101001110111011111100 U
b10110110000100000100000000010001 N
b10000101100010011111010110111100 P
b10010000001101001110111011111100 R
b10100110100011010000011000000101 T
b00110110100011110111010110001010 V
b0111010110001010 J
b0 K
b0 [
b110001010110111100 4
b10001010110111100000110000101 C
b10001010110111100000110000101 D
b10111010110001010 H
b0111010110001010 I
b1 K
b1 [
#1451
#1500
b0 !
#1550
b1 !
b10010000001101001110111011111100 '
b10100110100011010000011000000101 )
b10010010101010011100101000001101 +
b01011000010001111110100111110001 -
b10100110100011010000011000000101 &
b10010010101010011100101000001101 (
b01011000010001111110100111110001 *
b01101111001100111010111100001011 ,
b00110111010000110000111011111100 .
b0100 0
b0 %
b10010000001101001110111011111100 &
b10100110100011010000011000000101 (
b10010010101010011100101000001101 *
b01011000010001111110100111110001 ,
b0011 /
b00000000000000000 3
b000111 7
b000110 9
b001000 6
b000111 8
b000110000111000 <
b000101 ?
b1 @
b0000101111 B
b1100100000010001 E
b1100100000010001 F
b1000110 =
b000110 >
b0 @
b1000110010 B
b10001010110111100000111000101 C
b10001010110111100000111000101 D
b1000110 5
b10001010110111100000111000110 C
b10001010110111100000111000110 D
b0001011100100000010001 G
b10110110000100000100000000010001 O
b10000101100010011111010110111100 Q
b10010000001101001110111011111100 S
b10100110100011010000011000000101 U
b10000101100010011111010110111100 N
b10010000001101001110111011111100 P
b10100110100011010000011000000101 R
b10010010101010011100101000001101 T
b00110100000100001100100000010001 V
b1100100000010001 J
b0 K
b0 [
b100000000000000000 4
b0000110 5
b000111 6
b00000000000000000000000000110 C
b00000000000000000000000000110 D
b11100100000010001 H
b1100100000010001 I
b1 K
b1 [
#1551
#1600
b0 !
#1650
b1 !
b0011 0
b0010 /
b000111 9
b000111000111000 <
b000110 ?
b1 @
b0000110111 B
b0001010110111100 E
b0001010110111100 F
b1000111 =
b000111 >
b0 @
b1000111010 B
b0000111 5
b00000000000000000000000000111 C
b00000000000000000000000000111 D
b0001010001010110111100 G
b10000101100010011111010110111100 O
b10010000001101001110111011111100 Q
b10100110100011010000011000000101 S
b10010010101010011100101000001101 U
b10010000001101001110111011111100 N
b10100110100011010000011000000101 P
b10010010101010011100101000001101 R
b01011000010001111110100111110001 T
b11001010001001000001010110111100 V
b0001010110111100 J
b0 K
b0 [
b10001010110111100 H
b0001010110111100 I
b1 K
b1 [
#1651
#1700
b0 !
#1750
b1 !
b0010 0
b0001 /
b000111 ?
b1 @
b0000111111 B
b0000000000000000 E
b0000000000000000 F
b1001000000000000000000 G
b10010000001101001110111011111100 O
b10100110100011010000011000000101 Q
b10010010101010011100101000001101 S
b01011000010001111110100111110001 U
b10100110100011010000011000000101 N
b10010010101010011100101000001101 P
b01011000010001111110100111110001 R
b01101111001100111010111100001011 T
b00110111010000110000111011111100 V
b0000111011111100 J
b0 K
b0 [
b00000000000000000 H
b0000000000000000 I
b0 L
b0 M
b10010000001101001110111011111100 N
b10100110100011010000011000000101 P
b10010010101010011100101000001101 R
b01011000010001111110100111110001 T
b1 [
b10 ]
b000000000000000000 4
b0000111 =
b0 @
b0000111011 B
b0001000000000000000000 G
#1751
#1800
b0 !
#1850
b1 !
b0001 0
b0000 /
#1851
#1900
b0 !
#1950
b1 !
b0000 0
b1 %
b10100110100011010000011000000101 &
b10010010101010011100101000001101 (
b01011000010001111110100111110001 *
b01101111001100111010111100001011 ,
b10000111011111100 3
b010000111011111100 4
b1000111 5
b001000 6
b10000111011111100000111000111 C
b10000111011111100000111000111 D
#1951
#2000
b0 !
#2050
b1 !
b10100110100011010000011000000101 '
b10010010101010011100101000001101 )
b01011000010001111110100111110001 +
b01101111001100111010111100001011 -
b10010010101010011100101000001101 &
b01011000010001111110100111110001 (
b01101111001100111010111100001011 *
b10100001010000000011000111000110 ,
b11001110101111010010111000000101 .
b0100 /
b10010111000000101 3
b001000 7
b001001 6
b001000 8
b000111001000000 <
b10000111011111100001000000111 C
b10000111011111100001000000111 D
b010010111000000101 4
b10010111000000101001000000111 C
b10010111000000101001000000111 D
#2051
#2100
b0 !
#2150
b1 !
b10010010101010011100101000001101 '
b01011000010001111110100111110001 )
b01101111001100111010111100001011 +
b10100001010000000011000111000110 -
b01011000010001111110100111110001 &
b01101111001100111010111100001011 (
b10100001010000000011000111000110 *
b01111101011001010111111001000001 ,
b11011100111110011010001000001101 .
b0100 0
b0 %
b10010010101010011100101000001101 &
b01011000010001111110100111110001 (
b01101111001100111010111100001011 *
b10100001010000000011000111000110 ,
b0011 /
b00000000000000000 3
b001001 7
b001000 9
b001010 6
b001001 8
b001000001001000 <
b0000111011111100 E
b0000111011111100 F
b0001000 =
b0000111010 B
b10010111000000101001001000111 C
b10010111000000101001001000111 D
b0001010000111011111100 G
b000000000000000000 4
b0000111 5
b001001 6
b00000000000000000000000000111 C
b00000000000000000000000000111 D
b10000111011111100 H
b0000111011111100 I
b1 K
b1 L
b1 M
b10100110100011010000011000000101 N
b10010010101010011100101000001101 P
b01011000010001111110100111110001 R
b01101111001100111010111100001011 T
b11 ]
b100000000000000000 4
b1001000 =
b001000 >
b1001000010 B
b0001000 5
b00000000000000000000000001000 C
b00000000000000000000000001000 D
#2151
#2200
b0 !
#2250
b1 !
b0011 0
b0010 /
b001001 9
b001001001001000 <
b001000 ?
b1 @
b0001000111 B
b0010111000000101 E
b0010111000000101 F
b1001001 =
b001001 >
b0 @
b1001001010 B
b0001001 5
b00000000000000000000000001001 C
b00000000000000000000000001001 D
b0001010010111000000101 G
b10100110100011010000011000000101 O
b10010010101010011100101000001101 Q
b01011000010001111110100111110001 S
b01101111001100111010111100001011 U
b10010010101010011100101000001101 N
b01011000010001111110100111110001 P
b01101111001100111010111100001011 R
b10100001010000000011000111000110 T
b11001110101111010010111000000101 V
b0010111000000101 J
b0 K
b0 [
b10010111000000101 H
b0010111000000101 I
b1 K
b1 [
#2251
#2300
b0 !
#2350
b1 !
b0010 0
b0001 /
b001001 ?
b1 @
b0001001111 B
b0000000000000000 E
b0000000000000000 F
b1001000000000000000000 G
b10010010101010011100101000001101 O
b01011000010001111110100111110001 Q
b01101111001100111010111100001011 S
b10100001010000000011000111000110 U
b01011000010001111110100111110001 N
b01101111001100111010111100001011 P
b10100001010000000011000111000110 R
b01111101011001010111111001000001 T
b11011100111110011010001000001101 V
b1010001000001101 J
b0 K
b0 [
b00000000000000000 H
b0000000000000000 I
b0 L
b0 M
b10010010101010011100101000001101 N
b01011000010001111110100111110001 P
b01101111001100111010111100001011 R
b10100001010000000011000111000110 T
b1 [
b10 ]
b000000000000000000 4
b0001001 =
b0 @
b0001001011 B
b0001000000000000000000 G
#2351
#2400
b0 !
#2450
b1 !
b0001 0
b0000 /
#2451
#2500
b0 !
#2550
b1 !
b0000 0
b1 %
b01011000010001111110100111110001 &
b01101111001100111010111100001011 (
b10100001010000000011000111000110 *
b01111101011001010111111001000001 ,
b0100 /
b11010001000001101 3
b011010001000001101 4
b1001001 5
b001010 6
b11010001000001101001001001001 C
b11010001000001101001001001001 D
#2551
#2600
b0 !
#2650
b1 !
b01011000010001111110100111110001 '
b01101111001100111010111100001011 )
b10100001010000000011000111000110 +
b01111101011001010111111001000001 -
b01101111001100111010111100001011 &
b10100001010000000011000111000110 (
b01111101011001010111111001000001 *
b00011010000010100001100001111101 ,
b01100111000010000110000111110001 .
b0100 0
b0 %
b01011000010001111110100111110001 &
b01101111001100111010111100001011 (
b10100001010000000011000111000110 *
b01111101011001010111111001000001 ,
b0011 /
b00000000000000000 3
b001010 7
b001011 6
b001010 8
b001001001010000 <
b11010001000001101001010001001 C
b11010001000001101001010001001 D
b000000000000000000 4
b0001001 5
b001010 6
b00000000000000000000000001001 C
b00000000000000000000000001001 D
#2651
#2700
b0 !
#2750
b1 !
b0011 0
b0010 /
b001010 9
b001010001010000 <
b1010001000001101 E
b1010001000001101 F
b0001010 =
b0001001010 B
b0001011010001000001101 G
b11010001000001101 H
b1010001000001101 I
b1 K
b1 L
b1 M
b01011000010001111110100111110001 N
b01101111001100111010111100001011 P
b10100001010000000011000111000110 R
b01111101011001010111111001000001 T
b11 ]
b100000000000000000 4
b1001010 =
b001010 >
b1001010010 B
b0001010 5
b00000000000000000000000001010 C
b00000000000000000000000001010 D
#2751
#2800
b0 !
#2850
b1 !
b0010 0
b0001 /
b001010 ?
b1 @
b0001010111 B
b0000000000000000 E
b0000000000000000 F
b1001000000000000000000 G
b01011000010001111110100111110001 O
b01101111001100111010111100001011 Q
b10100001010000000011000111000110 S
b01111101011001010111111001000001 U
b01101111001100111010111100001011 N
b10100001010000000011000111000110 P
b01111101011001010111111001000001 R
b00011010000010100001100001111101 T
b01100111000010000110000111110001 V
b0110000111110001 J
b0 K
b0 [
b00000000000000000 H
b0000000000000000 I
b0 L
b0 M
b01011000010001111110100111110001 N
b01101111001100111010111100001011 P
b10100001010000000011000111000110 R
b01111101011001010111111001000001 T
b1 [
b10 ]
b000000000000000000 4
b0001010 =
b0 @
b0001010011 B
b0001000000000000000000 G
#2851
#2900
b0 !
#2950
b1 !
b0001 0
b0000 /
#2951
#3000
b0 !
#3050
b1 !
b0000 0
b1 %
b01101111001100111010111100001011 &
b10100001010000000011000111000110 (
b01111101011001010111111001000001 *
b00011010000010100001100001111101 ,
b10110000111110001 3
b010110000111110001 4
b1001010 5
b001011 6
b10110000111110001001010001010 C
b10110000111110001001010001010 D
#3051
#3100
b0 !
#3150
b1 !
b01101111001100111010111100001011 '
b10100001010000000011000111000110 )
b01111101011001010111111001000001 +
b00011010000010100001100001111101 -
b10100001010000000011000111000110 &
b01111101011001010111111001000001 (
b00011010000010100001100001111101 *
b11101000101100111010011111000000 ,
b11110010010010111111011100001011 .
b0100 /
b11111011100001011 3
b001011 7
b001100 6
b001011 8
b001010001011000 <
b10110000111110001001011001010 C
b10110000111110001001011001010 D
b011111011100001011 4
b11111011100001011001011001010 C
b11111011100001011001011001010 D
#3151
#3200
b0 !
#3250
b1 !
b10100001010000000011000111000110 '
b01111101011001010111111001000001 )
b00011010000010100001100001111101 +
b11101000101100111010011111000000 -
b01111101011001010111111001000001 &
b00011010000010100001100001111101 (
b11101000101100111010011111000000 *
b01001000110111010111010100010001 ,
b10100000110011100000000111000110 .
b0100 0
b0 %
b10100001010000000011000111000110 &
b01111101011001010111111001000001 (
b00011010000010100001100001111101 *
b11101000101100111010011111000000 ,
b0011 /
b00000000000000000 3
b001100 7
b001011 9
b001101 6
b001100 8
b001011001100000 <
b0110000111110001 E
b0110000111110001 F
b0001011 =
b0001010010 B
b11111011100001011001100001010 C
b11111011100001011001100001010 D
b0001010110000111110001 G
b000000000000000000 4
b0001010 5
b001100 6
b00000000000000000000000001010 C
b00000000000000000000000001010 D
b10110000111110001 H
b0110000111110001 I
b1 K
b1 L
b1 M
b01101111001100111010111100001011 N
b10100001010000000011000111000110 P
b01111101011001010111111001000001 R
b00011010000010100001100001111101 T
b11 ]
b100000000000000000 4
b1001011 =
b001011 >
b1001011010 B
b0001011 5
b00000000000000000000000001011 C
b00000000000000000000000001011 D
#3251
#3300
b0 !
#3350
b1 !
b0011 0
b0010 /
b001100 9
b001100001100000 <
b001011 ?
b1 @
b0001011111 B
b1111011100001011 E
b1111011100001011 F
b1001100 =
b001100 >
b0 @
b1001100010 B
b0001100 5
b00000000000000000000000001100 C
b00000000000000000000000001100 D
b0001011111011100001011 G
b01101111001100111010111100001011 O
b10100001010000000011000111000110 Q
b01111101011001010111111001000001 S
b00011010000010100001100001111101 U
b10100001010000000011000111000110 N
b01111101011001010111111001000001 P
b00011010000010100001100001111101 R
b11101000101100111010011111000000 T
b11110010010010111111011100001011 V
b1111011100001011 J
b0 K
b0100 W
b0 [
b11111011100001011 H
b1111011100001011 I
b1 K
b1 [
#3351
#3400
b0 !
#3450
b1 !
b0010 0
b0001 /
b001100 ?
b1 @
b0001100111 B
b0000000000000000 E
b0000000000000000 F
b1001000000000000000000 G
b10100001010000000011000111000110 O
b01111101011001010111111001000001 Q
b00011010000010100001100001111101 S
b11101000101100111010011111000000 U
b01111101011001010111111001000001 N
b00011010000010100001100001111101 P
b11101000101100111010011111000000 R
b01001000110111010111010100010001 T
b10100000110011100000000111000110 V
b0100 X
b0000000111000110 J
b0 K
b0 L
b0 M
b10100001010000000011000111000110 N
b01111101011001010111111001000001 P
b00011010000010100001100001111101 R
b11101000101100111010011111000000 T
b0011 W
b10 ]
b000000000000000000 4
b0001100 =
b0 @
b0001100011 B
b0001000000000000000000 G
b00000000000000000 H
b0000000000000000 I
#3451
#3500
b0 !
#3550
b1 !
b0001 0
b0000 /
b0011 X
b0010 W
#3551
#3600
b0 !
#3650
b1 !
b0000 0
b1 %
b01111101011001010111111001000001 &
b00011010000010100001100001111101 (
b11101000101100111010011111000000 *
b01001000110111010111010100010001 ,
b0100 /
b10000000111000110 3
b0010 X
b0001 W
b010000000111000110 4
b1001100 5
b001101 6
b10000000111000110001100001100 C
b10000000111000110001100001100 D
#3651
#3700
b0 !
#3750
b1 !
b01111101011001010111111001000001 '
b00011010000010100001100001111101 )
b11101000101100111010011111000000 +
b01001000110111010111010100010001 -
b00011010000010100001100001111101 &
b11101000101100111010011111000000 (
b01001000110111010111010100010001 *
b00011110000111001001110100111101 ,
b01010110100101110111011001000001 .
b0100 0
b0 %
b01111101011001010111111001000001 &
b00011010000010100001100001111101 (
b11101000101100111010011111000000 *
b01001000110111010111010100010001 ,
b0011 /
b00000000000000000 3
b001101 7
b001110 6
b001101 8
b001100001101000 <
b10000000111000110001101001100 C
b10000000111000110001101001100 D
b0001 X
b0000 W
b000000000000000000 4
b0001100 5
b001101 6
b00000000000000000000000001100 C
b00000000000000000000000001100 D
#3751
#3800
b0 !
#3850
b1 !
b0011 0
b0010 /
b001101 9
b001101001101000 <
b0000000111000110 E
b0000000111000110 F
b0001101 =
b0001100010 B
b0001010000000111000110 G
b0000 X
b10000000111000110 H
b0000000111000110 I
b1 K
b1 L
b1 M
b01111101011001010111111001000001 N
b00011010000010100001100001111101 P
b11101000101100111010011111000000 R
b01001000110111010111010100010001 T
b11 ]
b100000000000000000 4
b1001101 =
b001101 >
b1001101010 B
b0001101 5
b00000000000000000000000001101 C
b00000000000000000000000001101 D
#3851
#3900
b0 !
#3950
b1 !
b0010 0
b0001 /
b001101 ?
b1 @
b0001101111 B
b0000000000000000 E
b0000000000000000 F
b1001000000000000000000 G
b01111101011001010111111001000001 O
b00011010000010100001100001111101 Q
b11101000101100111010011111000000 S
b01001000110111010111010100010001 U
b00011010000010100001100001111101 N
b11101000101100111010011111000000 P
b01001000110111010111010100010001 R
b00011110000111001001110100111101 T
b01010110100101110111011001000001 V
b0111011001000001 J
b0 K
b0 [
b00000000000000000 H
b0000000000000000 I
b0 L
b0 M
b01111101011001010111111001000001 N
b00011010000010100001100001111101 P
b11101000101100111010011111000000 R
b01001000110111010111010100010001 T
b1 [
b10 ]
b000000000000000000 4
b0001101 =
b0 @
b0001101011 B
b0001000000000000000000 G
#3951
#4000
b0 !
#4050
b1 !
b0001 0
b0000 /
#4051
#4100
b0 !
#4150
b1 !
b0000 0
b1 %
b00011010000010100001100001111101 &
b11101000101100111010011111000000 (
b01001000110111010111010100010001 *
b00011110000111001001110100111101 ,
b10111011001000001 3
b010111011001000001 4
b1001101 5
b001110 6
b10111011001000001001101001101 C
b10111011001000001001101001101 D
#4151
#4200
b0 !
#4250
b1 !
b00011010000010100001100001111101 '
b11101000101100111010011111000000 )
b01001000110111010111010100010001 +
b00011110000111001001110100111101 -
b11101000101100111010011111000000 &
b01001000110111010111010100010001 (
b00011110000111001001110100111101 *
b01010100100111111010011101110011 ,
b01001010110010011111000001111101 .
b11111000001111101 3
b001110 7
b001111 6
b001110 8
b001101001110000 <
b10111011001000001001110001101 C
b10111011001000001001110001101 D
b011111000001111101 4
b11111000001111101001110001101 C
b11111000001111101001110001101 D
#4251
#4300
b0 !
