crates/rhdl-fpga/vcd/stream/stream.vcd
$timescale 1 ps $end
$comment
    TraceInfo({"top.clock":Clock,"top.drainer._marker.constant.value":Bits(32),"top.drainer.drain_kernel.data":Bits(32),"top.drainer.drain_kernel.data_matches":Bits(1),"top.drainer.drain_kernel.validation":Bits(32),"top.drainer.drain_kernel.will_read":Bits(1),"top.drainer.input":Struct((name:"rhdl_fpga::fifo::testing::drainer::In<rhdl::rhdl_typenum::consts::U32>",fields:[(name:"data",ty:Enum((name:"Option::<rhdl::rhdl_bits::bits_impl::Bits<rhdl::rhdl_typenum::consts::U32>>",variants:[(name:"None",discriminant:0,ty:Empty),(name:"Some",discriminant:1,ty:Tuple((elements:[Bits(32)])))],discriminant_layout:(width:1,alignment:Msb,ty:Unsigned))))])),"top.drainer.outputs":Struct((name:"rhdl_fpga::fifo::testing::drainer::Out",fields:[(name:"next",ty:Bits(1)),(name:"valid",ty:Bits(1))])),"top.drainer.read_probability.constant.value":Bits(16),"top.drainer.rng.input":Bits(1),"top.drainer.rng.outputs":Bits(32),"top.drainer.rng.w.dff.input":Bits(32),"top.drainer.rng.w.dff.output":Bits(32),"top.drainer.rng.x.dff.input":Bits(32),"top.drainer.rng.x.dff.output":Bits(32),"top.drainer.rng.y.dff.input":Bits(32),"top.drainer.rng.y.dff.output":Bits(32),"top.drainer.rng.z.dff.input":Bits(32),"top.drainer.rng.z.dff.output":Bits(32),"top.drainer.sleep_counter.dff.input":Bits(4),"top.drainer.sleep_counter.dff.output":Bits(4),"top.drainer.sleep_len.constant.value":Bits(4),"top.drainer.valid.dff.input":Bits(1),"top.drainer.valid.dff.output":Bits(1),"top.filler._marker.constant.value":Bits(32),"top.filler.input":Struct((name:"rhdl_fpga::fifo::testing::filler::In",fields:[(name:"full",ty:Bits(1))])),"top.filler.outputs":Struct((name:"rhdl_fpga::fifo::testing::filler::Out<rhdl::rhdl_typenum::consts::U32>",fields:[(name:"data",ty:Enum((name:"Option::<rhdl::rhdl_bits::bits_impl::Bits<rhdl::rhdl_typenum::consts::U32>>",variants:[(name:"None",discriminant:0,ty:Empty),(name:"Some",discriminant:1,ty:Tuple((elements:[Bits(32)])))],discriminant_layout:(width:1,alignment:Msb,ty:Unsigned))))])),"top.filler.rng.input":Bits(1),"top.filler.rng.outputs":Bits(32),"top.filler.rng.w.dff.input":Bits(32),"top.filler.rng.w.dff.output":Bits(32),"top.filler.rng.x.dff.input":Bits(32),"top.filler.rng.x.dff.output":Bits(32),"top.filler.rng.y.dff.input":Bits(32),"top.filler.rng.y.dff.output":Bits(32),"top.filler.rng.z.dff.input":Bits(32),"top.filler.rng.z.dff.output":Bits(32),"top.filler.sleep_counter.dff.input":Bits(4),"top.filler.sleep_counter.dff.output":Bits(4),"top.filler.sleep_len.constant.value":Bits(4),"top.filler.write_probability.constant.value":Bits(16),"top.input":Empty,"top.outputs":Bits(1),"top.reset":Reset,"top.sink.data.inner.input":Struct((name:"rhdl_fpga::stream::stream_to_fifo::In<rhdl::rhdl_bits::bits_impl::Bits<rhdl::rhdl_typenum::consts::U32>>",fields:[(name:"data",ty:Enum((name:"Option::<rhdl::rhdl_bits::bits_impl::Bits<rhdl::rhdl_typenum::consts::U32>>",variants:[(name:"None",discriminant:0,ty:Empty),(name:"Some",discriminant:1,ty:Tuple((elements:[Bits(32)])))],discriminant_layout:(width:1,alignment:Msb,ty:Unsigned)))),(name:"next",ty:Bits(1))])),"top.sink.data.inner.one_slot.dff.input":Bits(32),"top.sink.data.inner.one_slot.dff.output":Bits(32),"top.sink.data.inner.outputs":Struct((name:"rhdl_fpga::stream::stream_to_fifo::Out<rhdl::rhdl_bits::bits_impl::Bits<rhdl::rhdl_typenum::consts::U32>>",fields:[(name:"data",ty:Enum((name:"Option::<rhdl::rhdl_bits::bits_impl::Bits<rhdl::rhdl_typenum::consts::U32>>",variants:[(name:"None",discriminant:0,ty:Empty),(name:"Some",discriminant:1,ty:Tuple((elements:[Bits(32)])))],discriminant_layout:(width:1,alignment:Msb,ty:Unsigned)))),(name:"ready",ty:Bits(1)),(name:"error",ty:Bits(1))])),"top.sink.data.inner.read_slot.dff.input":Bits(1),"top.sink.data.inner.read_slot.dff.output":Bits(1),"top.sink.data.inner.state.dff.input":Enum((name:"rhdl_fpga::stream::stream_to_fifo::State",variants:[(name:"Empty",discriminant:0,ty:Empty),(name:"OneLoaded",discriminant:1,ty:Empty),(name:"TwoLoaded",discriminant:2,ty:Empty),(name:"Error",discriminant:3,ty:Empty)],discriminant_layout:(width:2,alignment:Msb,ty:Unsigned))),"top.sink.data.inner.state.dff.output":Enum((name:"rhdl_fpga::stream::stream_to_fifo::State",variants:[(name:"Empty",discriminant:0,ty:Empty),(name:"OneLoaded",discriminant:1,ty:Empty),(name:"TwoLoaded",discriminant:2,ty:Empty),(name:"Error",discriminant:3,ty:Empty)],discriminant_layout:(width:2,alignment:Msb,ty:Unsigned))),"top.sink.data.inner.write_slot.dff.input":Bits(1),"top.sink.data.inner.write_slot.dff.output":Bits(1),"top.sink.data.inner.zero_slot.dff.input":Bits(32),"top.sink.data.inner.zero_slot.dff.output":Bits(32),"top.sink.data.input":Struct((name:"rhdl_fpga::axi4lite::channel::receiver::I<rhdl::rhdl_bits::bits_impl::Bits<rhdl::rhdl_typenum::consts::U32>>",fields:[(name:"bus",ty:Struct((name:"rhdl_fpga::axi4lite::channel::DataValid<rhdl::rhdl_bits::bits_impl::Bits<rhdl::rhdl_typenum::consts::U32>>",fields:[(name:"data",ty:Bits(32)),(name:"valid",ty:Bits(1))]))),(name:"next",ty:Bits(1))])),"top.sink.data.outputs":Struct((name:"rhdl_fpga::axi4lite::channel::receiver::O<rhdl::rhdl_bits::bits_impl::Bits<rhdl::rhdl_typenum::consts::U32>>",fields:[(name:"data",ty:Enum((name:"Option::<rhdl::rhdl_bits::bits_impl::Bits<rhdl::rhdl_typenum::consts::U32>>",variants:[(name:"None",discriminant:0,ty:Empty),(name:"Some",discriminant:1,ty:Tuple((elements:[Bits(32)])))],discriminant_layout:(width:1,alignment:Msb,ty:Unsigned)))),(name:"bus",ty:Struct((name:"rhdl_fpga::axi4lite::channel::Ready",fields:[(name:"ready",ty:Bits(1))])))])),"top.sink.input":Struct((name:"rhdl_fpga::axi4lite::stream::sink::I<rhdl::rhdl_bits::bits_impl::Bits<rhdl::rhdl_typenum::consts::U32>>",fields:[(name:"axi",ty:Struct((name:"rhdl_fpga::axi4lite::stream::StreamMOSI<rhdl::rhdl_bits::bits_impl::Bits<rhdl::rhdl_typenum::consts::U32>>",fields:[(name:"tdata",ty:Bits(32)),(name:"tvalid",ty:Bits(1))]))),(name:"next",ty:Bits(1))])),"top.sink.outputs":Struct((name:"rhdl_fpga::axi4lite::stream::sink::O<rhdl::rhdl_bits::bits_impl::Bits<rhdl::rhdl_typenum::consts::U32>>",fields:[(name:"axi",ty:Struct((name:"rhdl_fpga::axi4lite::stream::StreamMISO",fields:[(name:"tready",ty:Bits(1))]))),(name:"data",ty:Enum((name:"Option::<rhdl::rhdl_bits::bits_impl::Bits<rhdl::rhdl_typenum::consts::U32>>",variants:[(name:"None",discriminant:0,ty:Empty),(name:"Some",discriminant:1,ty:Tuple((elements:[Bits(32)])))],discriminant_layout:(width:1,alignment:Msb,ty:Unsigned))))])),"top.source.data.inner.input":Struct((name:"rhdl_fpga::stream::StreamIO<rhdl::rhdl_bits::bits_impl::Bits<rhdl::rhdl_typenum::consts::U32>>",fields:[(name:"data",ty:Enum((name:"Option::<rhdl::rhdl_bits::bits_impl::Bits<rhdl::rhdl_typenum::consts::U32>>",variants:[(name:"None",discriminant:0,ty:Empty),(name:"Some",discriminant:1,ty:Tuple((elements:[Bits(32)])))],discriminant_layout:(width:1,alignment:Msb,ty:Unsigned)))),(name:"ready",ty:Bits(1))])),"top.source.data.inner.one_slot.dff.input":Bits(32),"top.source.data.inner.one_slot.dff.output":Bits(32),"top.source.data.inner.outputs":Struct((name:"rhdl_fpga::stream::fifo_to_stream::Out<rhdl::rhdl_bits::bits_impl::Bits<rhdl::rhdl_typenum::consts::U32>>",fields:[(name:"data",ty:Enum((name:"Option::<rhdl::rhdl_bits::bits_impl::Bits<rhdl::rhdl_typenum::consts::U32>>",variants:[(name:"None",discriminant:0,ty:Empty),(name:"Some",discriminant:1,ty:Tuple((elements:[Bits(32)])))],discriminant_layout:(width:1,alignment:Msb,ty:Unsigned)))),(name:"full",ty:Bits(1)),(name:"error",ty:Bits(1))])),"top.source.data.inner.read_slot.dff.input":Bits(1),"top.source.data.inner.read_slot.dff.output":Bits(1),"top.source.data.inner.state.dff.input":Enum((name:"rhdl_fpga::stream::fifo_to_stream::State",variants:[(name:"Empty",discriminant:0,ty:Empty),(name:"OneLoaded",discriminant:1,ty:Empty),(name:"TwoLoaded",discriminant:2,ty:Empty),(name:"Error",discriminant:3,ty:Empty)],discriminant_layout:(width:2,alignment:Msb,ty:Unsigned))),"top.source.data.inner.state.dff.output":Enum((name:"rhdl_fpga::stream::fifo_to_stream::State",variants:[(name:"Empty",discriminant:0,ty:Empty),(name:"OneLoaded",discriminant:1,ty:Empty),(name:"TwoLoaded",discriminant:2,ty:Empty),(name:"Error",discriminant:3,ty:Empty)],discriminant_layout:(width:2,alignment:Msb,ty:Unsigned))),"top.source.data.inner.write_slot.dff.input":Bits(1),"top.source.data.inner.write_slot.dff.output":Bits(1),"top.source.data.inner.zero_slot.dff.input":Bits(32),"top.source.data.inner.zero_slot.dff.output":Bits(32),"top.source.data.input":Struct((name:"rhdl_fpga::axi4lite::channel::sender::I<rhdl::rhdl_bits::bits_impl::Bits<rhdl::rhdl_typenum::consts::U32>>",fields:[(name:"bus",ty:Struct((name:"rhdl_fpga::axi4lite::channel::Ready",fields:[(name:"ready",ty:Bits(1))]))),(name:"to_send",ty:Enum((name:"Option::<rhdl::rhdl_bits::bits_impl::Bits<rhdl::rhdl_typenum::consts::U32>>",variants:[(name:"None",discriminant:0,ty:Empty),(name:"Some",discriminant:1,ty:Tuple((elements:[Bits(32)])))],discriminant_layout:(width:1,alignment:Msb,ty:Unsigned))))])),"top.source.data.outputs":Struct((name:"rhdl_fpga::axi4lite::channel::sender::O<rhdl::rhdl_bits::bits_impl::Bits<rhdl::rhdl_typenum::consts::U32>>",fields:[(name:"bus",ty:Struct((name:"rhdl_fpga::axi4lite::channel::DataValid<rhdl::rhdl_bits::bits_impl::Bits<rhdl::rhdl_typenum::consts::U32>>",fields:[(name:"data",ty:Bits(32)),(name:"valid",ty:Bits(1))]))),(name:"full",ty:Bits(1))])),"top.source.input":Struct((name:"rhdl_fpga::axi4lite::stream::source::I<rhdl::rhdl_bits::bits_impl::Bits<rhdl::rhdl_typenum::consts::U32>>",fields:[(name:"axi",ty:Struct((name:"rhdl_fpga::axi4lite::stream::StreamMISO",fields:[(name:"tready",ty:Bits(1))]))),(name:"data",ty:Enum((name:"Option::<rhdl::rhdl_bits::bits_impl::Bits<rhdl::rhdl_typenum::consts::U32>>",variants:[(name:"None",discriminant:0,ty:Empty),(name:"Some",discriminant:1,ty:Tuple((elements:[Bits(32)])))],discriminant_layout:(width:1,alignment:Msb,ty:Unsigned))))])),"top.source.outputs":Struct((name:"rhdl_fpga::axi4lite::stream::source::O<rhdl::rhdl_bits::bits_impl::Bits<rhdl::rhdl_typenum::consts::U32>>",fields:[(name:"axi",ty:Struct((name:"rhdl_fpga::axi4lite::stream::StreamMOSI<rhdl::rhdl_bits::bits_impl::Bits<rhdl::rhdl_typenum::consts::U32>>",fields:[(name:"tdata",ty:Bits(32)),(name:"tvalid",ty:Bits(1))]))),(name:"full",ty:Bits(1))]))})
$end
$scope module top $end
$var wire 1 ! clock $end
$var wire 1 " input $end
$var wire 1 # outputs $end
$var wire 1 $ reset $end
$scope module drainer $end
$var wire 33 % input $end
$var wire 2 & outputs $end
$scope module _marker $end
$scope module constant $end
$var wire 32 ' value $end
$upscope $end
$upscope $end
$scope module drain_kernel $end
$var wire 32 ( data $end
$var wire 1 ) data_matches $end
$var wire 32 * validation $end
$var wire 1 + will_read $end
$upscope $end
$scope module read_probability $end
$scope module constant $end
$var wire 16 , value $end
$upscope $end
$upscope $end
$scope module rng $end
$var wire 1 - input $end
$var wire 32 . outputs $end
$scope module w $end
$scope module dff $end
$var wire 32 / input $end
$var wire 32 0 output $end
$upscope $end
$upscope $end
$scope module x $end
$scope module dff $end
$var wire 32 1 input $end
$var wire 32 2 output $end
$upscope $end
$upscope $end
$scope module y $end
$scope module dff $end
$var wire 32 3 input $end
$var wire 32 4 output $end
$upscope $end
$upscope $end
$scope module z $end
$scope module dff $end
$var wire 32 5 input $end
$var wire 32 6 output $end
$upscope $end
$upscope $end
$upscope $end
$scope module sleep_counter $end
$scope module dff $end
$var wire 4 7 input $end
$var wire 4 8 output $end
$upscope $end
$upscope $end
$scope module sleep_len $end
$scope module constant $end
$var wire 4 9 value $end
$upscope $end
$upscope $end
$scope module valid $end
$scope module dff $end
$var wire 1 : input $end
$var wire 1 ; output $end
$upscope $end
$upscope $end
$upscope $end
$scope module filler $end
$var wire 1 < input $end
$var wire 33 = outputs $end
$scope module _marker $end
$scope module constant $end
$var wire 32 > value $end
$upscope $end
$upscope $end
$scope module rng $end
$var wire 1 ? input $end
$var wire 32 @ outputs $end
$scope module w $end
$scope module dff $end
$var wire 32 A input $end
$var wire 32 B output $end
$upscope $end
$upscope $end
$scope module x $end
$scope module dff $end
$var wire 32 C input $end
$var wire 32 D output $end
$upscope $end
$upscope $end
$scope module y $end
$scope module dff $end
$var wire 32 E input $end
$var wire 32 F output $end
$upscope $end
$upscope $end
$scope module z $end
$scope module dff $end
$var wire 32 G input $end
$var wire 32 H output $end
$upscope $end
$upscope $end
$upscope $end
$scope module sleep_counter $end
$scope module dff $end
$var wire 4 I input $end
$var wire 4 J output $end
$upscope $end
$upscope $end
$scope module sleep_len $end
$scope module constant $end
$var wire 4 K value $end
$upscope $end
$upscope $end
$scope module write_probability $end
$scope module constant $end
$var wire 16 L value $end
$upscope $end
$upscope $end
$upscope $end
$scope module sink $end
$var wire 34 M input $end
$var wire 34 N outputs $end
$scope module data $end
$var wire 34 O input $end
$var wire 34 P outputs $end
$scope module inner $end
$var wire 34 Q input $end
$var wire 35 R outputs $end
$scope module one_slot $end
$scope module dff $end
$var wire 32 S input $end
$var wire 32 T output $end
$upscope $end
$upscope $end
$scope module read_slot $end
$scope module dff $end
$var wire 1 U input $end
$var wire 1 V output $end
$upscope $end
$upscope $end
$scope module state $end
$scope module dff $end
$var wire 2 W input $end
$var wire 2 X output $end
$upscope $end
$upscope $end
$scope module write_slot $end
$scope module dff $end
$var wire 1 Y input $end
$var wire 1 Z output $end
$upscope $end
$upscope $end
$scope module zero_slot $end
$scope module dff $end
$var wire 32 [ input $end
$var wire 32 \ output $end
$upscope $end
$upscope $end
$upscope $end
$upscope $end
$upscope $end
$scope module source $end
$var wire 34 ] input $end
$var wire 34 ^ outputs $end
$scope module data $end
$var wire 34 _ input $end
$var wire 34 ` outputs $end
$scope module inner $end
$var wire 34 a input $end
$var wire 35 b outputs $end
$scope module one_slot $end
$scope module dff $end
$var wire 32 c input $end
$var wire 32 d output $end
$upscope $end
$upscope $end
$scope module read_slot $end
$scope module dff $end
$var wire 1 e input $end
$var wire 1 f output $end
$upscope $end
$upscope $end
$scope module state $end
$scope module dff $end
$var wire 2 g input $end
$var wire 2 h output $end
$upscope $end
$upscope $end
$scope module write_slot $end
$scope module dff $end
$var wire 1 i input $end
$var wire 1 j output $end
$upscope $end
$upscope $end
$scope module zero_slot $end
$scope module dff $end
$var wire 32 k input $end
$var wire 32 l output $end
$upscope $end
$upscope $end
$upscope $end
$upscope $end
$upscope $end
$upscope $end
$enddefinitions $end
#0
b0 !
b1 #
b1 $
b000000000000000000000000000000000 %
b10 &
b00000000000000000000000000000000 '
b00000000000000000000000000000000 (
b1 )
b00000000000000000000000000000000 *
b0 +
b0111111111111111 ,
b0 -
b00000000000000000000000000000000 .
b00000000000000000000000000000000 /
b00000000000000000000000000000000 0
b00000000000000000000000000000000 1
b00000000000000000000000000000000 2
b00000000000000000000000000000000 3
b00000000000000000000000000000000 4
b00000000000000000000000000000000 5
b00000000000000000000000000000000 6
b0000 7
b0000 8
b0010 9
b1 :
b0 ;
b0 <
b000000000000000000000000000000000 =
b00000000000000000000000000000000 >
b1 ?
b00000000000000000000000000000000 @
b00000000000000000000000000000000 A
b00000000000000000000000000000000 B
b00000000000000000000000000000000 C
b00000000000000000000000000000000 D
b00000000000000000000000000000000 E
b00000000000000000000000000000000 F
b00000000000000000000000000000000 G
b00000000000000000000000000000000 H
b0000 I
b0000 J
b0010 K
b0111111111111111 L
b0000000000000000000000000000000000 M
b0000000000000000000000000000000000 N
b0000000000000000000000000000000000 O
b0000000000000000000000000000000000 P
b0000000000000000000000000000000000 Q
b01000000000000000000000000000000000 R
b00000000000000000000000000000000 S
b00000000000000000000000000000000 T
b0 U
b0 V
b00 W
b00 X
b0 Y
b0 Z
b00000000000000000000000000000000 [
b00000000000000000000000000000000 \
b0000000000000000000000000000000000 ]
b0000000000000000000000000000000000 ^
b0000000000000000000000000000000000 _
b0000000000000000000000000000000000 `
b0000000000000000000000000000000000 a
b00000000000000000000000000000000000 b
b00000000000000000000000000000000 c
b00000000000000000000000000000000 d
b0 e
b0 f
b00 g
b00 h
b0 i
b0 j
b00000000000000000000000000000000 k
b00000000000000000000000000000000 l
#50
b1 !
b0 )
b10101011001110100011110001100010 *
b10101011001110100011110001100010 .
b10000100001100100011001101010010 /
b10000100001100100011001101010010 0
b01100010010110010010110001100010 1
b01100010010110010010110001100010 2
b01000010001110110110001000100101 3
b01000010001110110110001000100101 4
b00111010011000010011100101100110 5
b00111010011000010011100101100110 6
b1 ;
b10101011001110100011110001100010 @
b00101111101000110010010110001010 A
b10000100001100100011001101010010 B
b01000010001110110110001000100101 C
b01100010010110010010110001100010 D
b00111010011000010011100101100110 E
b01000010001110110110001000100101 F
b10000100001100100011001101010010 G
b00111010011000010011100101100110 H
b0010 I
#51
b0 $
b110101011001110100011110001100010 =
b0000000000000000000000000000000001 N
b1000000000000000000000000000000000 P
b1101010110011101000111100011000101 ]
b1101010110011101000111100011000101 _
b1110101011001110100011110001100010 a
b01 g
b1 i
b10101011001110100011110001100010 k
#100
b0 !
#150
b1 !
b000000000000000000000000000000000 =
b0 ?
b10011001001010100100101000100101 @
b10110110000100000100000000010001 A
b00101111101000110010010110001010 B
b00111010011000010011100101100110 C
b01000010001110110110001000100101 D
b10000100001100100011001101010010 E
b00111010011000010011100101100110 F
b00101111101000110010010110001010 G
b10000100001100100011001101010010 H
b0001 I
b0010 J
b0110101011001110100011110001100010 M
b0110101011001110100011110001100010 O
b0110101011001110100011110001100010 Q
b01 W
b1 Y
b10101011001110100011110001100010 [
b0000000000000000000000000000000001 ]
b0110101011001110100011110001100010 ^
b0000000000000000000000000000000001 _
b0110101011001110100011110001100010 `
b1000000000000000000000000000000000 a
b00110101011001110100011110001100010 b
b10101011001110100011110001100010 c
b1 e
b00 g
b01 h
b0 i
b1 j
b10101011001110100011110001100010 l
b00101111101000110010010110001010 A
b01000010001110110110001000100101 C
b00111010011000010011100101100110 E
b10000100001100100011001101010010 G
b00000000000000000000000000000000 c
b1 i
#200
b0 !
#250
b1 !
b110101011001110100011110001100010 %
b11 &
b10101011001110100011110001100010 (
b1 )
b1 +
b1 -
b00101111101000110010010110001010 /
b01000010001110110110001000100101 1
b00111010011000010011100101100110 3
b10000100001100100011001101010010 5
b0000 I
b0001 J
b0000000000000000000000000000000000 M
b1101010110011101000111100011000101 N
b0000000000000000000000000000000000 O
b1110101011001110100011110001100010 P
b0000000000000000000000000000000000 Q
b01110101011001110100011110001100010 R
b10101011001110100011110001100010 S
b1 U
b10 W
b01 X
b0 Y
b1 Z
b10101011001110100011110001100010 \
b0000000000000000000000000000000000 ^
b0000000000000000000000000000000000 `
b00000000000000000000000000000000000 b
b1 f
b00 h
b1000000000000000000000000000000000 M
b1000000000000000000000000000000000 O
b1000000000000000000000000000000000 Q
b00000000000000000000000000000000 S
b01 W
b1 Y
b00 W
#300
b0 !
#350
b1 !
b000000000000000000000000000000000 %
b10 &
b00000000000000000000000000000000 (
b0 )
b10011001001010100100101000100101 *
b0 +
b0 -
b10011001001010100100101000100101 .
b10110110000100000100000000010001 /
b00101111101000110010010110001010 0
b00111010011000010011100101100110 1
b01000010001110110110001000100101 2
b10000100001100100011001101010010 3
b00111010011000010011100101100110 4
b00101111101000110010010110001010 5
b10000100001100100011001101010010 6
b0 :
b110011001001010100100101000100101 =
b1 ?
b10110110000100000100000000010001 A
b00111010011000010011100101100110 C
b10000100001100100011001101010010 E
b00101111101000110010010110001010 G
b0010 I
b0000 J
b0000000000000000000000000000000000 M
b0000000000000000000000000000000001 N
b0000000000000000000000000000000000 O
b1000000000000000000000000000000000 P
b0000000000000000000000000000000000 Q
b01000000000000000000000000000000000 R
b0 U
b1 V
b11 W
b00 X
b1100110010010101001001010001001011 ]
b1100110010010101001001010001001011 _
b1110011001001010100100101000100101 a
b10011001001010100100101000100101 c
b01 g
b0 i
b00101111101000110010010110001010 /
b01000010001110110110001000100101 1
b00111010011000010011100101100110 3
b10000100001100100011001101010010 5
b1 :
b1 U
b00 W
#400
b0 !
#450
b1 !
b000000000000000000000000000000000 =
b0 ?
b00110011101010100000100101100110 @
b10000101100010011111010110111100 A
b10110110000100000100000000010001 B
b10000100001100100011001101010010 C
b00111010011000010011100101100110 D
b00101111101000110010010110001010 E
b10000100001100100011001101010010 F
b10110110000100000100000000010001 G
b00101111101000110010010110001010 H
b0001 I
b0010 J
b0110011001001010100100101000100101 M
b0110011001001010100100101000100101 O
b0110011001001010100100101000100101 Q
b10011001001010100100101000100101 S
b01 W
b0 Y
b0000000000000000000000000000000001 ]
b0110011001001010100100101000100101 ^
b0000000000000000000000000000000001 _
b0110011001001010100100101000100101 `
b1000000000000000000000000000000000 a
b00110011001001010100100101000100101 b
b10011001001010100100101000100101 d
b0 e
b00 g
b01 h
b1 i
b0 j
b10011001001010100100101000100101 k
b10110110000100000100000000010001 A
b00111010011000010011100101100110 C
b10000100001100100011001101010010 E
b00101111101000110010010110001010 G
b0 i
b10101011001110100011110001100010 k
#500
b0 !
#550
b1 !
b110011001001010100100101000100101 %
b11 &
b10011001001010100100101000100101 (
b1 )
b1 +
b1 -
b10110110000100000100000000010001 /
b00111010011000010011100101100110 1
b10000100001100100011001101010010 3
b00101111101000110010010110001010 5
b0000 I
b0001 J
b0000000000000000000000000000000000 M
b1100110010010101001001010001001011 N
b0000000000000000000000000000000000 O
b1110011001001010100100101000100101 P
b0000000000000000000000000000000000 Q
b01110011001001010100100101000100101 R
b10011001001010100100101000100101 T
b0 U
b10 W
b01 X
b1 Y
b0 Z
b10011001001010100100101000100101 [
b0000000000000000000000000000000000 ^
b0000000000000000000000000000000000 `
b00000000000000000000000000000000000 b
b0 f
b00 h
b1000000000000000000000000000000000 M
b1000000000000000000000000000000000 O
b1000000000000000000000000000000000 Q
b01 W
b0 Y
b10101011001110100011110001100010 [
b00 W
#600
b0 !
#650
b1 !
b000000000000000000000000000000000 %
b10 &
b00000000000000000000000000000000 (
b0 )
b00110011101010100000100101100110 *
b0 +
b0 -
b00110011101010100000100101100110 .
b10000101100010011111010110111100 /
b10110110000100000100000000010001 0
b10000100001100100011001101010010 1
b00111010011000010011100101100110 2
b00101111101000110010010110001010 3
b10000100001100100011001101010010 4
b10110110000100000100000000010001 5
b00101111101000110010010110001010 6
b0 :
b100110011101010100000100101100110 =
b1 ?
b10000101100010011111010110111100 A
b10000100001100100011001101010010 C
b00101111101000110010010110001010 E
b10110110000100000100000000010001 G
b0000 J
b0000000000000000000000000000000000 M
b0000000000000000000000000000000001 N
b0000000000000000000000000000000000 O
b1000000000000000000000000000000000 P
b0000000000000000000000000000000000 Q
b01000000000000000000000000000000000 R
b1 U
b0 V
b11 W
b00 X
b1001100111010101000001001011001101 ]
b1001100111010101000001001011001101 _
b1100110011101010100000100101100110 a
b01 g
b1 i
b00110011101010100000100101100110 k
b10110110000100000100000000010001 /
b00111010011000010011100101100110 1
b10000100001100100011001101010010 3
b00101111101000110010010110001010 5
b1 :
b0 U
b00 W
#700
b0 !
#750
b1 !
b100010101101010001010001101010010 =
b00010101101010001010001101010010 @
b10010000001101001110111011111100 A
b10000101100010011111010110111100 B
b00101111101000110010010110001010 C
b10000100001100100011001101010010 D
b10110110000100000100000000010001 E
b00101111101000110010010110001010 F
b10000101100010011111010110111100 G
b10110110000100000100000000010001 H
b0100110011101010100000100101100110 M
b0100110011101010100000100101100110 O
b0100110011101010100000100101100110 Q
b01 W
b1 Y
b00110011101010100000100101100110 [
b1000101011010100010100011010100101 ]
b0100110011101010100000100101100110 ^
b1000101011010100010100011010100101 _
b0100110011101010100000100101100110 `
b1100010101101010001010001101010010 a
b00100110011101010100000100101100110 b
b00110011101010100000100101100110 c
b1 e
b01 h
b0 i
b1 j
b00110011101010100000100101100110 l
b00010101101010001010001101010010 c
#800
b0 !
#850
b1 !
b100110011101010100000100101100110 %
b11 &
b00110011101010100000100101100110 (
b1 )
b1 +
b1 -
b10000101100010011111010110111100 /
b10000100001100100011001101010010 1
b00101111101000110010010110001010 3
b10110110000100000100000000010001 5
b100110110100011110111010110001010 =
b00110110100011110111010110001010 @
b10100110100011010000011000000101 A
b10010000001101001110111011111100 B
b10110110000100000100000000010001 C
b00101111101000110010010110001010 D
b10000101100010011111010110111100 E
b10110110000100000100000000010001 F
b10010000001101001110111011111100 G
b10000101100010011111010110111100 H
b0100010101101010001010001101010010 M
b1001100111010101000001001011001101 N
b0100010101101010001010001101010010 O
b1100110011101010100000100101100110 P
b0100010101101010001010001101010010 Q
b01100110011101010100000100101100110 R
b00110011101010100000100101100110 S
b1 U
b10 W
b01 X
b0 Y
b1 Z
b00110011101010100000100101100110 \
b1001101101000111101110101100010101 ]
b0100010101101010001010001101010010 ^
b1001101101000111101110101100010101 _
b0100010101101010001010001101010010 `
b1100110110100011110111010110001010 a
b00100010101101010001010001101010010 b
b00010101101010001010001101010010 d
b0 e
b1 f
b1 i
b0 j
b00010101101010001010001101010010 k
b1100010101101010001010001101010010 M
b1100010101101010001010001101010010 O
b1100010101101010001010001101010010 Q
b00010101101010001010001101010010 S
b01 W
b00110110100011110111010110001010 k
#900
b0 !
#950
b1 !
b100010101101010001010001101010010 %
b00010101101010001010001101010010 (
b0 )
b00010101101010001010001101010010 *
b00010101101010001010001101010010 .
b10010000001101001110111011111100 /
b10000101100010011111010110111100 0
b00101111101000110010010110001010 1
b10000100001100100011001101010010 2
b10110110000100000100000000010001 3
b00101111101000110010010110001010 4
b10000101100010011111010110111100 5
b10110110000100000100000000010001 6
b0010 7
b0 :
b100110100000100001100100000010001 =
b00110100000100001100100000010001 @
b10010010101010011100101000001101 A
b10100110100011010000011000000101 B
b10000101100010011111010110111100 C
b10110110000100000100000000010001 D
b10010000001101001110111011111100 E
b10000101100010011111010110111100 F
b10100110100011010000011000000101 G
b10010000001101001110111011111100 H
b1100110110100011110111010110001010 M
b1000101011010100010100011010100101 N
b1100110110100011110111010110001010 O
b1100010101101010001010001101010010 P
b1100110110100011110111010110001010 Q
b01100010101101010001010001101010010 R
b00010101101010001010001101010010 T
b0 U
b1 V
b1 Y
b0 Z
b00010101101010001010001101010010 [
b1001101000001000011001000000100011 ]
b0100110110100011110111010110001010 ^
b1001101000001000011001000000100011 _
b0100110110100011110111010110001010 `
b1100110100000100001100100000010001 a
b00100110110100011110111010110001010 b
b00110110100011110111010110001010 c
b1 e
b0 f
b0 i
b1 j
b00110110100011110111010110001010 l
b1 )
b1 :
b00110110100011110111010110001010 [
b00110100000100001100100000010001 c
#1000
b0 !
#1050
b1 !
b100110110100011110111010110001010 %
b10 &
b00110110100011110111010110001010 (
b0 )
b00110110100011110111010110001010 *
b0 +
b0 -
b00110110100011110111010110001010 .
b10100110100011010000011000000101 /
b10010000001101001110111011111100 0
b10110110000100000100000000010001 1
b00101111101000110010010110001010 2
b10000101100010011111010110111100 3
b10110110000100000100000000010001 4
b10010000001101001110111011111100 5
b10000101100010011111010110111100 6
b0001 7
b0010 8
b111001010001001000001010110111100 =
b11001010001001000001010110111100 @
b01011000010001111110100111110001 A
b10010010101010011100101000001101 B
b10010000001101001110111011111100 C
b10000101100010011111010110111100 D
b10100110100011010000011000000101 E
b10010000001101001110111011111100 F
b10010010101010011100101000001101 G
b10100110100011010000011000000101 H
b0010 I
b0100110100000100001100100000010001 M
b1001101101000111101110101100010101 N
b0100110100000100001100100000010001 O
b1100110110100011110111010110001010 P
b0100110100000100001100100000010001 Q
b01100110110100011110111010110001010 R
b00110110100011110111010110001010 S
b1 U
b0 V
b10 W
b0 Y
b1 Z
b00110110100011110111010110001010 \
b1110010100010010000010101101111001 ]
b0100110100000100001100100000010001 ^
b1110010100010010000010101101111001 _
b0100110100000100001100100000010001 `
b1111001010001001000001010110111100 a
b00100110100000100001100100000010001 b
b00110100000100001100100000010001 d
b0 e
b1 f
b1 i
b0 j
b00110100000100001100100000010001 k
b1 )
b10010000001101001110111011111100 /
b00101111101000110010010110001010 1
b10110110000100000100000000010001 3
b10000101100010011111010110111100 5
b00110100000100001100100000010001 S
b0 U
b11001010001001000001010110111100 k
#1100
b0 !
