crates/rhdl-fpga/vcd/axi4lite/basic/basic_read_test.vcd
$timescale 1 ps $end
$comment
    TraceInfo({"top.clock":Clock,"top.input":Struct((name:"rhdl_fpga::axi4lite::basic::testing::read::I",fields:[(name:"cmd",ty:Enum((name:"Option::<rhdl_bits::bits_impl::Bits<32>>",variants:[(name:"None",discriminant:0,ty:Empty),(name:"Some",discriminant:1,ty:Tuple((elements:[Bits(32)])))],discriminant_layout:(width:1,alignment:Msb,ty:Unsigned))))])),"top.manager.addr.inner.inner.aux_ff.dff.input":Bits(32),"top.manager.addr.inner.inner.aux_ff.dff.output":Bits(32),"top.manager.addr.inner.inner.input":Struct((name:"rhdl_fpga::lid::carloni::I<rhdl_bits::bits_impl::Bits<32>>",fields:[(name:"data_in",ty:Bits(32)),(name:"void_in",ty:Bits(1)),(name:"stop_in",ty:Bits(1))])),"top.manager.addr.inner.inner.main_ff.dff.input":Bits(32),"top.manager.addr.inner.inner.main_ff.dff.output":Bits(32),"top.manager.addr.inner.inner.outputs":Struct((name:"rhdl_fpga::lid::carloni::O<rhdl_bits::bits_impl::Bits<32>>",fields:[(name:"data_out",ty:Bits(32)),(name:"void_out",ty:Bits(1)),(name:"stop_out",ty:Bits(1))])),"top.manager.addr.inner.inner.state_ff.dff.input":Enum((name:"rhdl_fpga::lid::carloni::State",variants:[(name:"Run",discriminant:0,ty:Empty),(name:"Stall",discriminant:1,ty:Empty)],discriminant_layout:(width:1,alignment:Msb,ty:Unsigned))),"top.manager.addr.inner.inner.state_ff.dff.output":Enum((name:"rhdl_fpga::lid::carloni::State",variants:[(name:"Run",discriminant:0,ty:Empty),(name:"Stall",discriminant:1,ty:Empty)],discriminant_layout:(width:1,alignment:Msb,ty:Unsigned))),"top.manager.addr.inner.inner.void_ff.dff.input":Bits(1),"top.manager.addr.inner.inner.void_ff.dff.output":Bits(1),"top.manager.addr.inner.input":Struct((name:"rhdl_fpga::lid::option_carloni::I<rhdl_bits::bits_impl::Bits<32>>",fields:[(name:"data",ty:Enum((name:"Option::<rhdl_bits::bits_impl::Bits<32>>",variants:[(name:"None",discriminant:0,ty:Empty),(name:"Some",discriminant:1,ty:Tuple((elements:[Bits(32)])))],discriminant_layout:(width:1,alignment:Msb,ty:Unsigned)))),(name:"ready",ty:Bits(1))])),"top.manager.addr.inner.outputs":Struct((name:"rhdl_fpga::lid::option_carloni::O<rhdl_bits::bits_impl::Bits<32>>",fields:[(name:"data",ty:Enum((name:"Option::<rhdl_bits::bits_impl::Bits<32>>",variants:[(name:"None",discriminant:0,ty:Empty),(name:"Some",discriminant:1,ty:Tuple((elements:[Bits(32)])))],discriminant_layout:(width:1,alignment:Msb,ty:Unsigned)))),(name:"ready",ty:Bits(1))])),"top.manager.addr.input":Struct((name:"rhdl_fpga::axi4lite::channel::sender::I<rhdl_bits::bits_impl::Bits<32>>",fields:[(name:"bus",ty:Struct((name:"rhdl_fpga::axi4lite::channel::Ready",fields:[(name:"ready",ty:Bits(1))]))),(name:"to_send",ty:Enum((name:"Option::<rhdl_bits::bits_impl::Bits<32>>",variants:[(name:"None",discriminant:0,ty:Empty),(name:"Some",discriminant:1,ty:Tuple((elements:[Bits(32)])))],discriminant_layout:(width:1,alignment:Msb,ty:Unsigned))))])),"top.manager.addr.outputs":Struct((name:"rhdl_fpga::axi4lite::channel::sender::O<rhdl_bits::bits_impl::Bits<32>>",fields:[(name:"bus",ty:Struct((name:"rhdl_fpga::axi4lite::channel::DataValid<rhdl_bits::bits_impl::Bits<32>>",fields:[(name:"data",ty:Bits(32)),(name:"valid",ty:Bits(1))]))),(name:"ready",ty:Bits(1))])),"top.manager.data.inner.inner.aux_ff.dff.input":Struct((name:"rhdl_fpga::axi4lite::types::ReadResponse",fields:[(name:"resp",ty:Bits(2)),(name:"data",ty:Bits(32))])),"top.manager.data.inner.inner.aux_ff.dff.output":Struct((name:"rhdl_fpga::axi4lite::types::ReadResponse",fields:[(name:"resp",ty:Bits(2)),(name:"data",ty:Bits(32))])),"top.manager.data.inner.inner.input":Struct((name:"rhdl_fpga::lid::carloni::I<rhdl_fpga::axi4lite::types::ReadResponse>",fields:[(name:"data_in",ty:Struct((name:"rhdl_fpga::axi4lite::types::ReadResponse",fields:[(name:"resp",ty:Bits(2)),(name:"data",ty:Bits(32))]))),(name:"void_in",ty:Bits(1)),(name:"stop_in",ty:Bits(1))])),"top.manager.data.inner.inner.main_ff.dff.input":Struct((name:"rhdl_fpga::axi4lite::types::ReadResponse",fields:[(name:"resp",ty:Bits(2)),(name:"data",ty:Bits(32))])),"top.manager.data.inner.inner.main_ff.dff.output":Struct((name:"rhdl_fpga::axi4lite::types::ReadResponse",fields:[(name:"resp",ty:Bits(2)),(name:"data",ty:Bits(32))])),"top.manager.data.inner.inner.outputs":Struct((name:"rhdl_fpga::lid::carloni::O<rhdl_fpga::axi4lite::types::ReadResponse>",fields:[(name:"data_out",ty:Struct((name:"rhdl_fpga::axi4lite::types::ReadResponse",fields:[(name:"resp",ty:Bits(2)),(name:"data",ty:Bits(32))]))),(name:"void_out",ty:Bits(1)),(name:"stop_out",ty:Bits(1))])),"top.manager.data.inner.inner.state_ff.dff.input":Enum((name:"rhdl_fpga::lid::carloni::State",variants:[(name:"Run",discriminant:0,ty:Empty),(name:"Stall",discriminant:1,ty:Empty)],discriminant_layout:(width:1,alignment:Msb,ty:Unsigned))),"top.manager.data.inner.inner.state_ff.dff.output":Enum((name:"rhdl_fpga::lid::carloni::State",variants:[(name:"Run",discriminant:0,ty:Empty),(name:"Stall",discriminant:1,ty:Empty)],discriminant_layout:(width:1,alignment:Msb,ty:Unsigned))),"top.manager.data.inner.inner.void_ff.dff.input":Bits(1),"top.manager.data.inner.inner.void_ff.dff.output":Bits(1),"top.manager.data.inner.input":Struct((name:"rhdl_fpga::lid::option_carloni::I<rhdl_fpga::axi4lite::types::ReadResponse>",fields:[(name:"data",ty:Enum((name:"Option::<rhdl_fpga::axi4lite::types::ReadResponse>",variants:[(name:"None",discriminant:0,ty:Empty),(name:"Some",discriminant:1,ty:Tuple((elements:[Struct((name:"rhdl_fpga::axi4lite::types::ReadResponse",fields:[(name:"resp",ty:Bits(2)),(name:"data",ty:Bits(32))]))])))],discriminant_layout:(width:1,alignment:Msb,ty:Unsigned)))),(name:"ready",ty:Bits(1))])),"top.manager.data.inner.outputs":Struct((name:"rhdl_fpga::lid::option_carloni::O<rhdl_fpga::axi4lite::types::ReadResponse>",fields:[(name:"data",ty:Enum((name:"Option::<rhdl_fpga::axi4lite::types::ReadResponse>",variants:[(name:"None",discriminant:0,ty:Empty),(name:"Some",discriminant:1,ty:Tuple((elements:[Struct((name:"rhdl_fpga::axi4lite::types::ReadResponse",fields:[(name:"resp",ty:Bits(2)),(name:"data",ty:Bits(32))]))])))],discriminant_layout:(width:1,alignment:Msb,ty:Unsigned)))),(name:"ready",ty:Bits(1))])),"top.manager.data.input":Struct((name:"rhdl_fpga::axi4lite::channel::receiver::I<rhdl_fpga::axi4lite::types::ReadResponse>",fields:[(name:"bus",ty:Struct((name:"rhdl_fpga::axi4lite::channel::DataValid<rhdl_fpga::axi4lite::types::ReadResponse>",fields:[(name:"data",ty:Struct((name:"rhdl_fpga::axi4lite::types::ReadResponse",fields:[(name:"resp",ty:Bits(2)),(name:"data",ty:Bits(32))]))),(name:"valid",ty:Bits(1))]))),(name:"ready",ty:Bits(1))])),"top.manager.data.outputs":Struct((name:"rhdl_fpga::axi4lite::channel::receiver::O<rhdl_fpga::axi4lite::types::ReadResponse>",fields:[(name:"data",ty:Enum((name:"Option::<rhdl_fpga::axi4lite::types::ReadResponse>",variants:[(name:"None",discriminant:0,ty:Empty),(name:"Some",discriminant:1,ty:Tuple((elements:[Struct((name:"rhdl_fpga::axi4lite::types::ReadResponse",fields:[(name:"resp",ty:Bits(2)),(name:"data",ty:Bits(32))]))])))],discriminant_layout:(width:1,alignment:Msb,ty:Unsigned)))),(name:"bus",ty:Struct((name:"rhdl_fpga::axi4lite::channel::Ready",fields:[(name:"ready",ty:Bits(1))])))])),"top.manager.input":Struct((name:"rhdl_fpga::axi4lite::basic::manager::read::I",fields:[(name:"axi",ty:Struct((name:"rhdl_fpga::axi4lite::types::ReadMISO",fields:[(name:"arready",ty:Bits(1)),(name:"rdata",ty:Bits(32)),(name:"rresp",ty:Bits(2)),(name:"rvalid",ty:Bits(1))]))),(name:"cmd",ty:Enum((name:"Option::<rhdl_bits::bits_impl::Bits<32>>",variants:[(name:"None",discriminant:0,ty:Empty),(name:"Some",discriminant:1,ty:Tuple((elements:[Bits(32)])))],discriminant_layout:(width:1,alignment:Msb,ty:Unsigned))))])),"top.manager.outputs":Struct((name:"rhdl_fpga::axi4lite::basic::manager::read::O",fields:[(name:"axi",ty:Struct((name:"rhdl_fpga::axi4lite::types::ReadMOSI",fields:[(name:"araddr",ty:Bits(32)),(name:"arvalid",ty:Bits(1)),(name:"rready",ty:Bits(1))]))),(name:"data",ty:Enum((name:"Option::<core::result::Result<rhdl_bits::bits_impl::Bits<32>, rhdl_fpga::axi4lite::types::AXI4Error>>",variants:[(name:"None",discriminant:0,ty:Empty),(name:"Some",discriminant:1,ty:Tuple((elements:[Enum((name:"Result::<rhdl_bits::bits_impl::Bits<32>, rhdl_fpga::axi4lite::types::AXI4Error>",variants:[(name:"Err",discriminant:0,ty:Tuple((elements:[Enum((name:"rhdl_fpga::axi4lite::types::AXI4Error",variants:[(name:"SLVERR",discriminant:0,ty:Empty),(name:"DECERR",discriminant:1,ty:Empty)],discriminant_layout:(width:1,alignment:Msb,ty:Unsigned)))]))),(name:"Ok",discriminant:1,ty:Tuple((elements:[Bits(32)])))],discriminant_layout:(width:1,alignment:Msb,ty:Unsigned)))])))],discriminant_layout:(width:1,alignment:Msb,ty:Unsigned)))),(name:"ready",ty:Bits(1))])),"top.manager.overflow.dff.input":Bits(1),"top.manager.overflow.dff.output":Bits(1),"top.memory.synchronous_ram.input":Struct((name:"rhdl_fpga::core::ram::synchronous::I<rhdl_bits::bits_impl::Bits<32>>",fields:[(name:"read_addr",ty:Bits(8)),(name:"write",ty:Struct((name:"rhdl_fpga::core::ram::synchronous::Write<rhdl_bits::bits_impl::Bits<32>>",fields:[(name:"addr",ty:Bits(8)),(name:"value",ty:Bits(32)),(name:"enable",ty:Bits(1))])))])),"top.memory.synchronous_ram.output":Bits(32),"top.outputs":Struct((name:"rhdl_fpga::axi4lite::basic::testing::read::O",fields:[(name:"data",ty:Enum((name:"Option::<core::result::Result<rhdl_bits::bits_impl::Bits<32>, rhdl_fpga::axi4lite::types::AXI4Error>>",variants:[(name:"None",discriminant:0,ty:Empty),(name:"Some",discriminant:1,ty:Tuple((elements:[Enum((name:"Result::<rhdl_bits::bits_impl::Bits<32>, rhdl_fpga::axi4lite::types::AXI4Error>",variants:[(name:"Err",discriminant:0,ty:Tuple((elements:[Enum((name:"rhdl_fpga::axi4lite::types::AXI4Error",variants:[(name:"SLVERR",discriminant:0,ty:Empty),(name:"DECERR",discriminant:1,ty:Empty)],discriminant_layout:(width:1,alignment:Msb,ty:Unsigned)))]))),(name:"Ok",discriminant:1,ty:Tuple((elements:[Bits(32)])))],discriminant_layout:(width:1,alignment:Msb,ty:Unsigned)))])))],discriminant_layout:(width:1,alignment:Msb,ty:Unsigned)))),(name:"ready",ty:Bits(1))])),"top.read_pending.dff.input":Bits(1),"top.read_pending.dff.output":Bits(1),"top.reset":Reset,"top.subordinate.addr.inner.inner.aux_ff.dff.input":Bits(32),"top.subordinate.addr.inner.inner.aux_ff.dff.output":Bits(32),"top.subordinate.addr.inner.inner.input":Struct((name:"rhdl_fpga::lid::carloni::I<rhdl_bits::bits_impl::Bits<32>>",fields:[(name:"data_in",ty:Bits(32)),(name:"void_in",ty:Bits(1)),(name:"stop_in",ty:Bits(1))])),"top.subordinate.addr.inner.inner.main_ff.dff.input":Bits(32),"top.subordinate.addr.inner.inner.main_ff.dff.output":Bits(32),"top.subordinate.addr.inner.inner.outputs":Struct((name:"rhdl_fpga::lid::carloni::O<rhdl_bits::bits_impl::Bits<32>>",fields:[(name:"data_out",ty:Bits(32)),(name:"void_out",ty:Bits(1)),(name:"stop_out",ty:Bits(1))])),"top.subordinate.addr.inner.inner.state_ff.dff.input":Enum((name:"rhdl_fpga::lid::carloni::State",variants:[(name:"Run",discriminant:0,ty:Empty),(name:"Stall",discriminant:1,ty:Empty)],discriminant_layout:(width:1,alignment:Msb,ty:Unsigned))),"top.subordinate.addr.inner.inner.state_ff.dff.output":Enum((name:"rhdl_fpga::lid::carloni::State",variants:[(name:"Run",discriminant:0,ty:Empty),(name:"Stall",discriminant:1,ty:Empty)],discriminant_layout:(width:1,alignment:Msb,ty:Unsigned))),"top.subordinate.addr.inner.inner.void_ff.dff.input":Bits(1),"top.subordinate.addr.inner.inner.void_ff.dff.output":Bits(1),"top.subordinate.addr.inner.input":Struct((name:"rhdl_fpga::lid::option_carloni::I<rhdl_bits::bits_impl::Bits<32>>",fields:[(name:"data",ty:Enum((name:"Option::<rhdl_bits::bits_impl::Bits<32>>",variants:[(name:"None",discriminant:0,ty:Empty),(name:"Some",discriminant:1,ty:Tuple((elements:[Bits(32)])))],discriminant_layout:(width:1,alignment:Msb,ty:Unsigned)))),(name:"ready",ty:Bits(1))])),"top.subordinate.addr.inner.outputs":Struct((name:"rhdl_fpga::lid::option_carloni::O<rhdl_bits::bits_impl::Bits<32>>",fields:[(name:"data",ty:Enum((name:"Option::<rhdl_bits::bits_impl::Bits<32>>",variants:[(name:"None",discriminant:0,ty:Empty),(name:"Some",discriminant:1,ty:Tuple((elements:[Bits(32)])))],discriminant_layout:(width:1,alignment:Msb,ty:Unsigned)))),(name:"ready",ty:Bits(1))])),"top.subordinate.addr.input":Struct((name:"rhdl_fpga::axi4lite::channel::receiver::I<rhdl_bits::bits_impl::Bits<32>>",fields:[(name:"bus",ty:Struct((name:"rhdl_fpga::axi4lite::channel::DataValid<rhdl_bits::bits_impl::Bits<32>>",fields:[(name:"data",ty:Bits(32)),(name:"valid",ty:Bits(1))]))),(name:"ready",ty:Bits(1))])),"top.subordinate.addr.outputs":Struct((name:"rhdl_fpga::axi4lite::channel::receiver::O<rhdl_bits::bits_impl::Bits<32>>",fields:[(name:"data",ty:Enum((name:"Option::<rhdl_bits::bits_impl::Bits<32>>",variants:[(name:"None",discriminant:0,ty:Empty),(name:"Some",discriminant:1,ty:Tuple((elements:[Bits(32)])))],discriminant_layout:(width:1,alignment:Msb,ty:Unsigned)))),(name:"bus",ty:Struct((name:"rhdl_fpga::axi4lite::channel::Ready",fields:[(name:"ready",ty:Bits(1))])))])),"top.subordinate.data.inner.inner.aux_ff.dff.input":Struct((name:"rhdl_fpga::axi4lite::types::ReadResponse",fields:[(name:"resp",ty:Bits(2)),(name:"data",ty:Bits(32))])),"top.subordinate.data.inner.inner.aux_ff.dff.output":Struct((name:"rhdl_fpga::axi4lite::types::ReadResponse",fields:[(name:"resp",ty:Bits(2)),(name:"data",ty:Bits(32))])),"top.subordinate.data.inner.inner.input":Struct((name:"rhdl_fpga::lid::carloni::I<rhdl_fpga::axi4lite::types::ReadResponse>",fields:[(name:"data_in",ty:Struct((name:"rhdl_fpga::axi4lite::types::ReadResponse",fields:[(name:"resp",ty:Bits(2)),(name:"data",ty:Bits(32))]))),(name:"void_in",ty:Bits(1)),(name:"stop_in",ty:Bits(1))])),"top.subordinate.data.inner.inner.main_ff.dff.input":Struct((name:"rhdl_fpga::axi4lite::types::ReadResponse",fields:[(name:"resp",ty:Bits(2)),(name:"data",ty:Bits(32))])),"top.subordinate.data.inner.inner.main_ff.dff.output":Struct((name:"rhdl_fpga::axi4lite::types::ReadResponse",fields:[(name:"resp",ty:Bits(2)),(name:"data",ty:Bits(32))])),"top.subordinate.data.inner.inner.outputs":Struct((name:"rhdl_fpga::lid::carloni::O<rhdl_fpga::axi4lite::types::ReadResponse>",fields:[(name:"data_out",ty:Struct((name:"rhdl_fpga::axi4lite::types::ReadResponse",fields:[(name:"resp",ty:Bits(2)),(name:"data",ty:Bits(32))]))),(name:"void_out",ty:Bits(1)),(name:"stop_out",ty:Bits(1))])),"top.subordinate.data.inner.inner.state_ff.dff.input":Enum((name:"rhdl_fpga::lid::carloni::State",variants:[(name:"Run",discriminant:0,ty:Empty),(name:"Stall",discriminant:1,ty:Empty)],discriminant_layout:(width:1,alignment:Msb,ty:Unsigned))),"top.subordinate.data.inner.inner.state_ff.dff.output":Enum((name:"rhdl_fpga::lid::carloni::State",variants:[(name:"Run",discriminant:0,ty:Empty),(name:"Stall",discriminant:1,ty:Empty)],discriminant_layout:(width:1,alignment:Msb,ty:Unsigned))),"top.subordinate.data.inner.inner.void_ff.dff.input":Bits(1),"top.subordinate.data.inner.inner.void_ff.dff.output":Bits(1),"top.subordinate.data.inner.input":Struct((name:"rhdl_fpga::lid::option_carloni::I<rhdl_fpga::axi4lite::types::ReadResponse>",fields:[(name:"data",ty:Enum((name:"Option::<rhdl_fpga::axi4lite::types::ReadResponse>",variants:[(name:"None",discriminant:0,ty:Empty),(name:"Some",discriminant:1,ty:Tuple((elements:[Struct((name:"rhdl_fpga::axi4lite::types::ReadResponse",fields:[(name:"resp",ty:Bits(2)),(name:"data",ty:Bits(32))]))])))],discriminant_layout:(width:1,alignment:Msb,ty:Unsigned)))),(name:"ready",ty:Bits(1))])),"top.subordinate.data.inner.outputs":Struct((name:"rhdl_fpga::lid::option_carloni::O<rhdl_fpga::axi4lite::types::ReadResponse>",fields:[(name:"data",ty:Enum((name:"Option::<rhdl_fpga::axi4lite::types::ReadResponse>",variants:[(name:"None",discriminant:0,ty:Empty),(name:"Some",discriminant:1,ty:Tuple((elements:[Struct((name:"rhdl_fpga::axi4lite::types::ReadResponse",fields:[(name:"resp",ty:Bits(2)),(name:"data",ty:Bits(32))]))])))],discriminant_layout:(width:1,alignment:Msb,ty:Unsigned)))),(name:"ready",ty:Bits(1))])),"top.subordinate.data.input":Struct((name:"rhdl_fpga::axi4lite::channel::sender::I<rhdl_fpga::axi4lite::types::ReadResponse>",fields:[(name:"bus",ty:Struct((name:"rhdl_fpga::axi4lite::channel::Ready",fields:[(name:"ready",ty:Bits(1))]))),(name:"to_send",ty:Enum((name:"Option::<rhdl_fpga::axi4lite::types::ReadResponse>",variants:[(name:"None",discriminant:0,ty:Empty),(name:"Some",discriminant:1,ty:Tuple((elements:[Struct((name:"rhdl_fpga::axi4lite::types::ReadResponse",fields:[(name:"resp",ty:Bits(2)),(name:"data",ty:Bits(32))]))])))],discriminant_layout:(width:1,alignment:Msb,ty:Unsigned))))])),"top.subordinate.data.outputs":Struct((name:"rhdl_fpga::axi4lite::channel::sender::O<rhdl_fpga::axi4lite::types::ReadResponse>",fields:[(name:"bus",ty:Struct((name:"rhdl_fpga::axi4lite::channel::DataValid<rhdl_fpga::axi4lite::types::ReadResponse>",fields:[(name:"data",ty:Struct((name:"rhdl_fpga::axi4lite::types::ReadResponse",fields:[(name:"resp",ty:Bits(2)),(name:"data",ty:Bits(32))]))),(name:"valid",ty:Bits(1))]))),(name:"ready",ty:Bits(1))])),"top.subordinate.input":Struct((name:"rhdl_fpga::axi4lite::basic::bridge::read::I",fields:[(name:"axi",ty:Struct((name:"rhdl_fpga::axi4lite::types::ReadMOSI",fields:[(name:"araddr",ty:Bits(32)),(name:"arvalid",ty:Bits(1)),(name:"rready",ty:Bits(1))]))),(name:"reply",ty:Enum((name:"Option::<core::result::Result<rhdl_bits::bits_impl::Bits<32>, rhdl_fpga::axi4lite::types::AXI4Error>>",variants:[(name:"None",discriminant:0,ty:Empty),(name:"Some",discriminant:1,ty:Tuple((elements:[Enum((name:"Result::<rhdl_bits::bits_impl::Bits<32>, rhdl_fpga::axi4lite::types::AXI4Error>",variants:[(name:"Err",discriminant:0,ty:Tuple((elements:[Enum((name:"rhdl_fpga::axi4lite::types::AXI4Error",variants:[(name:"SLVERR",discriminant:0,ty:Empty),(name:"DECERR",discriminant:1,ty:Empty)],discriminant_layout:(width:1,alignment:Msb,ty:Unsigned)))]))),(name:"Ok",discriminant:1,ty:Tuple((elements:[Bits(32)])))],discriminant_layout:(width:1,alignment:Msb,ty:Unsigned)))])))],discriminant_layout:(width:1,alignment:Msb,ty:Unsigned)))),(name:"cmd_ready",ty:Bits(1))])),"top.subordinate.outputs":Struct((name:"rhdl_fpga::axi4lite::basic::bridge::read::O",fields:[(name:"axi",ty:Struct((name:"rhdl_fpga::axi4lite::types::ReadMISO",fields:[(name:"arready",ty:Bits(1)),(name:"rdata",ty:Bits(32)),(name:"rresp",ty:Bits(2)),(name:"rvalid",ty:Bits(1))]))),(name:"cmd",ty:Enum((name:"Option::<rhdl_bits::bits_impl::Bits<32>>",variants:[(name:"None",discriminant:0,ty:Empty),(name:"Some",discriminant:1,ty:Tuple((elements:[Bits(32)])))],discriminant_layout:(width:1,alignment:Msb,ty:Unsigned)))),(name:"reply_ready",ty:Bits(1))]))})
$end
$scope module top $end
$var wire 1 ! clock $end
$var wire 33 " input $end
$var wire 35 # outputs $end
$var wire 1 $ reset $end
$scope module manager $end
$var wire 69 % input $end
$var wire 69 & outputs $end
$scope module addr $end
$var wire 34 ' input $end
$var wire 34 ( outputs $end
$scope module inner $end
$var wire 34 ) input $end
$var wire 34 * outputs $end
$scope module inner $end
$var wire 34 + input $end
$var wire 34 , outputs $end
$scope module aux_ff $end
$scope module dff $end
$var wire 32 - input $end
$var wire 32 . output $end
$upscope $end
$upscope $end
$scope module main_ff $end
$scope module dff $end
$var wire 32 / input $end
$var wire 32 0 output $end
$upscope $end
$upscope $end
$scope module state_ff $end
$scope module dff $end
$var wire 1 1 input $end
$var wire 1 2 output $end
$upscope $end
$upscope $end
$scope module void_ff $end
$scope module dff $end
$var wire 1 3 input $end
$var wire 1 4 output $end
$upscope $end
$upscope $end
$upscope $end
$upscope $end
$upscope $end
$scope module data $end
$var wire 36 5 input $end
$var wire 36 6 outputs $end
$scope module inner $end
$var wire 36 7 input $end
$var wire 36 8 outputs $end
$scope module inner $end
$var wire 36 9 input $end
$var wire 36 : outputs $end
$scope module aux_ff $end
$scope module dff $end
$var wire 34 ; input $end
$var wire 34 < output $end
$upscope $end
$upscope $end
$scope module main_ff $end
$scope module dff $end
$var wire 34 = input $end
$var wire 34 > output $end
$upscope $end
$upscope $end
$scope module state_ff $end
$scope module dff $end
$var wire 1 ? input $end
$var wire 1 @ output $end
$upscope $end
$upscope $end
$scope module void_ff $end
$scope module dff $end
$var wire 1 A input $end
$var wire 1 B output $end
$upscope $end
$upscope $end
$upscope $end
$upscope $end
$upscope $end
$scope module overflow $end
$scope module dff $end
$var wire 1 C input $end
$var wire 1 D output $end
$upscope $end
$upscope $end
$upscope $end
$scope module memory $end
$scope module synchronous_ram $end
$var wire 49 E input $end
$var wire 32 F output $end
$upscope $end
$upscope $end
$scope module read_pending $end
$scope module dff $end
$var wire 1 G input $end
$var wire 1 H output $end
$upscope $end
$upscope $end
$scope module subordinate $end
$var wire 69 I input $end
$var wire 70 J outputs $end
$scope module addr $end
$var wire 34 K input $end
$var wire 34 L outputs $end
$scope module inner $end
$var wire 34 M input $end
$var wire 34 N outputs $end
$scope module inner $end
$var wire 34 O input $end
$var wire 34 P outputs $end
$scope module aux_ff $end
$scope module dff $end
$var wire 32 Q input $end
$var wire 32 R output $end
$upscope $end
$upscope $end
$scope module main_ff $end
$scope module dff $end
$var wire 32 S input $end
$var wire 32 T output $end
$upscope $end
$upscope $end
$scope module state_ff $end
$scope module dff $end
$var wire 1 U input $end
$var wire 1 V output $end
$upscope $end
$upscope $end
$scope module void_ff $end
$scope module dff $end
$var wire 1 W input $end
$var wire 1 X output $end
$upscope $end
$upscope $end
$upscope $end
$upscope $end
$upscope $end
$scope module data $end
$var wire 36 Y input $end
$var wire 36 Z outputs $end
$scope module inner $end
$var wire 36 [ input $end
$var wire 36 \ outputs $end
$scope module inner $end
$var wire 36 ] input $end
$var wire 36 ^ outputs $end
$scope module aux_ff $end
$scope module dff $end
$var wire 34 _ input $end
$var wire 34 ` output $end
$upscope $end
$upscope $end
$scope module main_ff $end
$scope module dff $end
$var wire 34 a input $end
$var wire 34 b output $end
$upscope $end
$upscope $end
$scope module state_ff $end
$scope module dff $end
$var wire 1 c input $end
$var wire 1 d output $end
$upscope $end
$upscope $end
$scope module void_ff $end
$scope module dff $end
$var wire 1 e input $end
$var wire 1 f output $end
$upscope $end
$upscope $end
$upscope $end
$upscope $end
$upscope $end
$upscope $end
$upscope $end
$enddefinitions $end
#0
b0 !
b000000000000000000000000000000000 "
b10000000000000000000000000000000000 #
b1 $
b000000000000000000000000000000000000000000000000000000000000000000000 %
b100000000000000000000000000000000000000000000000000000000000000000000 &
b0000000000000000000000000000000000 '
b1000000000000000000000000000000000 (
b0000000000000000000000000000000000 )
b1100000000000000000000000000000000 *
b1100000000000000000000000000000000 +
b0000000000000000000000000000000000 ,
b00000000000000000000000000000000 -
b00000000000000000000000000000000 .
b00000000000000000000000000000000 /
b00000000000000000000000000000000 0
b0 1
b0 2
b0 3
b0 4
b100000000000000000000000000000000000 5
b000000000000000000000000000000000000 6
b100000000000000000000000000000000000 7
b110000000000000000000000000000000000 8
b010000000000000000000000000000000000 9
b000000000000000000000000000000000000 :
b0000000000000000000000000000000000 ;
b0000000000000000000000000000000000 <
b0000000000000000000000000000000000 =
b0000000000000000000000000000000000 >
b0 ?
b0 @
b1 A
b0 B
b0 C
b0 D
b0000000000000000000000000000000000000000000000000 E
b00000000000000000000000000000000 F
b0 G
b0 H
b100000000000000000000000000000000000000000000000000000000000000000000 I
b1000000000000000000000000000000000000000000000000000000000000000000000 J
b0000000000000000000000000000000000 K
b0000000000000000000000000000000000 L
b0000000000000000000000000000000000 M
b1100000000000000000000000000000000 N
b1100000000000000000000000000000000 O
b0000000000000000000000000000000000 P
b00000000000000000000000000000000 Q
b00000000000000000000000000000000 R
b00000000000000000000000000000000 S
b00000000000000000000000000000000 T
b0 U
b0 V
b0 W
b0 X
b000000000000000000000000000000000000 Y
b100000000000000000000000000000000000 Z
b000000000000000000000000000000000000 [
b110000000000000000000000000000000000 \
b110000000000000000000000000000000000 ]
b000000000000000000000000000000000000 ^
b0000000000000000000000000000000000 _
b0000000000000000000000000000000000 `
b0000000000000000000000000000000000 a
b0000000000000000000000000000000000 b
b0 c
b0 d
b0 e
b0 f
#50
b1 !
b1000000000000000000000000000000000 *
b0100000000000000000000000000000000 ,
b1 3
b1 4
b100000000000000000000000000000000000 8
b010000000000000000000000000000000000 :
b1 B
b1000000000000000000000000000000000 N
b0100000000000000000000000000000000 P
b1 W
b1 X
b100000000000000000000000000000000000 \
b010000000000000000000000000000000000 ^
b1 e
b1 f
#51
b100000000000000000000000000000000 "
b0 $
b100000000000000000000000000000000000000000000000000000000000000000000 %
b100000000000000000000000000000000001000000000000000000000000000000000 &
b1000000000000000000000000000000000 '
b0100000000000000000000000000000000 )
b1000000000000000000000000000000000 +
b0 3
b100000000000000000000000000000000000 6
b100000000000000000000000000000000001000000000000000000000000000000000 I
b1000000000000000000000000000000000000000000000000000000000000000000001 J
b1000000000000000000000000000000000 K
b1000000000000000000000000000000000 L
b1000000000000000000000000000000000 M
b0100000000000000000000000000000000 O
b000000000000000000000000000000000001 Y
b100000000000000000000000000000000000 [
b010000000000000000000000000000000000 ]
b100000000000000000000000000000000000000000000000000000000000000000001 %
b1000000000000000000000000000000001 '
b1100000000000000000000000000000000 )
b0000000000000000000000000000000000 +
#100
b0 !
#150
b1 !
b100000000000000000000000000000000001100000000000000000000000000000000 &
b1100000000000000000000000000000000 (
b1100000000000000000000000000000000 *
b0000000000000000000000000000000000 ,
b0 4
b100000000000000000000000000000000001100000000000000000000000000000000 I
b1100000000000000000000000000000000 K
b1100000000000000000000000000000000 M
b0000000000000000000000000000000000 O
b0 W
#151
b100000000000000000000000000001000 "
b100000000000000000000000000001000000000000000000000000000000000000001 %
b1000000000000000000000000000010001 '
b1100000000000000000000000000001000 )
b0000000000000000000000000000001000 +
b00000000000000000000000000001000 /
#200
b0 !
#250
b1 !
b100000000000000000000000000000000001100000000000000000000000000001000 &
b1100000000000000000000000000001000 (
b1100000000000000000000000000001000 *
b0000000000000000000000000000001000 ,
b00000000000000000000000000001000 0
b1 G
b100000000000000000000000000000000001100000000000000000000000000001000 I
b1100000000000000000000000000000000000000000000000000000000000000000001 J
b1100000000000000000000000000001000 K
b1100000000000000000000000000000000 L
b1100000000000000000000000000001000 M
b1100000000000000000000000000000000 N
b0000000000000000000000000000001000 O
b0000000000000000000000000000000000 P
b00000000000000000000000000001000 S
b0 X
#251
b100000000000000000000000000010000 "
b100000000000000000000000000010000000000000000000000000000000000000001 %
b1000000000000000000000000000100001 '
b1100000000000000000000000000010000 )
b0000000000000000000000000000010000 +
b00000000000000000000000000010000 /
#300
b0 !
#350
b1 !
b100000000000000000000000000000000001100000000000000000000000000010000 &
b1100000000000000000000000000010000 (
b1100000000000000000000000000010000 *
b0000000000000000000000000000010000 ,
b00000000000000000000000000010000 0
b0000000000000000000000000000000000000000000000001 E
b1 H
b111000000000000000000000000000000001100000000000000000000000000010000 I
b1100000000000000000000000000001000000000000000000000000000000000000001 J
b1100000000000000000000000000010000 K
b1100000000000000000000000000001000 L
b1100000000000000000000000000010000 M
b1100000000000000000000000000001000 N
b0000000000000000000000000000010000 O
b0000000000000000000000000000001000 P
b00000000000000000000000000010000 S
b00000000000000000000000000001000 T
b100000000000000000000000000000000001 Y
b110000000000000000000000000000000000 [
b000000000000000000000000000000000000 ]
b0 e
